<?xml version="1.0" encoding="iso-8859-1"?>
<!-- Generator: Adobe Illustrator 17.0.0, SVG Export Plug-In . SVG Version: 6.00 Build 0)  -->
<!DOCTYPE svg PUBLIC "-//W3C//DTD SVG 1.1//EN" "http://www.w3.org/Graphics/SVG/1.1/DTD/svg11.dtd">
<svg version="1.1" id="Capa_1" xmlns="http://www.w3.org/2000/svg" xmlns:xlink="http://www.w3.org/1999/xlink" x="0px" y="0px"
	 width="999.09991px" height="264.0264px" viewBox="1081.40649 -809.30151 999.09991 264.0264"
	 style="enable-background:new 1081.40649 -809.30151 999.09991 264.0264;" xml:space="preserve">
<g>
	<g>
		<path style="fill:#F2709E;" d="M1268.21301-681.20428l-63.12,63.12c-5.26123,5.26123-13.79138,5.26123-19.05273,0
			l-34.34656-34.34656c-5.26123-5.26129-5.26123-13.79144,0-19.05267l63.12-63.11993c5.26123-5.26129,13.79138-5.26129,19.05273,0
			l34.34656,34.3465C1273.47424-694.99567,1273.47424-686.46552,1268.21301-681.20428z"/>
		<path style="fill:#F2709E;" d="M1291.97278-774.45898h-69.19543l-101.29956,101.29962c-6.2854,6.28546-6.2854,16.47668,0,22.76208
			l62.52856,62.52856c6.2854,6.28546,16.47668,6.28546,22.76208,0l101.29956-101.29956v-69.19543
			C1308.06799-767.25275,1300.86182-774.45898,1291.97278-774.45898z M1276.04675-731.63214
			c-4.71765,0-8.55591-3.8382-8.55591-8.55585s3.83826-8.55591,8.55591-8.55591s8.55579,3.83826,8.55579,8.55591
			C1284.60254-735.47015,1280.7644-731.63214,1276.04675-731.63214z"/>
		<path style="fill:#1A4162;" d="M1291.97278-778.34723h-69.19543c-1.03113,0-2.02039,0.40979-2.74939,1.13885l-37.06482,37.06482
			c-1.51843,1.51843-1.51843,3.98047,0,5.49927c1.51831,1.51794,3.98047,1.51794,5.49915,0l35.92603-35.92639h67.58484
			c6.73108,0,12.20703,5.47589,12.20703,12.20697v67.58447L1204.01904-590.6181c-4.76001,4.75964-12.50439,4.75885-17.26331,0
			l-62.52856-62.52856c-2.30566-2.30579-3.5752-5.37091-3.5752-8.63165s1.2699-6.32587,3.5752-8.63123l42.26587-42.26587
			c1.51843-1.51837,1.51843-3.98047,0-5.49921c-1.51843-1.51801-3.98047-1.51801-5.49927,0l-42.26575,42.26581
			c-3.77405,3.77441-5.85266,8.79303-5.85266,14.13049s2.07861,10.35608,5.85303,14.13086l62.52856,62.52856
			c3.896,3.89569,9.01306,5.84332,14.13049,5.84332c5.11731,0,10.23474-1.948,14.13086-5.84332l101.29919-101.29956
			c0.729-0.72943,1.13879-1.71826,1.13879-2.74945v-69.1958C1311.9563-769.38275,1302.99182-778.34723,1291.97278-778.34723z"/>
		<g>
			<g>
				<path style="fill:#1A4162;" d="M1276.04675-748.7439c-4.71765,0-8.55591,3.83826-8.55591,8.55591
					s3.83826,8.55585,8.55591,8.55585s8.55579-3.83801,8.55579-8.55585
					C1284.60254-744.90564,1280.7644-748.7439,1276.04675-748.7439z M1276.04675-735.35205
					c-2.6665,0-4.83594-2.16931-4.83594-4.83594c0-2.66669,2.16943-4.83594,4.83594-4.83594
					c2.66638,0,4.83594,2.16925,4.83594,4.83594C1280.88269-737.52136,1278.71313-735.35205,1276.04675-735.35205z"/>
			</g>
		</g>
		<path style="fill:#1A4162;" d="M1224.34009-742.43799c-4.63721,0-8.9967,1.80609-12.27576,5.08472l-63.12036,63.11993
			c-3.27905,3.27942-5.08472,7.63898-5.08472,12.27576c0,4.63757,1.80615,8.99713,5.08472,12.27576l34.34656,34.34692
			c3.3844,3.3844,7.8302,5.07654,12.27576,5.07654c4.44592,0,8.89136-1.69257,12.27576-5.07654l63.12-63.12036l0,0
			c3.27893-3.27899,5.08472-7.63855,5.08472-12.27576s-1.80579-8.99677-5.08472-12.27576l-34.34656-34.3465
			C1233.33679-740.63226,1228.97729-742.43799,1224.34009-742.43799z M1268.27051-690.73102
			c0,2.56006-0.99658,4.96655-2.80701,6.77692l0,0l-4.65662,4.65668l-18.90063-18.90027c-1.51831-1.51801-3.98047-1.51801-5.49878,0
			c-1.51843,1.51837-1.51843,3.98047,0,5.49921l18.90063,18.90027l-52.96448,52.96448c-3.73669,3.73627-9.81726,3.73669-13.55396,0
			l-34.34644-34.34692c-1.81006-1.81-2.80701-4.21686-2.80701-6.77692s0.99695-4.96655,2.80737-6.77692l63.12-63.12
			c1.80994-1.81036,4.2168-2.80731,6.77686-2.80731s4.96655,0.99658,6.77698,2.80731l34.34644,34.34656
			C1267.27356-695.69751,1268.27051-693.29108,1268.27051-690.73102z"/>
		<path style="fill:#FFFFFF;" d="M1208.29749-643.66431c6.25562-7.57611,4.70935-19.21887-3.44678-25.95343
			c-4.396-3.62982-5.40869-9.68689-2.2583-13.5022c3.15027-3.81531,9.28992-3.96674,13.68555-0.33722
			c4.39575,3.62958,5.40869,9.68689,2.25842,13.5022c-1.55505,1.8833-1.28894,4.67041,0.59436,6.22546
			c1.88318,1.55505,4.67041,1.28894,6.22534-0.59436c5.35559-6.4859,4.98792-15.94952-0.3446-22.76514l2.77478-3.36047
			c1.55505-1.8833,1.28894-4.67041-0.59436-6.22546c-1.8833-1.55499-4.67041-1.28894-6.22546,0.59436l-2.77466,3.36047
			c-7.7019-3.94684-17.06372-2.51691-22.41919,3.96906c-6.25562,7.57611-4.70911,19.21857,3.44702,25.95306
			c4.396,3.62982,5.40869,9.68689,2.25806,13.50256c-3.15051,3.81567-9.28955,3.96704-13.68555,0.33722
			s-5.40869-9.68689-2.25842-13.5022c1.55505-1.8833,1.28894-4.67041-0.59424-6.22546
			c-1.8833-1.55505-4.67041-1.28894-6.22546,0.5943c-5.35547,6.48596-4.98792,15.94958,0.3446,22.7652l-2.24963,2.72449
			c-1.55505,1.8833-1.28894,4.67047,0.59436,6.22546c1.88318,1.55505,4.67041,1.28894,6.22534-0.5943l2.24963-2.72455
			C1193.5802-635.74835,1202.94226-637.17865,1208.29749-643.66431z"/>
		<path style="fill:#1A4162;" d="M1175.50415-723.3006c1.02649,0,2.02588-0.41211,2.75293-1.13538
			c0.72327-0.72668,1.13928-1.72601,1.13928-2.75293c0-1.02258-0.41602-2.02148-1.13928-2.7486
			c-0.72705-0.72327-1.72644-1.13965-2.75293-1.13965c-1.02258,0-2.02185,0.41602-2.74902,1.13965
			c-0.72314,0.72711-1.13928,1.72601-1.13928,2.7486c0,1.02692,0.41614,2.02625,1.13928,2.75293
			C1173.4823-723.71271,1174.48157-723.3006,1175.50415-723.3006z"/>
	</g>
	<g>
		<path style="fill:#1A4162;" d="M1391.15723-757.42383h-18.28125v50.74219h-7.46094v-50.74219h-18.24219v-6.13281h43.98438
			V-757.42383z"/>
		<path style="fill:#1A4162;" d="M1415.58008-710.86133c-2.8125,3.30762-6.94043,4.96094-12.38281,4.96094
			c-4.50586,0-7.93652-1.30859-10.29297-3.92578c-2.35742-2.61719-3.54883-6.49023-3.57422-11.62109v-27.5h7.22656v27.30469
			c0,6.40625,2.60352,9.60938,7.8125,9.60938c5.52051,0,9.19238-2.05664,11.01562-6.17188v-30.74219h7.22656v42.26562h-6.875
			L1415.58008-710.86133z"/>
		<path style="fill:#1A4162;" d="M1478.00195-717.89258c0-1.95312-0.73633-3.46973-2.20703-4.55078
			c-1.47168-1.08008-4.03711-2.01172-7.69531-2.79297c-3.65918-0.78125-6.5625-1.71875-8.71094-2.8125
			s-3.7373-2.39551-4.76562-3.90625c-1.0293-1.50977-1.54297-3.30664-1.54297-5.39062c0-3.46289,1.46484-6.39258,4.39453-8.78906
			c2.92969-2.39551,6.67285-3.59375,11.23047-3.59375c4.79102,0,8.67773,1.2373,11.66016,3.71094
			c2.98145,2.47461,4.47266,5.63867,4.47266,9.49219h-7.26562c0-1.97852-0.83984-3.68457-2.51953-5.11719
			c-1.67969-1.43164-3.7959-2.14844-6.34766-2.14844c-2.63086,0-4.6875,0.57324-6.17188,1.71875
			c-1.48438,1.14648-2.22656,2.64355-2.22656,4.49219c0,1.74512,0.68945,3.06055,2.07031,3.94531
			c1.37988,0.88574,3.87305,1.73242,7.48047,2.53906c3.60645,0.80762,6.5293,1.77148,8.76953,2.89062
			c2.23926,1.12012,3.89941,2.46777,4.98047,4.04297c1.08008,1.57617,1.62109,3.49609,1.62109,5.76172
			c0,3.77637-1.51074,6.80371-4.53125,9.08203c-3.02148,2.2793-6.94043,3.41797-11.75781,3.41797
			c-3.38574,0-6.38086-0.59961-8.98438-1.79688c-2.60449-1.19727-4.64258-2.87109-6.11328-5.01953
			c-1.47168-2.14844-2.20703-4.47266-2.20703-6.97266h7.22656c0.12988,2.42188,1.09961,4.34277,2.91016,5.76172
			c1.80957,1.41992,4.19922,2.12891,7.16797,2.12891c2.73438,0,4.92773-0.55273,6.58203-1.66016
			C1477.1748-714.56543,1478.00195-716.04297,1478.00195-717.89258z"/>
		<path style="fill:#1A4162;" d="M1510.125-705.90039c-5.72949,0-10.39062-1.88086-13.98438-5.64453
			c-3.59375-3.7627-5.39062-8.79492-5.39062-15.09766v-1.32812c0-4.19238,0.80078-7.93555,2.40234-11.23047
			c1.60156-3.29395,3.84082-5.87207,6.71875-7.73438c2.87695-1.86133,5.99609-2.79297,9.35547-2.79297
			c5.49414,0,9.76562,1.81055,12.8125,5.42969c3.04688,3.62012,4.57031,8.80273,4.57031,15.54688v3.00781h-28.63281
			c0.10352,4.16699,1.32129,7.5332,3.65234,10.09766c2.33008,2.56543,5.29297,3.84766,8.88672,3.84766
			c2.55176,0,4.71289-0.52051,6.48438-1.5625c1.77051-1.04102,3.32031-2.42188,4.64844-4.14062l4.41406,3.4375
			C1522.52051-708.62109,1517.20801-705.90039,1510.125-705.90039z M1509.22656-743.79102
			c-2.91699,0-5.36523,1.06152-7.34375,3.18359c-1.97949,2.12305-3.20312,5.09766-3.67188,8.92578h21.17188v-0.54688
			c-0.20898-3.67188-1.19824-6.5166-2.96875-8.53516C1514.64258-742.78125,1512.24707-743.79102,1509.22656-743.79102z"/>
		<path style="fill:#1A4162;" d="M1532.01855-728.16602c0-6.58789,1.52344-11.8291,4.57031-15.72266
			c3.04688-3.89258,7.08301-5.83984,12.10938-5.83984c5.15625,0,9.17969,1.82324,12.07031,5.46875l0.35156-4.6875h6.60156v41.25
			c0,5.46875-1.62109,9.77832-4.86328,12.92969c-3.24219,3.15039-7.59766,4.72656-13.06641,4.72656
			c-3.04688,0-6.0293-0.65137-8.94531-1.95312c-2.91699-1.30273-5.14355-3.08594-6.67969-5.35156l3.75-4.33594
			c3.09863,3.82812,6.8877,5.74219,11.36719,5.74219c3.51562,0,6.25586-0.99023,8.22266-2.96875
			c1.96582-1.97949,2.94922-4.76562,2.94922-8.35938v-3.63281c-2.89062,3.33398-6.83594,5-11.83594,5
			c-4.94824,0-8.95215-1.99219-12.01172-5.97656C1533.54785-715.86133,1532.01855-721.29102,1532.01855-728.16602z
			 M1539.28418-727.3457c0,4.76562,0.97656,8.50977,2.92969,11.23047c1.95312,2.72168,4.6875,4.08203,8.20312,4.08203
			c4.55664,0,7.90332-2.07031,10.03906-6.21094v-19.29688c-2.21387-4.03613-5.53418-6.05469-9.96094-6.05469
			c-3.51562,0-6.26367,1.36719-8.24219,4.10156C1540.27344-736.75977,1539.28418-732.70996,1539.28418-727.3457z"/>
		<path style="fill:#1A4162;" d="M1603.28125-710.86133c-2.8125,3.30762-6.94043,4.96094-12.38281,4.96094
			c-4.50586,0-7.93652-1.30859-10.29297-3.92578c-2.35742-2.61719-3.54883-6.49023-3.57422-11.62109v-27.5h7.22656v27.30469
			c0,6.40625,2.60352,9.60938,7.8125,9.60938c5.52051,0,9.19238-2.05664,11.01562-6.17188v-30.74219h7.22656v42.26562h-6.875
			L1603.28125-710.86133z"/>
		<path style="fill:#1A4162;" d="M1640.21484-742.46289c-1.09375-0.18164-2.2793-0.27344-3.55469-0.27344
			c-4.74023,0-7.95605,2.01855-9.64844,6.05469v30h-7.22656v-42.26562h7.03125l0.11719,4.88281
			c2.36914-3.77539,5.72852-5.66406,10.07812-5.66406c1.40625,0,2.47363,0.18262,3.20312,0.54688V-742.46289z"/>
		<path style="fill:#1A4162;" d="M1642.89355-728.20508c0-4.14062,0.81348-7.86426,2.44141-11.17188
			c1.62695-3.30664,3.89258-5.85938,6.79688-7.65625c2.90332-1.79688,6.2168-2.69531,9.94141-2.69531
			c5.75488,0,10.41016,1.99219,13.96484,5.97656s5.33203,9.28418,5.33203,15.89844v0.50781
			c0,4.11523-0.78809,7.80664-2.36328,11.07422c-1.57617,3.26855-3.82812,5.81445-6.75781,7.63672
			c-2.92969,1.82324-6.2959,2.73438-10.09766,2.73438c-5.72949,0-10.37109-1.99219-13.92578-5.97656
			s-5.33203-9.25781-5.33203-15.82031V-728.20508z M1650.15918-727.3457c0,4.6875,1.08691,8.45117,3.26172,11.28906
			c2.17383,2.83887,5.08398,4.25781,8.73047,4.25781c3.67188,0,6.58789-1.43848,8.75-4.31641
			c2.16113-2.87695,3.24219-6.90723,3.24219-12.08984c0-4.63477-1.10059-8.3916-3.30078-11.26953
			c-2.20117-2.87695-5.12402-4.31641-8.76953-4.31641c-3.56836,0-6.44531,1.41992-8.63281,4.25781
			C1651.25293-736.69434,1650.15918-732.63184,1650.15918-727.3457z"/>
		<path style="fill:#1A4162;" d="M1708.47949-728.16602c0-6.48438,1.53613-11.69922,4.60938-15.64453
			c3.07227-3.94531,7.0957-5.91797,12.07031-5.91797c4.94727,0,8.86719,1.69336,11.75781,5.07812v-22.03125h7.22656v60h-6.64062
			l-0.35156-4.53125c-2.89062,3.54199-6.91406,5.3125-12.07031,5.3125c-4.89648,0-8.88672-2.00488-11.97266-6.01562
			c-3.08594-4.00977-4.62891-9.24414-4.62891-15.70312V-728.16602z M1715.70605-727.3457c0,4.79199,0.98926,8.54199,2.96875,11.25
			c1.97852,2.70898,4.71289,4.0625,8.20312,4.0625c4.58301,0,7.92969-2.05664,10.03906-6.17188v-19.41406
			c-2.16211-3.98438-5.48242-5.97656-9.96094-5.97656c-3.54199,0-6.30273,1.36719-8.28125,4.10156
			C1716.69531-736.75977,1715.70605-732.70996,1715.70605-727.3457z"/>
		<path style="fill:#1A4162;" d="M1771.29395-705.90039c-5.72949,0-10.39062-1.88086-13.98438-5.64453
			c-3.59375-3.7627-5.39062-8.79492-5.39062-15.09766v-1.32812c0-4.19238,0.80078-7.93555,2.40234-11.23047
			c1.60156-3.29395,3.84082-5.87207,6.71875-7.73438c2.87695-1.86133,5.99609-2.79297,9.35547-2.79297
			c5.49414,0,9.76562,1.81055,12.8125,5.42969c3.04688,3.62012,4.57031,8.80273,4.57031,15.54688v3.00781h-28.63281
			c0.10352,4.16699,1.32129,7.5332,3.65234,10.09766c2.33008,2.56543,5.29297,3.84766,8.88672,3.84766
			c2.55176,0,4.71289-0.52051,6.48438-1.5625c1.77051-1.04102,3.32031-2.42188,4.64844-4.14062l4.41406,3.4375
			C1783.68945-708.62109,1778.37695-705.90039,1771.29395-705.90039z M1770.39551-743.79102
			c-2.91699,0-5.36523,1.06152-7.34375,3.18359c-1.97949,2.12305-3.20312,5.09766-3.67188,8.92578h21.17188v-0.54688
			c-0.20898-3.67188-1.19824-6.5166-2.96875-8.53516C1775.81152-742.78125,1773.41602-743.79102,1770.39551-743.79102z"/>
		<path style="fill:#1A4162;" d="M1842.03613-706.68164c-0.41699-0.83301-0.75586-2.31738-1.01562-4.45312
			c-3.35938,3.49023-7.37012,5.23438-12.03125,5.23438c-4.16699,0-7.58496-1.17773-10.25391-3.53516
			c-2.66992-2.35645-4.00391-5.34473-4.00391-8.96484c0-4.40039,1.67285-7.81836,5.01953-10.25391
			c3.3457-2.43457,8.05273-3.65234,14.12109-3.65234h7.03125v-3.32031c0-2.52539-0.75586-4.53711-2.26562-6.03516
			c-1.51074-1.49707-3.7373-2.24609-6.67969-2.24609c-2.57812,0-4.74023,0.65137-6.48438,1.95312
			c-1.74512,1.30273-2.61719,2.87793-2.61719,4.72656h-7.26562c0-2.10938,0.74805-4.14648,2.24609-6.11328
			c1.49707-1.96582,3.52832-3.52148,6.09375-4.66797c2.56445-1.14551,5.38379-1.71875,8.45703-1.71875
			c4.86914,0,8.68457,1.21777,11.44531,3.65234c2.75977,2.43555,4.19238,5.78809,4.29688,10.05859v19.45312
			c0,3.88086,0.49414,6.9668,1.48438,9.25781v0.625H1842.03613z M1830.04395-712.18945c2.26562,0,4.41406-0.58594,6.44531-1.75781
			s3.50195-2.69531,4.41406-4.57031v-8.67188h-5.66406c-8.85449,0-13.28125,2.5918-13.28125,7.77344
			c0,2.26562,0.75488,4.03711,2.26562,5.3125C1825.7334-712.82715,1827.67383-712.18945,1830.04395-712.18945z"/>
		<path style="fill:#1A4162;" d="M1883.49512-710.86133c-2.8125,3.30762-6.94043,4.96094-12.38281,4.96094
			c-4.50586,0-7.93652-1.30859-10.29297-3.92578c-2.35742-2.61719-3.54883-6.49023-3.57422-11.62109v-27.5h7.22656v27.30469
			c0,6.40625,2.60352,9.60938,7.8125,9.60938c5.52051,0,9.19238-2.05664,11.01562-6.17188v-30.74219h7.22656v42.26562h-6.875
			L1883.49512-710.86133z"/>
		<path style="fill:#1A4162;" d="M1910.49219-759.18164v10.23438h7.89062v5.58594h-7.89062v26.24414
			c0,1.69482,0.35156,2.96582,1.05469,3.81348c0.70312,0.84668,1.90039,1.27051,3.59375,1.27051
			c0.83301,0,1.97852-0.15625,3.4375-0.46875v5.8252c-1.90137,0.51758-3.75,0.77637-5.54688,0.77637
			c-3.22949,0-5.66406-0.97656-7.30469-2.92969s-2.46094-4.72656-2.46094-8.32031v-26.21094h-7.69531v-5.58594h7.69531v-10.23438
			H1910.49219z"/>
		<path style="fill:#1A4162;" d="M1921.74609-728.20508c0-4.14062,0.81348-7.86426,2.44141-11.17188
			c1.62695-3.30664,3.89258-5.85938,6.79688-7.65625c2.90332-1.79688,6.2168-2.69531,9.94141-2.69531
			c5.75488,0,10.41016,1.99219,13.96484,5.97656s5.33203,9.28418,5.33203,15.89844v0.50781
			c0,4.11523-0.78809,7.80664-2.36328,11.07422c-1.57617,3.26855-3.82812,5.81445-6.75781,7.63672
			c-2.92969,1.82324-6.2959,2.73438-10.09766,2.73438c-5.72949,0-10.37109-1.99219-13.92578-5.97656
			s-5.33203-9.25781-5.33203-15.82031V-728.20508z M1929.01172-727.3457c0,4.6875,1.08691,8.45117,3.26172,11.28906
			c2.17383,2.83887,5.08398,4.25781,8.73047,4.25781c3.67188,0,6.58789-1.43848,8.75-4.31641
			c2.16113-2.87695,3.24219-6.90723,3.24219-12.08984c0-4.63477-1.10059-8.3916-3.30078-11.26953
			c-2.20117-2.87695-5.12402-4.31641-8.76953-4.31641c-3.56836,0-6.44531,1.41992-8.63281,4.25781
			C1930.10547-736.69434,1929.01172-732.63184,1929.01172-727.3457z"/>
		<path style="fill:#1A4162;" d="M1374.08691-625.68164c-0.52148-1.01562-0.89844-2.27832-1.13281-3.78906
			c-2.73438,3.04688-6.28906,4.57031-10.66406,4.57031c-4.14062,0-7.57227-1.19727-10.29297-3.59375
			c-2.72168-2.39551-4.08203-5.41602-4.08203-9.0625c0-4.47852,1.66016-7.91602,4.98047-10.3125
			c3.32031-2.39551,8.11816-3.60645,14.39453-3.63281h5.19531v-2.42188c0-1.95312-0.50195-3.51562-1.50391-4.6875
			c-1.00293-1.17188-2.58496-1.75781-4.74609-1.75781c-1.90137,0-3.39258,0.45605-4.47266,1.36719
			c-1.08105,0.91211-1.62109,2.16211-1.62109,3.75h-11.28906c0-2.44727,0.75488-4.71289,2.26562-6.79688
			c1.50977-2.08301,3.64551-3.7168,6.40625-4.90234c2.75977-1.18457,5.85938-1.77734,9.29688-1.77734
			c5.20801,0,9.3418,1.30859,12.40234,3.92578c3.05957,2.61719,4.58984,6.2959,4.58984,11.03516v18.32031
			c0.02539,4.01074,0.58594,7.04492,1.67969,9.10156v0.66406H1374.08691z M1364.75098-633.5332
			c1.66602,0,3.20312-0.37109,4.60938-1.11328s2.44727-1.73828,3.125-2.98828v-7.26562h-4.21875
			c-5.65137,0-8.65918,1.95312-9.02344,5.85938l-0.03906,0.66406c0,1.40625,0.49414,2.56543,1.48438,3.47656
			C1361.67773-633.98828,1363.03223-633.5332,1364.75098-633.5332z"/>
		<path style="fill:#1A4162;" d="M1402.97559-625.68164h-11.32812v-60h11.32812V-625.68164z"/>
		<path style="fill:#1A4162;" d="M1442.78027-667.94727l0.35156,4.72656c2.99414-3.67188,7.04395-5.50781,12.14844-5.50781
			c5.44238,0,9.17969,2.14844,11.21094,6.44531c2.96875-4.29688,7.2002-6.44531,12.69531-6.44531
			c4.58301,0,7.99414,1.33496,10.23438,4.00391c2.23926,2.66992,3.35938,6.68652,3.35938,12.05078v26.99219h-11.32812v-27.01562
			c0-2.40088-0.46875-4.15576-1.40625-5.26514c-0.9375-1.10986-2.5918-1.66455-4.96094-1.66455
			c-3.38574,0-5.72949,1.61865-7.03125,4.85449l0.03906,29.09082h-11.28906v-26.97656c0-2.45312-0.48242-4.22852-1.44531-5.32422
			c-0.96387-1.09668-2.60449-1.64453-4.92188-1.64453c-3.20312,0-5.52148,1.33105-6.95312,3.99365v29.95166h-11.28906v-42.26562
			H1442.78027z"/>
		<path style="fill:#1A4162;" d="M1519.36133-624.90039c-6.19824,0-11.24414-1.90039-15.13672-5.70312
			c-3.89355-3.80176-5.83984-8.86719-5.83984-15.19531v-1.09375c0-4.24414,0.82031-8.04004,2.46094-11.38672
			c1.64062-3.3457,3.96484-5.92383,6.97266-7.73438c3.00781-1.80957,6.43848-2.71484,10.29297-2.71484
			c5.78125,0,10.33203,1.82324,13.65234,5.46875c3.32031,3.64648,4.98047,8.81543,4.98047,15.50781v4.60938h-26.91406
			c0.36426,2.76074,1.46484,4.97461,3.30078,6.64062c1.83594,1.66699,4.16016,2.5,6.97266,2.5
			c4.34863,0,7.74707-1.5752,10.19531-4.72656l5.54688,6.21094c-1.69336,2.39648-3.98438,4.26465-6.875,5.60547
			S1522.87695-624.90039,1519.36133-624.90039z M1518.07227-659.62695c-2.24023,0-4.05664,0.75879-5.44922,2.27588
			c-1.39355,1.51758-2.28516,3.68848-2.67578,6.51318h15.70312v-0.90283c-0.05273-2.51074-0.72949-4.45312-2.03125-5.82617
			C1522.31641-658.94043,1520.46777-659.62695,1518.07227-659.62695z"/>
		<path style="fill:#1A4162;" d="M1553.65527-667.94727v44.57031c0,4.66113-1.2373,8.28711-3.71094,10.87891
			c-2.47461,2.59082-6.04199,3.88672-10.70312,3.88672c-1.95312,0-3.81445-0.22168-5.58594-0.66406v-8.94531
			c1.35449,0.23438,2.53906,0.35156,3.55469,0.35156c3.41113,0,5.11719-1.81055,5.11719-5.42969v-44.64844H1553.65527z
			 M1541.42871-678.88477c0-1.69238,0.56641-3.08594,1.69922-4.17969s2.67578-1.64062,4.62891-1.64062
			s3.49609,0.54688,4.62891,1.64062s1.69922,2.4873,1.69922,4.17969c0,1.71875-0.58008,3.125-1.73828,4.21875
			c-1.15918,1.09375-2.68945,1.64062-4.58984,1.64062c-1.90137,0-3.43164-0.54688-4.58984-1.64062
			C1542.00781-675.75977,1541.42871-677.16602,1541.42871-678.88477z"/>
		<path style="fill:#1A4162;" d="M1559.29395-647.20508c0-4.19238,0.80664-7.92969,2.42188-11.21094
			c1.61426-3.28125,3.93848-5.82031,6.97266-7.61719c3.0332-1.79688,6.55566-2.69531,10.56641-2.69531
			c5.70312,0,10.35742,1.74512,13.96484,5.23438c3.60645,3.49023,5.61816,8.22949,6.03516,14.21875l0.07812,2.89062
			c0,6.48438-1.81055,11.68652-5.42969,15.60547c-3.62012,3.91992-8.47656,5.87891-14.57031,5.87891
			s-10.95703-1.95312-14.58984-5.85938s-5.44922-9.21875-5.44922-15.9375V-647.20508z M1570.58301-646.40381
			c0,4.01709,0.75488,7.08838,2.26562,9.21338c1.50977,2.12598,3.67188,3.18848,6.48438,3.18848
			c2.73438,0,4.86914-1.0498,6.40625-3.14941c1.53613-2.09961,2.30469-5.45703,2.30469-10.07373
			c0-3.93799-0.76855-6.98975-2.30469-9.15479c-1.53711-2.16406-3.69824-3.24707-6.48438-3.24707
			c-2.76074,0-4.89648,1.07617-6.40625,3.22754C1571.33789-654.24707,1570.58301-650.91553,1570.58301-646.40381z"/>
		<path style="fill:#1A4162;" d="M1628.86816-657.36133c-1.53711-0.20801-2.89062-0.3125-4.0625-0.3125
			c-4.27148,0-7.07031,1.44531-8.39844,4.33594v27.65625h-11.28906v-42.26562h10.66406l0.3125,5.03906
			c2.26562-3.87988,5.40332-5.82031,9.41406-5.82031c1.25,0,2.42188,0.16992,3.51562,0.50781L1628.86816-657.36133z"/>
		<path style="fill:#1A4162;" d="M1671.79785-634.00195c2.08301,0,3.77539-0.57227,5.07812-1.71875
			c1.30176-1.14551,1.97852-2.66895,2.03125-4.57031h10.58594c-0.02637,2.86523-0.80762,5.48828-2.34375,7.87109
			c-1.53711,2.38281-3.63965,4.23242-6.30859,5.54688c-2.66992,1.31445-5.61914,1.97266-8.84766,1.97266
			c-6.04199,0-10.80762-1.91992-14.29688-5.76172c-3.49023-3.84082-5.23438-9.14648-5.23438-15.91797v-0.74219
			c0-6.50977,1.73145-11.70508,5.19531-15.58594c3.46289-3.87988,8.21582-5.82031,14.25781-5.82031
			c5.28613,0,9.52441,1.50391,12.71484,4.51172c3.18945,3.00781,4.81055,7.01172,4.86328,12.01172h-10.58594
			c-0.05273-2.19824-0.72949-3.98535-2.03125-5.36035c-1.30273-1.37402-3.02148-2.06152-5.15625-2.06152
			c-2.63086,0-4.61621,0.95898-5.95703,2.87549c-1.3418,1.91699-2.01172,5.02734-2.01172,9.33057v1.17334
			c0,4.35596,0.66406,7.48584,1.99219,9.38965C1667.07129-634.95361,1669.08887-634.00195,1671.79785-634.00195z"/>
		<path style="fill:#1A4162;" d="M1693.02832-647.20508c0-4.19238,0.80664-7.92969,2.42188-11.21094
			c1.61426-3.28125,3.93848-5.82031,6.97266-7.61719c3.0332-1.79688,6.55566-2.69531,10.56641-2.69531
			c5.70312,0,10.35742,1.74512,13.96484,5.23438c3.60645,3.49023,5.61816,8.22949,6.03516,14.21875l0.07812,2.89062
			c0,6.48438-1.81055,11.68652-5.42969,15.60547c-3.62012,3.91992-8.47656,5.87891-14.57031,5.87891
			s-10.95703-1.95312-14.58984-5.85938s-5.44922-9.21875-5.44922-15.9375V-647.20508z M1704.31738-646.40381
			c0,4.01709,0.75488,7.08838,2.26562,9.21338c1.50977,2.12598,3.67188,3.18848,6.48438,3.18848
			c2.73438,0,4.86914-1.0498,6.40625-3.14941c1.53613-2.09961,2.30469-5.45703,2.30469-10.07373
			c0-3.93799-0.76855-6.98975-2.30469-9.15479c-1.53711-2.16406-3.69824-3.24707-6.48438-3.24707
			c-2.76074,0-4.89648,1.07617-6.40625,3.22754C1705.07227-654.24707,1704.31738-650.91553,1704.31738-646.40381z"/>
		<path style="fill:#1A4162;" d="M1761.44727-637.36133c0-1.37988-0.68359-2.4668-2.05078-3.26172
			c-1.36719-0.79395-3.56152-1.50391-6.58203-2.12891c-10.05273-2.10938-15.07812-6.37988-15.07812-12.8125
			c0-3.75,1.55566-6.88086,4.66797-9.39453c3.11133-2.5127,7.18066-3.76953,12.20703-3.76953
			c5.36426,0,9.6543,1.26367,12.87109,3.78906c3.21582,2.52637,4.82422,5.80762,4.82422,9.84375h-11.28906
			c0-1.61426-0.52148-2.94922-1.5625-4.00391c-1.04199-1.05469-2.66992-1.58203-4.88281-1.58203
			c-1.90137,0-3.37305,0.42969-4.41406,1.28906c-1.04199,0.85938-1.5625,1.95312-1.5625,3.28125
			c0,1.25,0.5918,2.25977,1.77734,3.02734c1.18457,0.76855,3.18359,1.43262,5.99609,1.99219
			c2.8125,0.56055,5.18164,1.19141,7.10938,1.89453c5.96289,2.1875,8.94531,5.97656,8.94531,11.36719
			c0,3.85449-1.6543,6.97266-4.96094,9.35547c-3.30762,2.38281-7.57812,3.57422-12.8125,3.57422
			c-3.54199,0-6.68652-0.63184-9.43359-1.89453c-2.74805-1.2627-4.90234-2.99414-6.46484-5.19531
			c-1.5625-2.2002-2.34375-4.57617-2.34375-7.12891h10.70312c0.10352,2.00586,0.8457,3.54199,2.22656,4.60938
			c1.37988,1.06836,3.22852,1.60156,5.54688,1.60156c2.16113,0,3.79492-0.41016,4.90234-1.23047
			C1760.89355-634.95898,1761.44727-636.0332,1761.44727-637.36133z"/>
		<path style="fill:#1A4162;" d="M1792.63672-678.33789v10.39062h7.22656v8.28125h-7.22656v21.09375
			c0,1.5625,0.29883,2.68262,0.89844,3.35938c0.59863,0.67773,1.74414,1.01562,3.4375,1.01562
			c1.25,0,2.35645-0.09082,3.32031-0.27344v8.55469c-2.21387,0.67676-4.49219,1.01562-6.83594,1.01562
			c-7.91699,0-11.95312-3.99707-12.10938-11.99219v-22.77344h-6.17188v-8.28125h6.17188v-10.39062H1792.63672z"/>
		<path style="fill:#1A4162;" d="M1802.38672-647.20508c0-4.19238,0.80664-7.92969,2.42188-11.21094
			c1.61426-3.28125,3.93848-5.82031,6.97266-7.61719c3.0332-1.79688,6.55566-2.69531,10.56641-2.69531
			c5.70312,0,10.35742,1.74512,13.96484,5.23438c3.60645,3.49023,5.61816,8.22949,6.03516,14.21875l0.07812,2.89062
			c0,6.48438-1.81055,11.68652-5.42969,15.60547c-3.62012,3.91992-8.47656,5.87891-14.57031,5.87891
			s-10.95703-1.95312-14.58984-5.85938s-5.44922-9.21875-5.44922-15.9375V-647.20508z M1813.67578-646.40381
			c0,4.01709,0.75488,7.08838,2.26562,9.21338c1.50977,2.12598,3.67188,3.18848,6.48438,3.18848
			c2.73438,0,4.86914-1.0498,6.40625-3.14941c1.53613-2.09961,2.30469-5.45703,2.30469-10.07373
			c0-3.93799-0.76855-6.98975-2.30469-9.15479c-1.53711-2.16406-3.69824-3.24707-6.48438-3.24707
			c-2.76074,0-4.89648,1.07617-6.40625,3.22754C1814.43066-654.24707,1813.67578-650.91553,1813.67578-646.40381z"/>
	</g>
	<rect x="1311.9563" y="-774.18939" style="fill:none;" width="33.30228" height="195.83539"/>
</g>
</svg>
