<?xml version="1.0" encoding="utf-8"?>
<!-- Generator: Adobe Illustrator 17.0.0, SVG Export Plug-In . SVG Version: 6.00 Build 0)  -->
<!DOCTYPE svg PUBLIC "-//W3C//DTD SVG 1.1//EN" "http://www.w3.org/Graphics/SVG/1.1/DTD/svg11.dtd">
<svg version="1.1" id="Capa_1" xmlns="http://www.w3.org/2000/svg" xmlns:xlink="http://www.w3.org/1999/xlink" x="0px" y="0px"
	 width="999.1px" height="264.026px" viewBox="0 0 999.1 264.026" enable-background="new 0 0 999.1 264.026" xml:space="preserve">
<g>
	<g>
		<path fill="#1A4162" d="M405.377,118.78H356.16v-9.765l23.228-24.757c3.188-3.484,5.548-6.526,7.077-9.124
			c1.528-2.597,2.293-5.062,2.293-7.397c0-3.188-0.806-5.696-2.416-7.521c-1.611-1.824-3.913-2.737-6.904-2.737
			c-3.223,0-5.763,1.11-7.62,3.329c-1.857,2.22-2.786,5.138-2.786,8.754H354.73c0-4.372,1.043-8.367,3.132-11.984
			c2.087-3.616,5.038-6.452,8.852-8.507c3.814-2.054,8.138-3.082,12.971-3.082c7.397,0,13.143,1.775,17.236,5.326
			c4.093,3.551,6.14,8.565,6.14,15.042c0,3.551-0.921,7.168-2.762,10.85c-1.842,3.683-4.998,7.973-9.469,12.872l-16.323,17.211
			h30.871V118.78z"/>
		<path fill="#1A4162" d="M413.349,83.469l4.143-36.494h40.242V58.86H429.18l-1.775,15.436c3.386-1.808,6.985-2.712,10.8-2.712
			c6.838,0,12.197,2.121,16.077,6.362c3.879,4.241,5.819,10.176,5.819,17.803c0,4.636-0.979,8.787-2.935,12.453
			s-4.759,6.51-8.408,8.531c-3.649,2.022-7.957,3.033-12.921,3.033c-4.34,0-8.367-0.88-12.083-2.639
			c-3.715-1.758-6.649-4.232-8.803-7.422c-2.153-3.188-3.296-6.822-3.428-10.899h14.105c0.295,2.992,1.339,5.318,3.131,6.978
			c1.792,1.661,4.135,2.491,7.027,2.491c3.223,0,5.704-1.159,7.447-3.477c1.742-2.317,2.613-5.597,2.613-9.838
			c0-4.076-1.003-7.2-3.008-9.37c-2.006-2.17-4.85-3.255-8.531-3.255c-3.387,0-6.133,0.888-8.236,2.663l-1.381,1.282L413.349,83.469
			z"/>
		<path fill="#1A4162" d="M465.596,60.784c0-4.405,1.43-7.981,4.29-10.727c2.86-2.745,6.608-4.118,11.244-4.118
			c4.701,0,8.482,1.356,11.343,4.069c2.86,2.712,4.291,6.386,4.291,11.022v3.551c0,4.438-1.431,8.006-4.291,10.702
			c-2.86,2.696-6.608,4.044-11.244,4.044c-4.669,0-8.441-1.356-11.318-4.068c-2.877-2.713-4.314-6.37-4.314-10.973V60.784z
			 M475.065,64.642c0,1.984,0.566,3.58,1.701,4.787c1.134,1.207,2.621,1.81,4.463,1.81c1.841,0,3.305-0.612,4.389-1.835
			c1.086-1.224,1.628-2.86,1.628-4.911v-3.67c0-1.983-0.542-3.588-1.628-4.812c-1.084-1.224-2.581-1.835-4.487-1.835
			c-1.809,0-3.271,0.604-4.39,1.811c-1.117,1.207-1.676,2.885-1.676,5.034V64.642z M484.039,113.404l-6.953-3.748l35.064-56.122
			l6.953,3.748L484.039,113.404z M499.92,101.174c0-4.438,1.446-8.014,4.34-10.726c2.893-2.713,6.641-4.069,11.244-4.069
			c4.668,0,8.44,1.34,11.317,4.019c2.877,2.68,4.315,6.371,4.315,11.072v3.551c0,4.406-1.414,7.964-4.241,10.677
			c-2.828,2.712-6.592,4.068-11.294,4.068c-4.734,0-8.531-1.364-11.392-4.093c-2.86-2.729-4.29-6.345-4.29-10.85V101.174z
			 M509.389,105.082c0,1.818,0.592,3.373,1.775,4.663s2.662,1.934,4.438,1.934c4.012,0,6.018-2.231,6.018-6.696v-3.771
			c0-1.983-0.56-3.579-1.678-4.786c-1.117-1.207-2.597-1.811-4.438-1.811c-1.842,0-3.321,0.604-4.439,1.811
			c-1.117,1.207-1.676,2.852-1.676,4.935V105.082z"/>
		<path fill="#1A4162" d="M357.689,208.78v-71.805h22.094c6.312,0,11.959,1.423,16.94,4.266c4.98,2.845,8.868,6.889,11.663,12.132
			c2.794,5.245,4.192,11.204,4.192,17.878v3.304c0,6.675-1.374,12.609-4.118,17.804c-2.746,5.195-6.617,9.222-11.614,12.082
			c-4.998,2.86-10.636,4.308-16.916,4.34H357.689z M372.484,148.959v47.936h7.151c5.786,0,10.208-1.891,13.266-5.672
			c3.058-3.78,4.619-9.188,4.686-16.225v-3.798c0-7.299-1.513-12.83-4.537-16.595c-3.025-3.765-7.447-5.646-13.267-5.646H372.484z"
			/>
		<path fill="#1A4162" d="M445.093,209.766c-7.824,0-14.195-2.399-19.109-7.2c-4.916-4.8-7.373-11.194-7.373-19.184v-1.381
			c0-5.358,1.035-10.151,3.107-14.376c2.07-4.225,5.005-7.479,8.803-9.765c3.797-2.285,8.129-3.428,12.994-3.428
			c7.299,0,13.045,2.302,17.236,6.904c4.192,4.604,6.288,11.13,6.288,19.579v5.819H433.06c0.461,3.485,1.85,6.28,4.168,8.384
			c2.317,2.104,5.252,3.156,8.803,3.156c5.49,0,9.781-1.989,12.871-5.968l7.004,7.842c-2.138,3.025-5.031,5.384-8.68,7.076
			C453.575,208.919,449.532,209.766,445.093,209.766z M443.466,165.924c-2.828,0-5.121,0.958-6.88,2.873
			c-1.759,1.916-2.885,4.656-3.378,8.223h19.825v-1.14c-0.066-3.17-0.921-5.622-2.564-7.355
			C448.824,166.791,446.49,165.924,443.466,165.924z"/>
		<path fill="#1A4162" d="M502.219,194.035c0-1.742-0.862-3.115-2.589-4.118c-1.726-1.003-4.496-1.898-8.31-2.688
			c-12.691-2.663-19.036-8.055-19.036-16.176c0-4.734,1.964-8.688,5.894-11.861c3.928-3.172,9.065-4.759,15.411-4.759
			c6.772,0,12.188,1.596,16.25,4.784c4.06,3.189,6.091,7.332,6.091,12.428h-14.253c0-2.038-0.658-3.724-1.973-5.056
			c-1.315-1.331-3.37-1.997-6.165-1.997c-2.399,0-4.258,0.543-5.572,1.628c-1.315,1.085-1.973,2.466-1.973,4.143
			c0,1.578,0.747,2.853,2.244,3.821c1.495,0.971,4.02,1.809,7.57,2.516s6.542,1.504,8.975,2.392
			c7.529,2.762,11.294,7.546,11.294,14.352c0,4.866-2.088,8.803-6.263,11.811c-4.176,3.009-9.568,4.513-16.176,4.513
			c-4.472,0-8.442-0.797-11.91-2.392c-3.47-1.595-6.189-3.78-8.162-6.56c-1.973-2.777-2.959-5.777-2.959-9h13.513
			c0.131,2.532,1.068,4.472,2.812,5.819c1.742,1.349,4.076,2.022,7.002,2.022c2.729,0,4.792-0.519,6.189-1.554
			C501.521,197.067,502.219,195.711,502.219,194.035z"/>
		<path fill="#1A4162" d="M545.3,198.276c2.631,0,4.768-0.723,6.412-2.17c1.644-1.446,2.498-3.37,2.564-5.771h13.364
			c-0.033,3.617-1.02,6.929-2.959,9.938c-1.94,3.008-4.595,5.343-7.965,7.003s-7.094,2.49-11.17,2.49
			c-7.628,0-13.645-2.424-18.05-7.274c-4.406-4.849-6.608-11.547-6.608-20.096v-0.938c0-8.219,2.187-14.777,6.56-19.677
			c4.372-4.898,10.372-7.349,18-7.349c6.674,0,12.024,1.898,16.053,5.696c4.026,3.797,6.073,8.853,6.14,15.165h-13.364
			c-0.066-2.775-0.921-5.032-2.564-6.768c-1.645-1.735-3.814-2.603-6.51-2.603c-3.321,0-5.828,1.21-7.521,3.63
			s-2.539,6.348-2.539,11.779v1.482c0,5.499,0.838,9.451,2.515,11.854C539.333,197.075,541.881,198.276,545.3,198.276z"/>
		<path fill="#1A4162" d="M606.524,203.355c-3.519,4.274-8.385,6.411-14.598,6.411c-5.721,0-10.086-1.644-13.094-4.932
			c-3.009-3.287-4.546-8.104-4.611-14.449v-34.966h14.252v34.513c0,5.562,2.532,8.344,7.596,8.344c4.832,0,8.153-1.679,9.961-5.037
			v-37.819h14.303v53.36h-13.414L606.524,203.355z"/>
		<path fill="#1A4162" d="M654.167,209.766c-7.824,0-14.195-2.399-19.109-7.2c-4.916-4.8-7.373-11.194-7.373-19.184v-1.381
			c0-5.358,1.035-10.151,3.107-14.376c2.07-4.225,5.005-7.479,8.803-9.765c3.797-2.285,8.129-3.428,12.994-3.428
			c7.299,0,13.045,2.302,17.236,6.904c4.192,4.604,6.288,11.13,6.288,19.579v5.819h-33.979c0.461,3.485,1.85,6.28,4.168,8.384
			c2.317,2.104,5.252,3.156,8.803,3.156c5.49,0,9.781-1.989,12.871-5.968l7.004,7.842c-2.138,3.025-5.031,5.384-8.68,7.076
			C662.65,208.919,658.607,209.766,654.167,209.766z M652.54,165.924c-2.828,0-5.121,0.958-6.88,2.873
			c-1.759,1.916-2.885,4.656-3.378,8.223h19.825v-1.14c-0.066-3.17-0.921-5.622-2.564-7.355
			C657.899,166.791,655.565,165.924,652.54,165.924z"/>
		<path fill="#1A4162" d="M696.561,155.419l0.444,6.165c3.813-4.767,8.927-7.151,15.337-7.151c5.655,0,9.863,1.661,12.625,4.981
			c2.762,3.321,4.176,8.285,4.242,14.894v34.472h-14.253v-34.205c0-3.031-0.658-5.231-1.973-6.6
			c-1.315-1.367-3.501-2.051-6.56-2.051c-4.011,0-7.02,1.714-9.024,5.141v37.715h-14.253v-53.36H696.561z"/>
		<path fill="#1A4162" d="M755.477,142.301v13.118h9.124v10.455h-9.124v26.631c0,1.973,0.378,3.387,1.135,4.241
			c0.756,0.855,2.202,1.282,4.34,1.282c1.578,0,2.976-0.114,4.191-0.345v10.8c-2.794,0.854-5.671,1.282-8.63,1.282
			c-9.995,0-15.091-5.046-15.288-15.14v-28.752h-7.792v-10.455h7.792v-13.118H755.477z"/>
		<path fill="#1A4162" d="M767.786,181.607c0-5.293,1.019-10.012,3.058-14.154c2.038-4.143,4.973-7.348,8.803-9.616
			s8.277-3.403,13.34-3.403c7.201,0,13.077,2.203,17.631,6.608c4.554,4.406,7.094,10.39,7.619,17.951l0.1,3.649
			c0,8.187-2.286,14.754-6.855,19.702c-4.57,4.948-10.701,7.422-18.395,7.422s-13.834-2.466-18.42-7.397
			c-4.587-4.932-6.88-11.639-6.88-20.121V181.607z M782.039,182.619c0,5.071,0.953,8.948,2.859,11.632
			c1.907,2.684,4.637,4.025,8.188,4.025c3.451,0,6.147-1.325,8.088-3.977c1.939-2.65,2.909-6.89,2.909-12.718
			c0-4.972-0.97-8.825-2.909-11.558c-1.94-2.732-4.669-4.1-8.188-4.1c-3.484,0-6.181,1.358-8.088,4.074
			C782.992,172.716,782.039,176.922,782.039,182.619z"/>
	</g>
</g>
<path fill="#F2709E" d="M285.199,143.435h-41.29v-41.29c0-3.538-2.868-6.406-6.406-6.406h-10.527c-3.538,0-6.406,2.868-6.406,6.406
	v41.29h-41.29c-3.538,0-6.406,2.868-6.406,6.406v10.527c0,3.538,2.868,6.406,6.406,6.406h41.29v41.29
	c0,3.538,2.868,6.406,6.406,6.406h10.527c3.538,0,6.406-2.868,6.406-6.406v-41.29h41.29c3.538,0,6.406-2.868,6.406-6.406v-10.527
	C291.605,146.303,288.737,143.435,285.199,143.435z"/>
</svg>
