<?xml version="1.0" encoding="utf-8"?>
<!-- Generator: Adobe Illustrator 17.0.0, SVG Export Plug-In . SVG Version: 6.00 Build 0)  -->
<!DOCTYPE svg PUBLIC "-//W3C//DTD SVG 1.1//EN" "http://www.w3.org/Graphics/SVG/1.1/DTD/svg11.dtd">
<svg version="1.1" id="Capa_1" xmlns="http://www.w3.org/2000/svg" xmlns:xlink="http://www.w3.org/1999/xlink" x="0px" y="0px"
	 width="999.1px" height="264.026px" viewBox="0 0 999.1 264.026" enable-background="new 0 0 999.1 264.026" xml:space="preserve">
<g>
	<g>
		<path fill="#F2709E" d="M283.348,103.633h-41.29v-41.29c0-3.538-2.868-6.406-6.406-6.406h-10.527
			c-3.538,0-6.406,2.868-6.406,6.406v41.29h-41.29c-3.538,0-6.406,2.868-6.406,6.406v10.527c0,3.538,2.868,6.406,6.406,6.406h41.29
			v41.29c0,3.538,2.868,6.406,6.406,6.406h10.527c3.538,0,6.406-2.868,6.406-6.406v-41.29h41.29c3.538,0,6.406-2.868,6.406-6.406
			v-10.527C289.754,106.501,286.886,103.633,283.348,103.633z"/>
	</g>
	<g>
		<rect x="292.452" y="18.402" fill="none" width="33.302" height="195.835"/>
		<g>
			<path fill="#1A4162" d="M403.526,102.069h-49.217v-9.765l23.228-24.757c3.188-3.484,5.548-6.526,7.077-9.124
				c1.528-2.597,2.293-5.062,2.293-7.397c0-3.188-0.806-5.696-2.416-7.521c-1.611-1.824-3.913-2.737-6.904-2.737
				c-3.223,0-5.763,1.11-7.62,3.329c-1.857,2.22-2.786,5.138-2.786,8.754h-14.302c0-4.372,1.043-8.367,3.132-11.984
				c2.087-3.616,5.038-6.452,8.852-8.507c3.814-2.054,8.138-3.082,12.971-3.082c7.397,0,13.143,1.775,17.236,5.326
				c4.093,3.551,6.14,8.565,6.14,15.042c0,3.551-0.921,7.168-2.762,10.85c-1.842,3.683-4.998,7.973-9.469,12.872l-16.323,17.211
				h30.871V102.069z"/>
			<path fill="#1A4162" d="M458.112,72.381c0,9.93-2.056,17.524-6.165,22.784c-4.11,5.261-10.127,7.891-18.05,7.891
				c-7.825,0-13.809-2.581-17.951-7.743c-4.143-5.161-6.264-12.559-6.361-22.192V59.904c0-10.027,2.078-17.638,6.238-22.833
				c4.158-5.194,10.15-7.792,17.976-7.792c7.824,0,13.809,2.573,17.951,7.718c4.143,5.146,6.263,12.535,6.362,22.168V72.381z
				 M443.859,57.85c0-5.957-0.813-10.292-2.441-13.008c-1.627-2.714-4.167-4.072-7.619-4.072c-3.354,0-5.828,1.292-7.422,3.875
				c-1.596,2.584-2.441,6.623-2.54,12.119v17.475c0,5.858,0.797,10.211,2.392,13.058c1.595,2.846,4.15,4.27,7.669,4.27
				c3.484,0,6-1.365,7.545-4.097c1.546-2.731,2.351-6.911,2.417-12.539V57.85z"/>
			<path fill="#1A4162" d="M464.815,44.073c0-4.405,1.43-7.981,4.29-10.727c2.86-2.745,6.608-4.118,11.244-4.118
				c4.701,0,8.482,1.356,11.343,4.069c2.86,2.712,4.291,6.386,4.291,11.022v3.551c0,4.438-1.431,8.006-4.291,10.702
				c-2.86,2.696-6.608,4.044-11.244,4.044c-4.669,0-8.441-1.356-11.318-4.068c-2.877-2.713-4.314-6.37-4.314-10.973V44.073z
				 M474.284,47.932c0,1.984,0.566,3.58,1.701,4.787c1.134,1.207,2.621,1.81,4.463,1.81c1.841,0,3.305-0.612,4.389-1.835
				c1.086-1.224,1.628-2.86,1.628-4.911v-3.67c0-1.983-0.542-3.588-1.628-4.812c-1.084-1.224-2.581-1.835-4.487-1.835
				c-1.809,0-3.271,0.604-4.39,1.811c-1.117,1.207-1.676,2.885-1.676,5.034V47.932z M483.259,96.694l-6.953-3.748l35.064-56.122
				l6.953,3.748L483.259,96.694z M499.14,84.464c0-4.438,1.446-8.014,4.34-10.726c2.893-2.713,6.641-4.069,11.244-4.069
				c4.668,0,8.44,1.34,11.317,4.019c2.877,2.68,4.315,6.371,4.315,11.072v3.551c0,4.406-1.414,7.964-4.241,10.677
				c-2.828,2.712-6.592,4.068-11.294,4.068c-4.734,0-8.531-1.364-11.392-4.093c-2.86-2.729-4.29-6.345-4.29-10.85V84.464z
				 M508.608,88.371c0,1.818,0.592,3.373,1.775,4.663s2.662,1.934,4.438,1.934c4.012,0,6.018-2.231,6.018-6.696v-3.771
				c0-1.983-0.56-3.579-1.678-4.786c-1.117-1.207-2.597-1.811-4.438-1.811c-1.842,0-3.321,0.604-4.439,1.811
				c-1.117,1.207-1.676,2.852-1.676,4.935V88.371z"/>
			<path fill="#1A4162" d="M355.838,192.07v-71.805h22.094c6.312,0,11.959,1.422,16.94,4.266c4.98,2.844,8.868,6.888,11.663,12.132
				c2.794,5.245,4.192,11.204,4.192,17.877v3.304c0,6.675-1.374,12.609-4.118,17.803c-2.746,5.195-6.617,9.222-11.614,12.083
				c-4.998,2.86-10.636,4.308-16.916,4.34H355.838z M370.633,132.249v47.936h7.151c5.786,0,10.208-1.89,13.266-5.671
				c3.058-3.78,4.619-9.189,4.686-16.225v-3.797c0-7.299-1.513-12.83-4.537-16.595c-3.025-3.765-7.447-5.647-13.267-5.647H370.633z"
				/>
			<path fill="#1A4162" d="M443.242,193.056c-7.824,0-14.195-2.399-19.109-7.2c-4.916-4.8-7.373-11.195-7.373-19.184v-1.381
				c0-5.358,1.035-10.151,3.107-14.375c2.07-4.225,5.005-7.479,8.803-9.765c3.797-2.285,8.129-3.428,12.994-3.428
				c7.299,0,13.045,2.302,17.236,6.904c4.192,4.604,6.288,11.129,6.288,19.579v5.819h-33.979c0.461,3.485,1.85,6.28,4.168,8.384
				c2.317,2.104,5.252,3.156,8.803,3.156c5.49,0,9.781-1.989,12.871-5.967l7.004,7.841c-2.138,3.025-5.031,5.384-8.68,7.077
				C451.724,192.209,447.682,193.056,443.242,193.056z M441.615,149.214c-2.828,0-5.121,0.958-6.88,2.874s-2.885,4.656-3.378,8.223
				h19.825v-1.14c-0.066-3.17-0.921-5.622-2.564-7.356C446.974,150.08,444.64,149.214,441.615,149.214z"/>
			<path fill="#1A4162" d="M500.368,177.324c0-1.742-0.862-3.115-2.589-4.118c-1.726-1.003-4.496-1.899-8.31-2.688
				c-12.691-2.663-19.036-8.055-19.036-16.176c0-4.734,1.964-8.688,5.894-11.861c3.928-3.172,9.065-4.759,15.411-4.759
				c6.772,0,12.188,1.595,16.25,4.784c4.06,3.189,6.091,7.332,6.091,12.428h-14.253c0-2.038-0.658-3.723-1.973-5.055
				c-1.315-1.331-3.37-1.997-6.165-1.997c-2.399,0-4.258,0.542-5.572,1.627c-1.315,1.085-1.973,2.466-1.973,4.143
				c0,1.578,0.747,2.853,2.244,3.822c1.495,0.97,4.02,1.809,7.57,2.516s6.542,1.504,8.975,2.392
				c7.529,2.762,11.294,7.545,11.294,14.351c0,4.866-2.088,8.803-6.263,11.811c-4.176,3.009-9.568,4.513-16.176,4.513
				c-4.472,0-8.442-0.797-11.91-2.392c-3.47-1.595-6.189-3.781-8.162-6.56c-1.973-2.778-2.959-5.777-2.959-9h13.513
				c0.131,2.532,1.068,4.472,2.812,5.819c1.742,1.349,4.076,2.022,7.002,2.022c2.729,0,4.792-0.518,6.189-1.553
				C499.67,180.357,500.368,179.001,500.368,177.324z"/>
			<path fill="#1A4162" d="M543.449,181.565c2.631,0,4.768-0.723,6.412-2.17c1.644-1.446,2.498-3.37,2.564-5.77h13.364
				c-0.033,3.617-1.02,6.929-2.959,9.938c-1.94,3.008-4.595,5.343-7.965,7.003c-3.37,1.66-7.094,2.49-11.17,2.49
				c-7.628,0-13.645-2.424-18.05-7.274c-4.406-4.849-6.608-11.547-6.608-20.096v-0.937c0-8.219,2.187-14.778,6.56-19.677
				c4.372-4.898,10.372-7.348,18-7.348c6.674,0,12.024,1.898,16.053,5.696c4.026,3.797,6.073,8.852,6.14,15.165h-13.364
				c-0.066-2.775-0.921-5.032-2.564-6.767c-1.645-1.735-3.814-2.603-6.51-2.603c-3.321,0-5.828,1.21-7.521,3.63
				s-2.539,6.347-2.539,11.779v1.482c0,5.5,0.838,9.451,2.515,11.854C537.482,180.364,540.03,181.565,543.449,181.565z"/>
			<path fill="#1A4162" d="M604.673,186.645c-3.519,4.274-8.385,6.411-14.598,6.411c-5.721,0-10.086-1.644-13.094-4.932
				c-3.009-3.287-4.546-8.104-4.611-14.45v-34.965h14.252v34.512c0,5.563,2.532,8.344,7.596,8.344c4.832,0,8.153-1.678,9.961-5.037
				v-37.819h14.303v53.36h-13.414L604.673,186.645z"/>
			<path fill="#1A4162" d="M652.316,193.056c-7.824,0-14.195-2.399-19.109-7.2c-4.916-4.8-7.373-11.195-7.373-19.184v-1.381
				c0-5.358,1.035-10.151,3.107-14.375c2.07-4.225,5.005-7.479,8.803-9.765c3.797-2.285,8.129-3.428,12.994-3.428
				c7.299,0,13.045,2.302,17.236,6.904c4.192,4.604,6.288,11.129,6.288,19.579v5.819h-33.979c0.461,3.485,1.85,6.28,4.168,8.384
				c2.317,2.104,5.252,3.156,8.803,3.156c5.49,0,9.781-1.989,12.871-5.967l7.004,7.841c-2.138,3.025-5.031,5.384-8.68,7.077
				C660.799,192.209,656.756,193.056,652.316,193.056z M650.689,149.214c-2.828,0-5.121,0.958-6.88,2.874s-2.885,4.656-3.378,8.223
				h19.825v-1.14c-0.066-3.17-0.921-5.622-2.564-7.356C656.048,150.08,653.714,149.214,650.689,149.214z"/>
			<path fill="#1A4162" d="M694.71,138.709l0.444,6.165c3.813-4.767,8.927-7.151,15.337-7.151c5.655,0,9.863,1.661,12.625,4.981
				c2.762,3.321,4.176,8.285,4.242,14.894v34.472h-14.253v-34.206c0-3.031-0.658-5.231-1.973-6.599
				c-1.315-1.367-3.501-2.051-6.56-2.051c-4.011,0-7.02,1.714-9.024,5.141v37.715h-14.253v-53.36H694.71z"/>
			<path fill="#1A4162" d="M753.626,125.591v13.118h9.124v10.455h-9.124v26.631c0,1.973,0.378,3.387,1.135,4.241
				c0.756,0.855,2.202,1.282,4.34,1.282c1.578,0,2.976-0.115,4.191-0.345v10.8c-2.794,0.854-5.671,1.282-8.63,1.282
				c-9.995,0-15.091-5.046-15.288-15.14v-28.751h-7.792v-10.455h7.792v-13.118H753.626z"/>
			<path fill="#1A4162" d="M765.935,164.896c0-5.293,1.019-10.011,3.058-14.154c2.038-4.143,4.973-7.348,8.803-9.617
				s8.277-3.403,13.34-3.403c7.201,0,13.077,2.203,17.631,6.608c4.554,4.406,7.094,10.39,7.619,17.951l0.1,3.649
				c0,8.187-2.286,14.754-6.855,19.702c-4.57,4.948-10.701,7.422-18.395,7.422s-13.834-2.466-18.42-7.397
				c-4.587-4.932-6.88-11.639-6.88-20.121V164.896z M780.188,165.908c0,5.071,0.953,8.949,2.859,11.632
				c1.907,2.684,4.637,4.025,8.188,4.025c3.451,0,6.147-1.325,8.088-3.976c1.939-2.651,2.909-6.89,2.909-12.718
				c0-4.972-0.97-8.825-2.909-11.558c-1.94-2.732-4.669-4.1-8.188-4.1c-3.484,0-6.181,1.358-8.088,4.075
				C781.141,156.006,780.188,160.212,780.188,165.908z"/>
		</g>
	</g>
</g>
<g>
	<path fill="#F2709E" d="M367.824,228.539l-6.572,5.039l-2.998-3.764l6.699-4.976l-6.508-4.657l2.935-4.02l6.444,4.657l2.488-7.72
		l4.785,1.595l-2.425,7.784h7.847v4.721h-7.847l2.425,7.656l-4.657,1.404L367.824,228.539z"/>
	<path fill="#1A4162" d="M393.595,214.424v8.069h12.281v5.988h-12.281v8.272h15.326v6.09h-22.33v-34.509h22.33v6.09H393.595z"/>
	<path fill="#1A4162" d="M414.097,217.469h6.75v1.421c1.285-0.743,2.426-1.269,3.425-1.572c0.998-0.305,2.072-0.457,3.223-0.457
		c3.112,0,5.329,0.998,6.647,2.994c1.32,1.997,1.979,5.075,1.979,9.237v13.753h-6.8v-13.55c0-2.334-0.279-3.975-0.837-4.922
		c-0.559-0.947-1.616-1.422-3.172-1.422c-1.116,0-2.385,0.237-3.806,0.711l-0.609,0.202v18.98h-6.801V217.469z"/>
	<path fill="#1A4162" d="M453.325,217.469h6.75v1.37c1.32-0.777,2.426-1.302,3.324-1.574c0.896-0.269,1.852-0.406,2.867-0.406
		c3.248,0,5.659,1.075,7.232,3.222c1.574,2.15,2.36,5.574,2.36,10.277c0,3.247-0.389,5.819-1.168,7.714
		c-0.778,1.895-1.996,3.265-3.654,4.11c-1.657,0.846-3.856,1.269-6.597,1.269c-1.354,0-2.792-0.136-4.314-0.406v10.454h-6.801
		V217.469z M467.789,235.916c0.777-1.1,1.167-2.952,1.167-5.557c0-2.571-0.355-4.449-1.066-5.633
		c-0.71-1.184-1.878-1.777-3.501-1.777c-1.185,0-2.403,0.254-3.654,0.762l-0.609,0.253v13.296c1.522,0.203,2.74,0.305,3.654,0.305
		C465.673,237.565,467.01,237.016,467.789,235.916z"/>
	<path fill="#1A4162" d="M479.257,235.129c0-2.639,0.702-4.542,2.106-5.71c1.404-1.167,3.662-1.852,6.775-2.055l5.43-0.407v-1.572
		c0-1.015-0.228-1.725-0.685-2.132c-0.457-0.406-1.227-0.608-2.31-0.608c-1.116,0-2.656,0.042-4.618,0.126
		c-1.962,0.086-3.602,0.178-4.922,0.28l-0.203-4.719c3.654-0.981,7.105-1.472,10.353-1.472s5.591,0.677,7.029,2.03
		c1.437,1.354,2.157,3.52,2.157,6.496v10.555c0.067,0.847,0.211,1.422,0.431,1.725c0.22,0.305,0.635,0.526,1.244,0.66l-0.203,5.126
		c-1.759,0-3.155-0.119-4.187-0.355c-1.032-0.237-2.056-0.71-3.071-1.421c-2.47,1.183-4.956,1.776-7.46,1.776
		C481.878,243.452,479.257,240.678,479.257,235.129z M492.807,237.311l0.761-0.202v-5.43l-4.618,0.406
		c-1.895,0.169-2.841,1.184-2.841,3.045c0,1.861,0.828,2.791,2.486,2.791C489.88,237.92,491.284,237.718,492.807,237.311z"/>
	<path fill="#1A4162" d="M508.614,252.917c-2.013-1.067-3.019-2.8-3.019-5.202c0-1.252,0.295-2.36,0.888-3.325
		c0.592-0.964,1.514-1.953,2.766-2.968c-0.609-0.406-1.075-0.93-1.396-1.574c-0.322-0.642-0.482-1.32-0.482-2.03
		c0-0.508,0.127-1.031,0.381-1.574c0.253-0.541,0.786-1.454,1.598-2.74c-2.301-1.691-3.451-4.161-3.451-7.409
		c0-3.079,0.939-5.371,2.816-6.876c1.878-1.505,4.491-2.259,7.841-2.259c1.422,0,3.129,0.221,5.126,0.66l8.17-0.253v5.43
		l-3.806-0.305c0.439,0.71,0.736,1.32,0.888,1.827c0.152,0.507,0.228,1.201,0.228,2.08c0,3.045-0.862,5.219-2.588,6.521
		c-1.725,1.303-4.347,1.953-7.865,1.953c-1.015,0-1.793-0.067-2.334-0.202c-0.339,0.812-0.508,1.505-0.508,2.08
		c0,0.71,0.347,1.142,1.041,1.294c0.693,0.153,1.988,0.246,3.882,0.279c2.605,0.069,4.677,0.272,6.217,0.609
		c1.539,0.339,2.732,1.024,3.578,2.056c0.846,1.032,1.269,2.545,1.269,4.542c0,3.078-1.049,5.345-3.146,6.8
		c-2.098,1.455-5.312,2.183-9.642,2.183C513.443,254.515,510.627,253.983,508.614,252.917z M521.707,248.273
		c0.863-0.44,1.295-1.116,1.295-2.03c0-0.846-0.314-1.378-0.94-1.598c-0.626-0.221-1.354-0.347-2.182-0.381
		c-0.829-0.034-1.379-0.051-1.65-0.051l-4.567-0.355c-0.914,0.914-1.37,1.827-1.37,2.74c0,0.813,0.431,1.404,1.294,1.777
		c0.863,0.372,2.173,0.558,3.933,0.558C519.449,248.933,520.845,248.713,521.707,248.273z M520.464,225.943
		c0-2.469-1.286-3.705-3.856-3.705c-2.606,0-3.908,1.236-3.908,3.705c0,2.505,1.302,3.756,3.908,3.756
		C519.178,229.7,520.464,228.448,520.464,225.943z"/>
	<path fill="#1A4162" d="M535.613,239.976c-1.979-2.317-2.969-5.607-2.969-9.871c0-4.229,0.99-7.494,2.969-9.794
		s4.88-3.452,8.703-3.452s6.725,1.151,8.704,3.452c1.979,2.3,2.968,5.565,2.968,9.794c0,4.263-0.989,7.554-2.968,9.871
		c-1.979,2.318-4.881,3.476-8.704,3.476S537.592,242.294,535.613,239.976z M547.919,235.89c0.779-1.183,1.168-3.112,1.168-5.785
		c0-2.672-0.389-4.584-1.168-5.734s-1.979-1.725-3.603-1.725c-1.623,0-2.825,0.575-3.602,1.725c-0.779,1.15-1.168,3.062-1.168,5.734
		c0,2.673,0.388,4.602,1.168,5.785c0.777,1.185,1.979,1.776,3.602,1.776C545.94,237.666,547.141,237.076,547.919,235.89z"/>
	<path fill="#1A4162" d="M573.141,240.23c-1.489-2.149-2.232-5.388-2.232-9.719c0-4.736,0.837-8.196,2.512-10.379
		c1.675-2.182,4.254-3.273,7.738-3.273c1.251,0,3.164,0.237,5.735,0.71v-10.251h6.8v35.524h-6.749v-1.066
		c-1.388,0.643-2.572,1.082-3.553,1.32c-0.982,0.236-1.963,0.355-2.944,0.355C577.065,243.452,574.63,242.379,573.141,240.23z
		 M586.184,236.754l0.71-0.153v-13.347c-1.794-0.338-3.299-0.507-4.517-0.507c-1.624,0-2.791,0.575-3.501,1.725
		c-0.71,1.15-1.067,3.113-1.067,5.887c0,2.537,0.321,4.339,0.964,5.404c0.642,1.066,1.726,1.599,3.248,1.599
		C583.241,237.363,584.627,237.159,586.184,236.754z"/>
	<path fill="#1A4162" d="M601.105,240.458c-1.76-1.996-2.639-5.227-2.639-9.693c0-4.669,0.921-8.154,2.765-10.454
		c1.844-2.3,4.711-3.452,8.603-3.452c3.586,0,6.3,0.956,8.145,2.867c1.843,1.912,2.765,4.779,2.765,8.603l-0.507,4.719h-14.92
		c0.067,1.184,0.279,2.089,0.635,2.714c0.355,0.627,0.929,1.066,1.725,1.32c0.794,0.254,1.903,0.381,3.324,0.381
		c1.117,0,2.453-0.033,4.009-0.101c1.556-0.068,2.69-0.135,3.4-0.203l1.422-0.152l0.101,5.024
		c-3.823,0.947-7.241,1.421-10.252,1.421C605.722,243.452,602.863,242.455,601.105,240.458z M614.045,227.872
		c0-2.03-0.313-3.442-0.939-4.237c-0.627-0.795-1.735-1.193-3.324-1.193c-1.624,0-2.775,0.415-3.452,1.243
		c-0.677,0.829-1.032,2.225-1.065,4.187H614.045z"/>
	<path fill="#1A4162" d="M649.188,240.281c-1.642-2.115-2.461-5.489-2.461-10.125c0-4.702,0.845-8.095,2.537-10.175
		c1.692-2.08,4.449-3.121,8.272-3.121c0.981,0,2.063,0.085,3.248,0.254c1.184,0.169,2.773,0.456,4.77,0.863l-0.202,5.379
		c-2.877-0.271-4.872-0.407-5.988-0.407c-1.557,0-2.741,0.212-3.553,0.635c-0.812,0.423-1.379,1.142-1.701,2.157
		c-0.321,1.015-0.482,2.47-0.482,4.364c0,1.929,0.161,3.4,0.482,4.415s0.896,1.743,1.726,2.183c0.828,0.44,2.037,0.66,3.628,0.66
		l5.887-0.407l0.202,5.431c-3.586,0.71-6.394,1.066-8.424,1.066C653.475,243.452,650.828,242.395,649.188,240.281z"/>
	<path fill="#1A4162" d="M672.024,239.976c-1.979-2.317-2.969-5.607-2.969-9.871c0-4.229,0.99-7.494,2.969-9.794
		c1.979-2.3,4.88-3.452,8.703-3.452c3.823,0,6.725,1.151,8.704,3.452c1.979,2.3,2.968,5.565,2.968,9.794
		c0,4.263-0.989,7.554-2.968,9.871c-1.979,2.318-4.881,3.476-8.704,3.476C676.904,243.452,674.003,242.294,672.024,239.976z
		 M684.33,235.89c0.779-1.183,1.168-3.112,1.168-5.785c0-2.672-0.389-4.584-1.168-5.734s-1.979-1.725-3.603-1.725
		c-1.623,0-2.825,0.575-3.602,1.725c-0.78,1.15-1.168,3.062-1.168,5.734c0,2.673,0.388,4.602,1.168,5.785
		c0.777,1.185,1.979,1.776,3.602,1.776C682.351,237.666,683.552,237.076,684.33,235.89z"/>
	<path fill="#1A4162" d="M697.373,217.469h6.75v1.421c1.285-0.743,2.426-1.269,3.425-1.572c0.998-0.305,2.072-0.457,3.223-0.457
		c3.112,0,5.329,0.998,6.647,2.994c1.32,1.997,1.979,5.075,1.979,9.237v13.753h-6.8v-13.55c0-2.334-0.279-3.975-0.837-4.922
		c-0.559-0.947-1.616-1.422-3.172-1.422c-1.116,0-2.385,0.237-3.806,0.711l-0.609,0.202v18.98h-6.801V217.469z"/>
	<path fill="#1A4162" d="M729.497,242.539c-1.084-0.609-1.862-1.607-2.334-2.994c-0.475-1.387-0.711-3.299-0.711-5.734v-10.556
		h-2.994v-5.785h2.994v-7.054h6.801v7.054h6.242v5.785h-6.242v10.403c0,1.32,0.118,2.277,0.355,2.868
		c0.236,0.592,0.828,0.871,1.776,0.837l3.857-0.102l0.305,5.431c-1.354,0.304-2.411,0.507-3.172,0.608
		c-0.762,0.102-1.531,0.153-2.31,0.153C732.101,243.452,730.579,243.148,729.497,242.539z"/>
	<path fill="#1A4162" d="M742.234,235.129c0-2.639,0.702-4.542,2.106-5.71c1.404-1.167,3.662-1.852,6.775-2.055l5.43-0.407v-1.572
		c0-1.015-0.228-1.725-0.685-2.132c-0.457-0.406-1.227-0.608-2.31-0.608c-1.116,0-2.656,0.042-4.618,0.126
		c-1.962,0.086-3.602,0.178-4.922,0.28l-0.203-4.719c3.654-0.981,7.105-1.472,10.353-1.472c3.248,0,5.591,0.677,7.029,2.03
		c1.437,1.354,2.157,3.52,2.157,6.496v10.555c0.067,0.847,0.211,1.422,0.431,1.725c0.22,0.305,0.635,0.526,1.244,0.66l-0.203,5.126
		c-1.759,0-3.155-0.119-4.187-0.355c-1.032-0.237-2.056-0.71-3.071-1.421c-2.47,1.183-4.956,1.776-7.46,1.776
		C744.856,243.452,742.234,240.678,742.234,235.129z M755.785,237.311l0.761-0.202v-5.43l-4.618,0.406
		c-1.895,0.169-2.841,1.184-2.841,3.045c0,1.861,0.828,2.791,2.486,2.791C752.857,237.92,754.262,237.718,755.785,237.311z"/>
	<path fill="#1A4162" d="M770.856,240.23c-1.489-2.149-2.232-5.388-2.232-9.719c0-4.736,0.837-8.196,2.512-10.379
		c1.675-2.182,4.254-3.273,7.738-3.273c1.251,0,3.164,0.237,5.735,0.71v-10.251h6.8v35.524h-6.749v-1.066
		c-1.388,0.643-2.572,1.082-3.553,1.32c-0.982,0.236-1.963,0.355-2.944,0.355C774.78,243.452,772.345,242.379,770.856,240.23z
		 M783.899,236.754l0.71-0.153v-13.347c-1.794-0.338-3.299-0.507-4.517-0.507c-1.624,0-2.791,0.575-3.501,1.725
		c-0.71,1.15-1.067,3.113-1.067,5.887c0,2.537,0.321,4.339,0.964,5.404c0.642,1.066,1.726,1.599,3.248,1.599
		C780.956,237.363,782.342,237.159,783.899,236.754z"/>
	<path fill="#1A4162" d="M799.098,239.976c-1.979-2.317-2.969-5.607-2.969-9.871c0-4.229,0.99-7.494,2.969-9.794
		c1.979-2.3,4.88-3.452,8.703-3.452s6.725,1.151,8.704,3.452c1.979,2.3,2.968,5.565,2.968,9.794c0,4.263-0.989,7.554-2.968,9.871
		c-1.979,2.318-4.881,3.476-8.704,3.476S801.078,242.294,799.098,239.976z M811.405,235.89c0.779-1.183,1.168-3.112,1.168-5.785
		c0-2.672-0.389-4.584-1.168-5.734s-1.979-1.725-3.603-1.725c-1.623,0-2.825,0.575-3.602,1.725c-0.779,1.15-1.168,3.062-1.168,5.734
		c0,2.673,0.388,4.602,1.168,5.785c0.777,1.185,1.979,1.776,3.602,1.776C809.425,237.666,810.626,237.076,811.405,235.89z"/>
</g>
</svg>
