<?xml version="1.0" encoding="utf-8"?>
<!-- Generator: Adobe Illustrator 17.0.0, SVG Export Plug-In . SVG Version: 6.00 Build 0)  -->
<!DOCTYPE svg PUBLIC "-//W3C//DTD SVG 1.1//EN" "http://www.w3.org/Graphics/SVG/1.1/DTD/svg11.dtd">
<svg version="1.1" id="Capa_1" xmlns="http://www.w3.org/2000/svg" xmlns:xlink="http://www.w3.org/1999/xlink" x="0px" y="0px"
	 width="1296.64893px" height="416.24503px" viewBox="0 0 1296.64893 416.24503" enable-background="new 0 0 1296.64893 416.24503"
	 xml:space="preserve">
<path fill="#EDEDED" d="M1296.64893,322.63083c0,5.52286-4.7207,10-10.54395,10H138.91718c-5.82329,0-10.54401-4.47714-10.54401-10
	v-272c0-5.52285,4.72072-10,10.54401-10h1147.18774c5.82324,0,10.54395,4.47715,10.54395,10V322.63083z"/>
<g>
	<g>
		<path fill="#00448E" d="M326.62341,75.62937h31.5c5.66602,0,10.83203,1.1875,15.5,3.5625c4.66602,2.375,8.33203,5.70898,11,10
			c2.66602,4.29297,4,9.1875,4,14.6875s-1.33398,10.41797-4,14.75c-2.66797,4.33398-6.33398,7.6875-11,10.06251
			c-4.66797,2.375-9.83398,3.5625-15.5,3.5625h-14.625v32.875h-16.875V75.62937z M358.62341,116.25437
			c4.16602,0,7.4375-1.20703,9.8125-3.625c2.375-2.41602,3.5625-5.33203,3.5625-8.75c0-3.41602-1.1875-6.3125-3.5625-8.6875
			s-5.64648-3.5625-9.8125-3.5625h-15.125v24.625H358.62341z"/>
		<path fill="#00448E" d="M400.99744,161.19188c-4.33398-3.95703-6.5-9.14453-6.5-15.5625c0-4.25,1.125-8,3.375-11.25
			s5.33203-5.75,9.25-7.50001c3.91602-1.75,8.25-2.625,13-2.625c6.58203,0,12.20703,0.95898,16.875,2.875v-2.75
			c0-3.5-1.3125-6.33203-3.9375-8.5c-2.625-2.16602-6.14648-3.25-10.5625-3.25c-3,0-5.89648,0.6875-8.6875,2.0625
			c-2.79297,1.375-5.10547,3.1875-6.9375,5.4375l-10.5-8.25c3.08203-4,6.95703-7.08203,11.625-9.25
			c4.66602-2.16602,9.75-3.25,15.25-3.25c9.75,0,17.16602,2.25,22.25,6.75c5.08203,4.5,7.625,11.08398,7.625,19.75v39.25001h-16.125
			v-6.5h-1c-1.91797,2.5-4.4375,4.54297-7.5625,6.125s-6.73047,2.375-10.8125,2.375
			C410.87244,167.12938,405.32947,165.14891,400.99744,161.19188z M432.80994,149.81688
			c2.79102-3.04102,4.1875-6.60352,4.1875-10.6875c-4.25-2-8.70898-3-13.375-3c-8.5,0-12.75,3.16797-12.75,9.5
			c0,2.58398,0.91602,4.6875,2.75,6.3125c1.83203,1.625,4.45703,2.4375,7.875,2.4375
			C426.24744,154.37938,430.01697,152.85985,432.80994,149.81688z"/>
		<path fill="#00448E" d="M476.87341,188.69188c-5.33398-3.625-8.91797-7.98047-10.75-13.0625l15.375-6.25
			c1.33203,3.16602,3.375,5.66602,6.125,7.5c2.75,1.83203,5.875,2.75,9.375,2.75c5.16602,0,9.26953-1.58398,12.3125-4.75
			c3.04102-3.16797,4.5625-7.66797,4.5625-13.5v-5h-1c-2,2.83398-4.625,5-7.875,6.5s-6.95898,2.25-11.125,2.25
			c-5.25,0-10.14648-1.35352-14.6875-4.0625c-4.54297-2.70703-8.1875-6.54102-10.9375-11.5
			c-2.75-4.95703-4.125-10.72852-4.125-17.3125c0-6.58204,1.375-12.35352,4.125-17.31251c2.75-4.95703,6.39453-8.79102,10.9375-11.5
			c4.54102-2.70703,9.4375-4.0625,14.6875-4.0625c4.16602,0,7.875,0.75,11.125,2.25s5.875,3.66797,7.875,6.5h1v-6.75h15.75v59.37501
			c0,6.83203-1.33398,12.75-4,17.75c-2.66797,5-6.45898,8.85352-11.375,11.5625c-4.91797,2.70703-10.66797,4.0625-17.25,4.0625
			C488.91443,194.12938,482.20544,192.31688,476.87341,188.69188z M508.99841,145.44188c3.25-3.20703,4.875-7.60352,4.875-13.1875
			c0-5.75001-1.60547-10.18751-4.8125-13.31251c-3.20898-3.125-7.14648-4.6875-11.8125-4.6875c-4.66797,0-8.625,1.58398-11.875,4.75
			c-3.25,3.16797-4.875,7.58398-4.875,13.25001c0,5.66797,1.625,10.08398,4.875,13.25c3.25,3.16797,7.20703,4.75,11.875,4.75
			C501.83044,150.25438,505.74841,148.65086,508.99841,145.44188z"/>
		<path fill="#00448E" d="M547.87341,161.19188c-4.33398-3.95703-6.5-9.14453-6.5-15.5625c0-4.25,1.125-8,3.375-11.25
			s5.33203-5.75,9.25-7.50001c3.91602-1.75,8.25-2.625,13-2.625c6.58203,0,12.20703,0.95898,16.875,2.875v-2.75
			c0-3.5-1.3125-6.33203-3.9375-8.5c-2.625-2.16602-6.14648-3.25-10.5625-3.25c-3,0-5.89648,0.6875-8.6875,2.0625
			c-2.79297,1.375-5.10547,3.1875-6.9375,5.4375l-10.5-8.25c3.08203-4,6.95703-7.08203,11.625-9.25
			c4.66602-2.16602,9.75-3.25,15.25-3.25c9.75,0,17.16602,2.25,22.25,6.75c5.08203,4.5,7.625,11.08398,7.625,19.75v39.25001h-16.125
			v-6.5h-1c-1.91797,2.5-4.4375,4.54297-7.5625,6.125s-6.73047,2.375-10.8125,2.375
			C557.74841,167.12938,552.20544,165.14891,547.87341,161.19188z M579.68591,149.81688
			c2.79102-3.04102,4.1875-6.60352,4.1875-10.6875c-4.25-2-8.70898-3-13.375-3c-8.5,0-12.75,3.16797-12.75,9.5
			c0,2.58398,0.91602,4.6875,2.75,6.3125c1.83203,1.625,4.45703,2.4375,7.875,2.4375
			C573.12341,154.37938,576.89294,152.85985,579.68591,149.81688z"/>
		<path fill="#00448E" d="M647.24646,161.19188c-4.33398-3.95703-6.5-9.14453-6.5-15.5625c0-4.25,1.125-8,3.375-11.25
			s5.33203-5.75,9.25-7.50001c3.91602-1.75,8.25-2.625,13-2.625c6.58203,0,12.20703,0.95898,16.875,2.875v-2.75
			c0-3.5-1.3125-6.33203-3.9375-8.5c-2.625-2.16602-6.14648-3.25-10.5625-3.25c-3,0-5.89648,0.6875-8.6875,2.0625
			c-2.79297,1.375-5.10547,3.1875-6.9375,5.4375l-10.5-8.25c3.08203-4,6.95703-7.08203,11.625-9.25
			c4.66602-2.16602,9.75-3.25,15.25-3.25c9.75,0,17.16602,2.25,22.25,6.75c5.08203,4.5,7.625,11.08398,7.625,19.75v39.25001h-16.125
			v-6.5h-1c-1.91797,2.5-4.4375,4.54297-7.5625,6.125s-6.73047,2.375-10.8125,2.375
			C657.12146,167.12938,651.57849,165.14891,647.24646,161.19188z M679.05896,149.81688
			c2.79102-3.04102,4.1875-6.60352,4.1875-10.6875c-4.25-2-8.70898-3-13.375-3c-8.5,0-12.75,3.16797-12.75,9.5
			c0,2.58398,0.91602,4.6875,2.75,6.3125c1.83203,1.625,4.45703,2.4375,7.875,2.4375
			C672.49646,154.37938,676.26599,152.85985,679.05896,149.81688z"/>
		<path fill="#00448E" d="M752.18201,161.37938c-5.54297-3.83203-9.35547-9.41602-11.4375-16.75l15.5-6.125
			c1,4.08398,2.79102,7.23047,5.375,9.4375c2.58203,2.20898,5.83203,3.3125,9.75,3.3125c3.58203,0,6.6875-1.08203,9.3125-3.25
			c2.625-2.16602,3.9375-4.91602,3.9375-8.25c0-3.58203-1.39648-6.4375-4.1875-8.5625c-2.79297-2.125-6.5625-3.1875-11.3125-3.1875
			h-7.375v-14.87501h6.75c3.66602,0,6.76953-0.91602,9.3125-2.75c2.54102-1.83203,3.8125-4.5,3.8125-8
			c0-2.83203-1.04297-5.16602-3.125-7c-2.08398-1.83203-4.75-2.75-8-2.75c-3.41797,0-6.16797,0.91797-8.25,2.75
			c-2.08398,1.83398-3.54297,4.125-4.375,6.875l-14.875-6.125c1.75-5,4.97852-9.33203,9.6875-13
			c4.70703-3.66602,10.6875-5.5,17.9375-5.5c5.33203,0,10.10352,1,14.3125,3c4.20703,2,7.47852,4.73047,9.8125,8.1875
			c2.33203,3.45898,3.5,7.35547,3.5,11.6875c0,4.58398-1.0625,8.5-3.1875,11.75s-4.6875,5.625-7.6875,7.125v1
			c4.16602,1.66797,7.54102,4.29297,10.125,7.87501c2.58203,3.58398,3.875,7.91797,3.875,13c0,4.91797-1.25,9.33398-3.75,13.25
			c-2.5,3.91797-6.02148,7-10.5625,9.25c-4.54297,2.25-9.77148,3.375-15.6875,3.375
			C764.11951,167.12938,757.72302,165.21141,752.18201,161.37938z"/>
		<path fill="#00448E" d="M812.24451,176.25438l7.5-11.375c-1.91797-0.75-3.52148-2-4.8125-3.75
			c-1.29297-1.75-1.9375-3.79102-1.9375-6.125c0-3,1.0625-5.54102,3.1875-7.625c2.125-2.08203,4.6875-3.125,7.6875-3.125
			s5.5625,1.04297,7.6875,3.125c2.125,2.08398,3.1875,4.625,3.1875,7.625c0,1.5-0.25,2.83398-0.75,4
			c-0.5,1.16797-1.33398,2.625-2.5,4.375l-11.875,17.75L812.24451,176.25438z"/>
		<path fill="#00448E" d="M891.49255,163.06688c-4.66797-2.70703-8.29297-6.35352-10.875-10.9375
			c-2.58398-4.58203-3.875-9.54102-3.875-14.875c0-5.33203,1.01953-10.33204,3.0625-15.00001
			c2.04102-4.66602,5.0625-9.83203,9.0625-15.5l20.625-29.625l12.75,8.75l-17.625,24.75l0.75,0.75
			c1.91602-0.83203,4.08203-1.25,6.5-1.25c4.33203,0,8.47852,1.1875,12.4375,3.5625c3.95703,2.375,7.16602,5.6875,9.625,9.9375
			c2.45703,4.25,3.6875,9.00001,3.6875,14.25001c0,5.5-1.39648,10.5-4.1875,15c-2.79297,4.5-6.5,8-11.125,10.5
			s-9.5625,3.75-14.8125,3.75C901.49255,167.12938,896.15857,165.77391,891.49255,163.06688z M917.30505,148.12938
			c2.875-2.66602,4.3125-6.04102,4.3125-10.125c0-4.08203-1.4375-7.47852-4.3125-10.18751
			c-2.875-2.70703-6.27148-4.0625-10.1875-4.0625c-3.83398,0-7.1875,1.35547-10.0625,4.0625
			c-2.875,2.70899-4.3125,6.10548-4.3125,10.18751c0,4.08398,1.4375,7.45898,4.3125,10.125c2.875,2.66797,6.22852,4,10.0625,4
			C911.03357,152.12938,914.43005,150.79735,917.30505,148.12938z"/>
		<path fill="#00448E" d="M993.4906,162.69188c-5.16797-2.95703-9.1875-7-12.0625-12.125s-4.3125-10.89453-4.3125-17.3125
			c0-6.33204,1.4375-12.08204,4.3125-17.25001c2.875-5.16602,6.89453-9.22852,12.0625-12.1875
			c5.16602-2.95703,11.04102-4.4375,17.625-4.4375c6.5,0,12.33203,1.48047,17.5,4.4375
			c5.16602,2.95898,9.1875,7.02148,12.0625,12.1875c2.875,5.16797,4.3125,10.91797,4.3125,17.25001
			c0,6.41797-1.4375,12.1875-4.3125,17.3125s-6.89648,9.16797-12.0625,12.125c-5.16797,2.95703-11,4.4375-17.5,4.4375
			C1004.53162,167.12938,998.65662,165.64891,993.4906,162.69188z M1019.8656,149.75438c2.66602-1.5,4.79102-3.66602,6.375-6.5
			c1.58203-2.83203,2.375-6.16602,2.375-10c0-3.75-0.79297-7.04102-2.375-9.87501c-1.58398-2.83203-3.70898-5-6.375-6.5
			c-2.66797-1.5-5.58398-2.25-8.75-2.25c-3.16797,0-6.08398,0.75-8.75,2.25c-2.66797,1.5-4.8125,3.66797-6.4375,6.5
			c-1.625,2.83398-2.4375,6.12501-2.4375,9.87501s0.8125,7.0625,2.4375,9.9375s3.76953,5.0625,6.4375,6.5625
			c2.66602,1.5,5.58203,2.25,8.75,2.25C1014.28162,152.00438,1017.19763,151.25438,1019.8656,149.75438z M1009.7406,72.12937h19.125
			l-11.25,17h-13.125L1009.7406,72.12937z"/>
		<path fill="#00448E" d="M1105.61365,101.00437l-12.875,9.375l-8.25-12.625l25.125-18.125h12.375v85.50001h-16.375V101.00437z"/>
		<path fill="#00448E" d="M1140.73669,150.25438c2.75-2.75,8.0625-8.0625,15.9375-15.9375s12.9375-13.01954,15.1875-15.43751
			c3-3.25,5.0625-5.95703,6.1875-8.125c1.125-2.16602,1.6875-4.625,1.6875-7.375c0-2.91602-1.08398-5.375-3.25-7.375
			c-2.16797-2-5.04297-3-8.625-3c-3.5,0-6.33398,1-8.5,3c-2.16797,2-3.70898,4.5-4.625,7.5l-14.75-6.125
			c0.91602-3.25,2.60352-6.39453,5.0625-9.4375c2.45703-3.04102,5.64453-5.51953,9.5625-7.4375
			c3.91602-1.91602,8.41602-2.875,13.5-2.875c5.66602,0,10.625,1.10547,14.875,3.3125c4.25,2.20898,7.54102,5.20898,9.875,9
			c2.33203,3.79297,3.5,8.02148,3.5,12.6875c0,9.25-4.5,18.29297-13.5,27.12501c-3.66797,3.58398-10.45898,10.33398-20.375,20.25
			l0.375,0.75h34.625v14.375h-56.75V150.25438z"/>
		<path fill="#00448E" d="M324.08142,210.62547h16.35645l17.85938,47.2827h0.75195l17.86035-47.2827h16.4502v67.30418h-12.59668
			v-33.18163l0.75195-11.18652h-0.75195l-17.10742,44.36815h-9.87012l-17.20215-44.36815h-0.75195l0.75195,11.18652v33.18163
			h-12.50195V210.62547z"/>
		<path fill="#00448E" d="M416.57654,276.14352c-3.82227-2.19238-6.81445-5.2168-8.97656-9.07129
			c-2.16211-3.85352-3.24316-8.19238-3.24316-13.01854c0-4.57324,1.06543-8.81934,3.19629-12.7373
			c2.12988-3.91602,5.07617-7.0332,8.83594-9.35254c3.75977-2.31787,7.95801-3.47803,12.5957-3.47803
			c4.9502,0,9.21191,1.06592,12.78418,3.1958c3.57227,2.13086,6.28223,5.04492,8.13086,8.74219
			c1.84766,3.69824,2.77344,7.80176,2.77344,12.31445c0,1.44141-0.09375,2.81934-0.28223,4.13475h-36.00195
			c0.62598,3.82422,2.14551,6.72168,4.55859,8.69531c2.41211,1.97461,5.31152,2.96094,8.69531,2.96094
			c2.82031,0,5.24805-0.61035,7.28516-1.83301c2.03516-1.22168,3.64941-2.86621,4.84082-4.93457l9.96387,4.8877
			c-4.8877,8.52344-12.31348,12.78418-22.27734,12.78418C424.69177,279.43356,420.3988,278.33688,416.57654,276.14352z
			 M440.82947,248.13182c-0.12695-1.50391-0.6748-2.99219-1.64551-4.46582c-0.97266-1.4707-2.31934-2.69336-4.04199-3.66602
			c-1.72461-0.9707-3.74512-1.45703-6.0625-1.45703c-2.94629,0-5.46875,0.86328-7.56738,2.58594
			c-2.10059,1.72461-3.61914,4.05859-4.55859,7.00293H440.82947z"/>
		<path fill="#00448E" d="M466.724,275.8613c-3.60449-2.38086-6.12695-5.48242-7.56738-9.30566l10.99805-4.79395
			c1.00195,2.25586,2.42773,3.96387,4.27734,5.12305c1.84766,1.16016,3.99414,1.73926,6.43848,1.73926
			c2.25586,0,4.13574-0.36035,5.63965-1.08105c1.50488-0.71973,2.25684-1.89453,2.25684-3.52539
			c0-1.56543-0.69043-2.74023-2.06836-3.52539c-1.37891-0.78223-3.44727-1.4873-6.2041-2.11426l-5.63965-1.22168
			c-3.88672-0.94043-7.11328-2.64745-9.68262-5.12303c-2.57031-2.47559-3.85352-5.56055-3.85352-9.25977
			c0-2.75684,0.83008-5.23145,2.49121-7.42578c1.65918-2.19336,3.91504-3.88477,6.76758-5.07617
			c2.85059-1.18945,6-1.78564,9.44727-1.78564c9.90039,0,16.51172,3.47803,19.83398,10.43408l-10.52832,4.60547
			c-1.87988-3.38379-4.8877-5.07617-9.02344-5.07617c-2.13184,0-3.82324,0.39258-5.07617,1.17578
			c-1.25488,0.78418-1.87988,1.77148-1.87988,2.96094c0,2.25586,2.12891,3.94727,6.3916,5.07617l7.0498,1.69141
			c4.76172,1.19141,8.34961,3.00781,10.7627,5.45215c2.41211,2.44432,3.61914,5.45213,3.61914,9.0244
			c0,3.07031-0.89258,5.78027-2.67871,8.13086c-1.78613,2.34961-4.22949,4.18262-7.33203,5.49902
			c-3.10156,1.31543-6.5332,1.97363-10.29297,1.97363C475.04236,279.43356,470.32654,278.24216,466.724,275.8613z"/>
		<path fill="#00448E" d="M520.16052,276.14352c-3.82227-2.19238-6.81445-5.2168-8.97656-9.07129
			c-2.16211-3.85352-3.24316-8.19238-3.24316-13.01854c0-4.57324,1.06543-8.81934,3.19629-12.7373
			c2.12988-3.91602,5.07617-7.0332,8.83594-9.35254c3.75977-2.31787,7.95801-3.47803,12.5957-3.47803
			c4.9502,0,9.21191,1.06592,12.78418,3.1958c3.57227,2.13086,6.28223,5.04492,8.13086,8.74219
			c1.84766,3.69824,2.77344,7.80176,2.77344,12.31445c0,1.44141-0.09375,2.81934-0.28223,4.13475h-36.00195
			c0.62598,3.82422,2.14551,6.72168,4.55859,8.69531c2.41211,1.97461,5.31152,2.96094,8.69531,2.96094
			c2.82031,0,5.24805-0.61035,7.28516-1.83301c2.03516-1.22168,3.64941-2.86621,4.84082-4.93457l9.96387,4.8877
			c-4.8877,8.52344-12.31348,12.78418-22.27734,12.78418C528.27576,279.43356,523.98279,278.33688,520.16052,276.14352z
			 M544.41345,248.13182c-0.12695-1.50391-0.6748-2.99219-1.64551-4.46582c-0.97266-1.4707-2.31934-2.69336-4.04199-3.66602
			c-1.72461-0.9707-3.74512-1.45703-6.0625-1.45703c-2.94629,0-5.46875,0.86328-7.56738,2.58594
			c-2.10059,1.72461-3.61914,4.05859-4.55859,7.00293H544.41345z"/>
		<path fill="#00448E" d="M570.30798,275.8613c-3.60449-2.38086-6.12695-5.48242-7.56738-9.30566l10.99805-4.79395
			c1.00195,2.25586,2.42773,3.96387,4.27734,5.12305c1.84766,1.16016,3.99414,1.73926,6.43848,1.73926
			c2.25586,0,4.13574-0.36035,5.63965-1.08105c1.50488-0.71973,2.25684-1.89453,2.25684-3.52539
			c0-1.56543-0.69043-2.74023-2.06836-3.52539c-1.37891-0.78223-3.44727-1.4873-6.2041-2.11426l-5.63965-1.22168
			c-3.88672-0.94043-7.11328-2.64745-9.68262-5.12303c-2.57031-2.47559-3.85352-5.56055-3.85352-9.25977
			c0-2.75684,0.83008-5.23145,2.49121-7.42578c1.65918-2.19336,3.91504-3.88477,6.76758-5.07617
			c2.85059-1.18945,6-1.78564,9.44727-1.78564c9.90039,0,16.51172,3.47803,19.83398,10.43408l-10.52832,4.60547
			c-1.87988-3.38379-4.8877-5.07617-9.02344-5.07617c-2.13184,0-3.82324,0.39258-5.07617,1.17578
			c-1.25488,0.78418-1.87988,1.77148-1.87988,2.96094c0,2.25586,2.12891,3.94727,6.3916,5.07617l7.0498,1.69141
			c4.76172,1.19141,8.34961,3.00781,10.7627,5.45215c2.41211,2.44432,3.61914,5.45213,3.61914,9.0244
			c0,3.07031-0.89258,5.78027-2.67871,8.13086c-1.78613,2.34961-4.22949,4.18262-7.33203,5.49902
			c-3.10156,1.31543-6.5332,1.97363-10.29297,1.97363C578.62634,279.43356,573.91052,278.24216,570.30798,275.8613z"/>
		<path fill="#00448E" d="M639.25427,274.45212c-4.51172-3.32129-7.67773-8.02148-9.49414-14.10059l11.9375-4.6992
			c0.94043,3.57127,2.53809,6.42381,4.79492,8.55272c2.25586,2.13184,5.0752,3.19629,8.45996,3.19629
			c2.81934,0,5.23145-0.70508,7.2373-2.11426c2.00488-1.41016,3.00781-3.36816,3.00781-5.875
			c0-2.50586-0.95605-4.55956-2.86621-6.15721c-1.91309-1.59863-5.31152-3.30469-10.19922-5.12305l-4.13574-1.50391
			c-4.32422-1.50488-8.02246-3.80762-11.09277-6.90918s-4.60547-7.00293-4.60547-11.70312
			c0-3.50879,0.90723-6.70459,2.72559-9.58789c1.81738-2.88184,4.38574-5.15381,7.70801-6.81494
			c3.32129-1.65967,7.08105-2.49121,11.28027-2.49121c6.07812,0,10.87207,1.42627,14.38184,4.27734
			c3.50879,2.85205,5.92188,6.18896,7.23828,10.01074l-11.18652,4.7002c-0.68945-2.06836-1.89551-3.80713-3.61816-5.21729
			c-1.72461-1.40967-3.93359-2.11475-6.62793-2.11475c-2.75781,0-5.02832,0.64307-6.81445,1.92676
			c-1.78613,1.28516-2.67871,2.96094-2.67871,5.0293c0,2.00635,0.8457,3.71338,2.53809,5.12256
			c1.69141,1.41016,4.47949,2.77344,8.36523,4.08887l4.23047,1.41016c5.82812,2.00586,10.29297,4.65332,13.39453,7.94336
			c3.10254,3.29004,4.65332,7.59961,4.65332,12.92479c0,4.3877-1.12793,8.10059-3.38379,11.13867
			c-2.25586,3.04102-5.15527,5.31152-8.69531,6.81543c-3.54102,1.50391-7.19043,2.25586-10.95117,2.25586
			C648.96716,279.43356,643.76599,277.77438,639.25427,274.45212z"/>
		<path fill="#00448E" d="M689.54333,222.37547c-1.56738-1.56543-2.34961-3.44531-2.34961-5.63965
			c0-2.19287,0.78223-4.05664,2.34961-5.59326c1.56543-1.53467,3.44531-2.30273,5.63965-2.30273
			c2.19336,0,4.05664,0.76807,5.59375,2.30273c1.53418,1.53662,2.30273,3.40039,2.30273,5.59326
			c0,2.19434-0.76855,4.07422-2.30273,5.63965c-1.53711,1.56738-3.40039,2.3501-5.59375,2.3501
			C692.98865,224.72557,691.10876,223.94286,689.54333,222.37547z M688.97888,229.98973h12.31445v47.93993h-12.31445V229.98973z"/>
		<path fill="#00448E" d="M714.16931,229.98973h11.5625v6.01611h0.75195c1.44043-2.31836,3.47754-4.15039,6.11035-5.49902
			c2.63184-1.34717,5.48242-2.021,8.55371-2.021c5.76465,0,10.15234,1.75488,13.16016,5.26416
			c3.00781,3.50977,4.51172,8.30469,4.51172,14.38184v29.79784h-12.31445v-28.29393c0-3.06934-0.78418-5.45215-2.34961-7.14355
			c-1.56738-1.69238-3.75977-2.53906-6.58008-2.53906c-3.32227,0-6.00098,1.28516-8.03711,3.85449
			c-2.03711,2.57031-3.05469,5.79785-3.05469,9.68262v24.43944h-12.31445V229.98973z"/>
		<path fill="#00448E" d="M794.16248,210.62547h12.69043v67.30418h-12.69043V210.62547z"/>
		<path fill="#00448E" d="M820.48083,229.98973h11.5625v6.01611h0.75195c1.44043-2.31836,3.47754-4.15039,6.11035-5.49902
			c2.63184-1.34717,5.48242-2.021,8.55371-2.021c5.76465,0,10.15234,1.75488,13.16016,5.26416
			c3.00781,3.50977,4.51172,8.30469,4.51172,14.38184v29.79784h-12.31445v-28.29393c0-3.06934-0.78418-5.45215-2.34961-7.14355
			c-1.56738-1.69238-3.75977-2.53906-6.58008-2.53906c-3.32227,0-6.00098,1.28516-8.03711,3.85449
			c-2.03711,2.57031-3.05469,5.79785-3.05469,9.68262v24.43944h-12.31445V229.98973z"/>
		<path fill="#00448E" d="M888.72498,277.60056c-2.00586-0.71973-3.63477-1.70703-4.8877-2.96094
			c-2.94629-2.82031-4.41797-6.83008-4.41797-12.03223v-22.08983h-8.36621v-10.52783h8.36621V216.4536h12.31348v13.53613h11.75
			v10.52783h-11.75v19.83397c0,2.44434,0.53223,4.19922,1.59863,5.26367c0.87695,1.00391,2.38086,1.50488,4.51172,1.50488
			c1.18945,0,2.17676-0.15625,2.96094-0.4707c0.7832-0.3125,1.80078-0.8457,3.05566-1.59766v12.03223
			c-2.69531,1.06445-5.54688,1.59766-8.55469,1.59766C892.92322,278.68161,890.72986,278.32028,888.72498,277.60056z"/>
		<path fill="#00448E" d="M921.62634,276.14352c-3.82227-2.19238-6.81445-5.2168-8.97656-9.07129
			c-2.16211-3.85352-3.24316-8.19238-3.24316-13.01854c0-4.57324,1.06543-8.81934,3.19629-12.7373
			c2.12988-3.91602,5.07617-7.0332,8.83594-9.35254c3.75977-2.31787,7.95801-3.47803,12.5957-3.47803
			c4.9502,0,9.21191,1.06592,12.78418,3.1958c3.57227,2.13086,6.28223,5.04492,8.13086,8.74219
			c1.84766,3.69824,2.77344,7.80176,2.77344,12.31445c0,1.44141-0.09375,2.81934-0.28223,4.13475h-36.00195
			c0.62598,3.82422,2.14551,6.72168,4.55859,8.69531c2.41211,1.97461,5.31152,2.96094,8.69531,2.96094
			c2.82031,0,5.24805-0.61035,7.28516-1.83301c2.03516-1.22168,3.64941-2.86621,4.84082-4.93457l9.96387,4.8877
			c-4.8877,8.52344-12.31348,12.78418-22.27734,12.78418C929.74158,279.43356,925.44861,278.33688,921.62634,276.14352z
			 M945.87927,248.13182c-0.12695-1.50391-0.6748-2.99219-1.64551-4.46582c-0.97266-1.4707-2.31934-2.69336-4.04199-3.66602
			c-1.72461-0.9707-3.74512-1.45703-6.0625-1.45703c-2.94629,0-5.46875,0.86328-7.56738,2.58594
			c-2.10059,1.72461-3.61914,4.05859-4.55859,7.00293H945.87927z"/>
		<path fill="#00448E" d="M967.21521,229.98973h11.5625v6.39209h0.75195c1.18945-2.25684,3.03906-4.12012,5.5459-5.59277
			c2.50586-1.47217,5.26367-2.20947,8.27246-2.20947c2.19238,0,4.19727,0.34521,6.01562,1.03418v12.31396
			c-1.69238-0.62598-3.11816-1.08105-4.27734-1.36328c-1.16016-0.28125-2.39648-0.42285-3.71289-0.42285
			c-3.63477,0-6.51855,1.31543-8.64746,3.94824c-2.13184,2.63184-3.19629,5.9541-3.19629,9.96387v23.87596h-12.31445V229.98973z"/>
		<path fill="#00448E" d="M1014.11951,276.14352c-3.82227-2.19238-6.81445-5.2168-8.97656-9.07129
			c-2.16211-3.85352-3.24316-8.19238-3.24316-13.01854c0-4.57324,1.06543-8.81934,3.19629-12.7373
			c2.12988-3.91602,5.07617-7.0332,8.83594-9.35254c3.75977-2.31787,7.95801-3.47803,12.5957-3.47803
			c4.9502,0,9.21191,1.06592,12.78418,3.1958c3.57227,2.13086,6.28223,5.04492,8.13086,8.74219
			c1.84766,3.69824,2.77344,7.80176,2.77344,12.31445c0,1.44141-0.09375,2.81934-0.28223,4.13475h-36.00195
			c0.62598,3.82422,2.14551,6.72168,4.55859,8.69531c2.41211,1.97461,5.31152,2.96094,8.69531,2.96094
			c2.82031,0,5.24805-0.61035,7.28516-1.83301c2.03516-1.22168,3.64941-2.86621,4.84082-4.93457l9.96387,4.8877
			c-4.8877,8.52344-12.31348,12.78418-22.27734,12.78418C1022.23474,279.43356,1017.94177,278.33688,1014.11951,276.14352z
			 M1038.37244,248.13182c-0.12695-1.50391-0.6748-2.99219-1.64551-4.46582c-0.97266-1.4707-2.31934-2.69336-4.04199-3.66602
			c-1.72461-0.9707-3.74512-1.45703-6.0625-1.45703c-2.94629,0-5.46875,0.86328-7.56738,2.58594
			c-2.10059,1.72461-3.61914,4.05859-4.55859,7.00293H1038.37244z"/>
		<path fill="#00448E" d="M1064.26794,275.8613c-3.60449-2.38086-6.12695-5.48242-7.56738-9.30566l10.99805-4.79395
			c1.00195,2.25586,2.42773,3.96387,4.27734,5.12305c1.84766,1.16016,3.99414,1.73926,6.43848,1.73926
			c2.25586,0,4.13574-0.36035,5.63965-1.08105c1.50488-0.71973,2.25684-1.89453,2.25684-3.52539
			c0-1.56543-0.69043-2.74023-2.06836-3.52539c-1.37891-0.78223-3.44727-1.4873-6.2041-2.11426l-5.63965-1.22168
			c-3.88672-0.94043-7.11328-2.64745-9.68262-5.12303c-2.57031-2.47559-3.85352-5.56055-3.85352-9.25977
			c0-2.75684,0.83008-5.23145,2.49121-7.42578c1.65918-2.19336,3.91504-3.88477,6.76758-5.07617
			c2.85059-1.18945,6-1.78564,9.44727-1.78564c9.90039,0,16.51172,3.47803,19.83398,10.43408l-10.52832,4.60547
			c-1.87988-3.38379-4.8877-5.07617-9.02344-5.07617c-2.13184,0-3.82324,0.39258-5.07617,1.17578
			c-1.25488,0.78418-1.87988,1.77148-1.87988,2.96094c0,2.25586,2.12891,3.94727,6.3916,5.07617l7.0498,1.69141
			c4.76172,1.19141,8.34961,3.00781,10.7627,5.45215c2.41211,2.44432,3.61914,5.45213,3.61914,9.0244
			c0,3.07031-0.89258,5.78027-2.67871,8.13086c-1.78613,2.34961-4.22949,4.18262-7.33203,5.49902
			c-3.10156,1.31543-6.5332,1.97363-10.29297,1.97363C1072.5863,279.43356,1067.87048,278.24216,1064.26794,275.8613z"/>
		<path fill="#00448E" d="M1117.70349,276.14352c-3.82227-2.19238-6.81445-5.2168-8.97656-9.07129
			c-2.16211-3.85352-3.24316-8.19238-3.24316-13.01854c0-4.57324,1.06543-8.81934,3.19629-12.7373
			c2.12988-3.91602,5.07617-7.0332,8.83594-9.35254c3.75977-2.31787,7.95801-3.47803,12.5957-3.47803
			c4.9502,0,9.21191,1.06592,12.78418,3.1958c3.57227,2.13086,6.28223,5.04492,8.13086,8.74219
			c1.84766,3.69824,2.77344,7.80176,2.77344,12.31445c0,1.44141-0.09375,2.81934-0.28223,4.13475h-36.00195
			c0.62598,3.82422,2.14551,6.72168,4.55859,8.69531c2.41211,1.97461,5.31152,2.96094,8.69531,2.96094
			c2.82031,0,5.24805-0.61035,7.28516-1.83301c2.03516-1.22168,3.64941-2.86621,4.84082-4.93457l9.96387,4.8877
			c-4.8877,8.52344-12.31348,12.78418-22.27734,12.78418C1125.81873,279.43356,1121.52576,278.33688,1117.70349,276.14352z
			 M1141.95642,248.13182c-0.12695-1.50391-0.6748-2.99219-1.64551-4.46582c-0.97266-1.4707-2.31934-2.69336-4.04199-3.66602
			c-1.72461-0.9707-3.74512-1.45703-6.0625-1.45703c-2.94629,0-5.46875,0.86328-7.56738,2.58594
			c-2.10059,1.72461-3.61914,4.05859-4.55859,7.00293H1141.95642z"/>
		<path fill="#00448E" d="M1167.85095,275.8613c-3.60449-2.38086-6.12695-5.48242-7.56738-9.30566l10.99805-4.79395
			c1.00195,2.25586,2.42773,3.96387,4.27734,5.12305c1.84766,1.16016,3.99414,1.73926,6.43848,1.73926
			c2.25586,0,4.13574-0.36035,5.63965-1.08105c1.50488-0.71973,2.25684-1.89453,2.25684-3.52539
			c0-1.56543-0.69043-2.74023-2.06836-3.52539c-1.37891-0.78223-3.44727-1.4873-6.2041-2.11426l-5.63965-1.22168
			c-3.88672-0.94043-7.11328-2.64745-9.68262-5.12303c-2.57031-2.47559-3.85352-5.56055-3.85352-9.25977
			c0-2.75684,0.83008-5.23145,2.49121-7.42578c1.65918-2.19336,3.91504-3.88477,6.76758-5.07617
			c2.85059-1.18945,6-1.78564,9.44727-1.78564c9.90039,0,16.51172,3.47803,19.83398,10.43408l-10.52832,4.60547
			c-1.87988-3.38379-4.8877-5.07617-9.02344-5.07617c-2.13184,0-3.82324,0.39258-5.07617,1.17578
			c-1.25488,0.78418-1.87988,1.77148-1.87988,2.96094c0,2.25586,2.12891,3.94727,6.3916,5.07617l7.0498,1.69141
			c4.76172,1.19141,8.34961,3.00781,10.7627,5.45215c2.41211,2.44432,3.61914,5.45213,3.61914,9.0244
			c0,3.07031-0.89258,5.78027-2.67871,8.13086c-1.78613,2.34961-4.22949,4.18262-7.33203,5.49902
			c-3.10156,1.31543-6.5332,1.97363-10.29297,1.97363C1176.16931,279.43356,1171.45349,278.24216,1167.85095,275.8613z"/>
	</g>
</g>
<g>
	<path fill="#146AA8" d="M255.74635,222.86174l15.87898-101.38908c1.65109-10.28868-5.34961-19.9695-15.63881-21.62537l0,0
		L41.72143,65.45682C31.43275,63.8057,21.75247,70.80643,20.10135,81.0951l-7.61388,47.41584v93.76091L255.74635,222.86174z"/>
	<path fill="#126099" d="M255.98706,99.84729l-60.85597-9.76494c-40.87274,62.53992-106.94661,105.85626-157.6176,132.25089
		l218.23285,0.5285l15.879-101.38908C273.27649,111.18345,266.27576,101.50317,255.98706,99.84729L255.98706,99.84729z"/>
	<path fill="#4398D1" d="M19.87016,123.79353h217.00603c10.42093,0,18.87016,8.44922,18.87016,18.87016v122.65579
		c0,10.42093-8.44923,18.87015-18.87016,18.87015H19.87016C9.44922,284.18909,1,275.74039,1,265.31946V142.6637
		C1,132.24277,9.44922,123.79353,19.87016,123.79353z"/>
	<path fill="#3E8CC7" d="M236.87619,123.79353h-3.77414c-44.53366,79.06116-127.74561,133.29362-178.54411,160.39555h182.31825
		c10.42093,0,18.87016-8.44922,18.87016-18.87015V142.6637C255.74635,132.24277,247.29712,123.79353,236.87619,123.79353z"/>
	<rect x="24.58761" y="147.3811" fill="#FDB62F" width="47.17513" height="37.74033"/>
	<g>
		<rect x="24.58757" y="161.53386" fill="#FD7B2F" width="14.15275" height="9.43481"/>
		<rect x="57.61052" y="161.53386" fill="#FD7B2F" width="14.15275" height="9.43481"/>
	</g>
	<circle fill="#FDB62F" cx="208.57117" cy="237.01396" r="23.58757"/>
	<circle fill="#DE4C3C" cx="180.26575" cy="237.01396" r="23.58757"/>
	<g>
		<rect x="19.8701" y="218.14381" fill="#87CED9" width="28.30497" height="9.43481"/>
		<rect x="67.04527" y="218.14381" fill="#87CED9" width="28.30497" height="9.43481"/>
		<rect x="114.22044" y="218.14381" fill="#87CED9" width="28.30497" height="9.43481"/>
		<rect x="19.87012" y="246.44931" fill="#87CED9" width="122.65577" height="9.43482"/>
		<rect x="166.11353" y="147.38109" fill="#87CED9" width="9.43482" height="18.87016"/>
		<rect x="184.98364" y="147.38109" fill="#87CED9" width="9.43482" height="18.87016"/>
		<rect x="203.85329" y="147.38109" fill="#87CED9" width="9.43481" height="18.87016"/>
		<rect x="222.7234" y="147.38109" fill="#87CED9" width="9.43481" height="18.87016"/>
	</g>
</g>
</svg>
