<?xml version="1.0" encoding="utf-8"?>
<!-- Generator: Adobe Illustrator 17.0.0, SVG Export Plug-In . SVG Version: 6.00 Build 0)  -->
<!DOCTYPE svg PUBLIC "-//W3C//DTD SVG 1.1//EN" "http://www.w3.org/Graphics/SVG/1.1/DTD/svg11.dtd">
<svg version="1.1" id="Capa_1" xmlns="http://www.w3.org/2000/svg" xmlns:xlink="http://www.w3.org/1999/xlink" x="0px" y="0px"
	 width="479.49469px" height="416.24503px" viewBox="0 0 479.49469 416.24503" enable-background="new 0 0 479.49469 416.24503"
	 xml:space="preserve">
<g>
	<path fill="#E02631" d="M289.66333,91.06135c-61.62,9.66901-140.884,22.151-158.067,25.065
		c-28.958,4.91101-38.60099,20.89701-38.60099,20.89701s-78.508,89.79102-89.144,102.58499
		c-6.747,8.11502-3.272,34.911,0.174,53.43501c2.636,17.70398,7.334,38.73099,15.132,43.69998
		c14.033,8.94,116.18198,70.513,116.18198,70.513s14.058,12.285,43.13501,8.13101
		c29.077-4.15402,234.36398-36.19501,234.36398-36.19501s77.07397-3.142,64.20697-91.94199l-12.90594-78.75301l-1.74402-11.74399
		l-1.37299-6.17102c-3.67902-18.896-0.40503-21.94699,3.00897-28.09299c2.91199-5.23901,2.586-13.078,1.849-17.08701
		c-0.211-1.14899-1.61298-1.57401-2.35498-0.67099c-4.05603,4.936-14.29303,16.64301-25.586,23.771
		c-3.08899,1.94998-20.84399,10.04001-26.414,1.00998c-6.35501-14.38098,11.595-21.66299,20.39999-24.41397
		c16.05402-5.01703,26.42099-9.03003,33.77902-19.06303c7.35797-10.03299,9.36395-37.79199-9.03003-66.88901
		c-15.56799-24.62598-16.52298-50.44995-16.448-57.80396c0.01001-1.04303-1.125-1.67603-2.03198-1.15802
		c-7.18399,4.10999-7.60602,16.27502-7.60602,28.862c0,13.712,4.19,32.44098,0,53.177
		c-3.06497,15.16299-41.96399,43.54797-52.508,23.745c-11.02899-20.71301,5.42001-41.42599,12.27902-48.73901
		c0.89099-0.94901,0.034-2.45801-1.246-2.22299c-20.80099,3.81601-34.30701,22.284-37.45401,34.23999
		c-3.34399,12.70901-10.702,30.43402-20.73502,40.46803c-10.03299,10.03299-21.57199,3.67798-21.57199-15.05003
		c0-13.38998,7.26501-23.01999,11.40799-27.42099c0.88-0.936,0.09302-2.461-1.17398-2.24899
		c-6.46402,1.07999-16.95502,3.91699-24.448,5.255L289.66333,91.06135z M96.17234,302.11035
		c-16.63,4.30801-32.904-7.57401-33.86701-24.72601c-0.713-12.69199,7.82-24.37898,20.126-27.56697
		c16.63101-4.30899,32.90601,7.57399,33.86801,24.72697C117.01034,287.23636,108.47834,298.92236,96.17234,302.11035"/>
	<polygon fill="#9B1C22" points="161.49854,183.71873 178.69952,181.03474 183.08553,209.14674 208.64352,205.15974 
		204.25751,177.04875 221.45853,174.36476 232.42252,244.64574 215.22153,247.32774 210.92752,219.80574 185.36952,223.79274 
		189.66353,251.31575 172.46252,253.99873 	"/>
	<path fill="#9B1C22" d="M269.72302,165.62706c21.23199-3.31198,39.215,9.99301,42.358,30.14301
		c3.22,20.64099-9.79401,39.185-31.02701,42.49802c-21.22998,3.31097-39.276-10.38702-42.49597-31.02802
		C235.41403,187.08907,248.49304,168.93907,269.72302,165.62706 M278.60104,222.54005
		c10.51797-1.64099,17.56097-12.00198,15.689-23.99399c-1.793-11.50101-11.59601-18.83301-22.11401-17.19199
		c-10.517,1.64099-17.62,11.60999-15.82599,23.10999C258.22104,216.45607,268.08304,224.18108,278.60104,222.54005"/>
	<polygon fill="#9B1C22" points="334.12155,171.89305 312.79053,175.22105 310.49054,160.47606 370.35153,151.13808 
		372.65155,165.88206 351.32254,169.21007 359.98553,224.74608 342.78455,227.42906 	"/>
	<path fill="#9B1C22" d="M169.52985,319.25192c0,0,9.097,6.03201,17.94199,4.65201c3.53801-0.552,7.159-2.526,6.49799-6.75299
		c-1.30197-8.354-32.90797-3.12302-36.28098-24.74802c-2.024-12.974,7.552-23.228,21.511-25.405
		c15.13698-2.36099,23.84999,4.435,23.84999,4.435l-5.08301,15.19c0,0-8.04199-5.08798-16.49599-3.76898
		c-3.53799,0.552-7.22501,2.73801-6.612,6.66998c1.38,8.84702,32.786,2.336,36.25099,24.55002
		c1.82501,11.698-5.54001,23.21799-21.366,25.68698c-16.513,2.57501-27.21899-6.02499-27.21899-6.02499L169.52985,319.25192z"/>
	<path fill="#9B1C22" d="M264.17642,311.83694l-21.91898,3.42001l-1.927,15.40298l-17.69202,2.76001l12.92102-74.00601
		l18.08698-2.82098l34.84802,66.55298l-17.69202,2.76102L264.17642,311.83694z M247.00345,274.04193
		c0,0-0.37601,7.91101-0.96402,12.53302l-1.89899,14.29099l13.85999-2.16199l-6.064-13.04901
		c-1.96701-4.22299-4.73599-11.64398-4.73599-11.64398L247.00345,274.04193z"/>
	<polygon fill="#9B1C22" points="288.07474,251.22163 305.27573,248.53865 313.93973,304.07465 342.64172,299.59662 
		344.94272,314.34064 299.03873,321.50162 	"/>
	<polygon fill="#9B1C22" points="346.09714,242.17085 390.13312,235.30086 392.43314,250.04585 365.59811,254.23186 
		367.59213,267.01086 389.02112,263.66684 391.32114,278.40985 369.89212,281.75284 371.96213,295.02386 400.17313,290.62186 
		402.47311,305.36584 357.06113,312.45084 	"/>
	<polygon fill="#FFFFFF" points="158.13724,180.61714 175.33823,177.93315 179.72324,206.04515 205.28122,202.05815 
		200.89621,173.94716 218.09723,171.26317 229.06021,241.54414 211.85922,244.22615 207.56622,216.70415 182.00822,220.69115 
		186.30122,248.21416 169.10023,250.89714 	"/>
	<path fill="#FFFFFF" d="M266.36072,162.52596c21.233-3.31198,39.216,9.992,42.35901,30.14301
		c3.22,20.64099-9.79401,39.185-31.02701,42.49701c-21.22998,3.31198-39.27698-10.38699-42.49698-31.02701
		C232.05173,183.98796,245.13074,165.83797,266.36072,162.52596 M275.23975,219.43895
		c10.51797-1.64099,17.56-12.00299,15.689-23.995c-1.793-11.5-11.59601-18.832-22.11401-17.19098
		c-10.517,1.64099-17.62,11.60999-15.82599,23.10999C254.85873,213.35497,264.72174,221.07997,275.23975,219.43895"/>
	<polygon fill="#FFFFFF" points="330.75925,168.79146 309.42923,172.11946 307.12823,157.37447 366.98923,148.03648 
		369.28925,162.78047 347.96024,166.10847 356.62424,221.64449 339.42322,224.32747 	"/>
	<path fill="#FFFFFF" d="M166.16754,316.15134c0,0,9.097,6.03101,17.94299,4.651c3.53799-0.55099,7.158-2.52499,6.498-6.75299
		c-1.30299-8.354-32.908-3.12302-36.282-24.74802c-2.02301-12.974,7.55299-23.228,21.511-25.405
		c15.138-2.36099,23.84999,4.435,23.84999,4.435l-5.08301,15.19101c0,0-8.04099-5.08899-16.49599-3.76999
		c-3.53799,0.55197-7.224,2.73798-6.61101,6.66998c1.38,8.84702,32.785,2.336,36.25101,24.55002
		c1.82401,11.698-5.54102,23.21799-21.366,25.68698c-16.513,2.57501-27.21901-6.02499-27.21901-6.02499L166.16754,316.15134z"/>
	<path fill="#FFFFFF" d="M260.81512,308.73645l-21.91898,3.41901l-1.927,15.40298l-17.69202,2.76001l12.92102-74.00601
		l18.08698-2.82097l34.84702,66.55397l-17.69202,2.76001L260.81512,308.73645z M243.64215,270.94043
		c0,0-0.37701,7.91101-0.96402,12.53302l-1.89899,14.29099l13.85898-2.16199l-6.06299-13.04901
		c-1.96701-4.22299-4.73599-11.64398-4.73599-11.64398L243.64215,270.94043z"/>
	<polygon fill="#FFFFFF" points="284.71335,248.12013 301.91434,245.43715 310.57733,300.97314 339.28033,296.49512 
		341.58032,311.23914 295.67734,318.40012 	"/>
	<polygon fill="#FFFFFF" points="342.73584,239.06935 386.77081,232.20036 389.07184,246.94435 362.23682,251.13036 
		364.22983,263.90936 385.65982,260.56635 387.95984,275.30835 366.52982,278.65134 368.59982,291.92236 396.81183,287.52036 
		399.11182,302.26434 353.69882,309.34933 	"/>
	<polygon fill="#FFFFFF" points="173.00534,356.50192 177.12334,366.36093 178.04733,355.70795 180.50133,355.32092 
		184.65834,365.11093 185.71333,354.49994 187.90033,354.15594 186.17134,367.76294 183.89934,368.11993 179.66434,358.46594 
		178.68733,368.94095 176.41533,369.29895 170.61133,356.87894 	"/>
	<polygon fill="#FFFFFF" points="190.97414,353.67184 195.09113,363.53085 196.01511,352.87784 198.46912,352.49084 
		202.62613,362.28183 203.68213,351.67084 205.86911,351.32584 204.13913,364.93283 201.86813,365.29083 197.63211,355.63583 
		196.65613,366.11084 194.38312,366.46985 188.58012,354.04886 	"/>
	<polygon fill="#FFFFFF" points="208.94284,350.84174 213.06082,360.70074 213.98483,350.04776 216.43881,349.66074 
		220.59482,359.45175 221.65082,348.84076 223.83783,348.49576 222.10782,362.10275 219.83682,362.46075 215.60184,352.80576 
		214.62482,363.28076 212.35281,363.63974 206.54883,351.21875 	"/>
	
		<rect x="226.88388" y="358.45023" transform="matrix(-0.98788 0.15524 -0.15524 -0.98788 509.42572 679.79932)" fill="#FFFFFF" width="2.57013" height="2.68161"/>
	<path fill="#FFFFFF" d="M230.67825,342.40134l2.18698-0.345l1.048,6.65799c0.41501-0.73798,0.80801-1.27298,1.17899-1.60599
		c0.63202-0.57101,1.474-0.94101,2.52701-1.10699c1.88699-0.297,3.271,0.16199,4.15201,1.37601
		c0.47699,0.66299,0.81699,1.63397,1.01801,2.91498l1.315,8.34601l-2.24701,0.35501l-1.29199-8.20102
		c-0.151-0.957-0.38202-1.638-0.69601-2.04498c-0.508-0.651-1.31-0.89001-2.40399-0.71701
		c-0.90701,0.142-1.67999,0.58401-2.31799,1.32401c-0.63901,0.73898-0.82202,1.97699-0.54901,3.70999l1.08701,6.89999
		l-2.18701,0.345L230.67825,342.40134z"/>
	<path fill="#FFFFFF" d="M254.91931,344.93195c1.32501,0.935,2.15903,2.487,2.50101,4.655
		c0.33002,2.09702,0.09601,3.909-0.702,5.435c-0.798,1.52899-2.263,2.45901-4.39401,2.79501
		c-1.77798,0.28101-3.284-0.10202-4.51999-1.147c-1.23599-1.04602-2.01498-2.58801-2.336-4.62802
		c-0.34399-2.185-0.06699-4.01099,0.83002-5.47897c0.89798-1.46701,2.27597-2.349,4.13397-2.642
		C252.09732,343.65894,253.59332,343.99594,254.91931,344.93195 M254.92334,353.79193c0.35898-1.17999,0.435-2.439,0.22299-3.78299
		c-0.19202-1.21298-0.53799-2.16998-1.043-2.871c-0.797-1.10098-1.94101-1.534-3.431-1.29898
		c-1.32101,0.20798-2.202,0.86798-2.64301,1.98199c-0.439,1.11398-0.54599,2.39099-0.319,3.83099
		c0.21799,1.383,0.70001,2.48999,1.44501,3.31699c0.74698,0.82703,1.772,1.13702,3.078,0.93201
		C253.66632,355.67593,254.56332,354.97296,254.92334,353.79193"/>
	<path fill="#FFFFFF" d="M258.99075,339.23724l2.211-0.349l0.57098,3.633l2.078-0.327l0.28201,1.785l-2.07901,0.327l1.33798,8.49301
		c0.07202,0.45499,0.27301,0.733,0.60602,0.83798c0.18298,0.06302,0.47299,0.06201,0.871-0.00101
		c0.10498-0.01599,0.21899-0.03598,0.33899-0.06097c0.121-0.02402,0.26001-0.061,0.41901-0.10703l0.27301,1.73801
		c-0.23901,0.11301-0.492,0.20502-0.759,0.28101c-0.26501,0.07401-0.556,0.13699-0.87302,0.18701
		c-1.01999,0.16098-1.754,0.008-2.20099-0.457c-0.44601-0.46402-0.73502-1.11502-0.867-1.94901l-1.35599-8.61301l-1.76202,0.27701
		l-0.28098-1.785l1.76099-0.27701L258.99075,339.23724z"/>
	<path fill="#FFFFFF" d="M268.74365,350.57425c0.181,0.71899,0.45499,1.24799,0.82199,1.58899
		c0.673,0.616,1.70398,0.815,3.09299,0.59702c0.82602-0.13101,1.526-0.422,2.10001-0.87399
		c0.57199-0.45102,0.79999-1.04401,0.68399-1.78201c-0.08798-0.55801-0.40598-0.94501-0.95398-1.15701
		c-0.349-0.12799-1.01602-0.23398-1.99902-0.319l-1.83398-0.159c-1.17099-0.099-2.05099-0.27499-2.64001-0.53198
		c-1.047-0.44-1.65399-1.18301-1.81799-2.228c-0.194-1.23102,0.09799-2.29901,0.87701-3.20102
		c0.77798-0.90399,1.92798-1.474,3.44598-1.71298c1.987-0.314,3.509,0.03598,4.569,1.048
		c0.66501,0.642,1.05499,1.38599,1.172,2.23199l-2.06598,0.32498c-0.11902-0.48599-0.367-0.90399-0.746-1.258
		c-0.603-0.48999-1.54001-0.63699-2.80902-0.43698c-0.845,0.134-1.461,0.392-1.84698,0.776
		c-0.38501,0.383-0.53702,0.832-0.45599,1.349c0.08899,0.565,0.44498,0.97198,1.07098,1.22198
		c0.362,0.14902,0.87701,0.25,1.54501,0.302l1.52798,0.121c1.66101,0.129,2.79202,0.328,3.39301,0.599
		c0.93802,0.42499,1.50201,1.23499,1.69,2.435c0.18301,1.159-0.104,2.228-0.86099,3.211c-0.75702,0.983-2.04602,1.616-3.867,1.90302
		c-1.95901,0.30798-3.41602,0.08899-4.371-0.66202c-0.95401-0.75-1.56201-1.76898-1.82401-3.056L268.74365,350.57425z"/>
	<path fill="#FFFFFF" d="M286.26141,343.92844c0.491-0.14301,0.79401-0.40601,0.909-0.789
		c0.06601-0.20999,0.07001-0.49899,0.013-0.86398c-0.11801-0.74802-0.46799-1.24902-1.05099-1.50403
		c-0.58301-0.25198-1.367-0.30197-2.353-0.14697c-1.13901,0.17999-1.89902,0.616-2.27902,1.30899
		c-0.21298,0.38501-0.30698,0.91998-0.28098,1.60901l-2.04102,0.32199c-0.21201-1.61499,0.13101-2.81601,1.03101-3.603
		c0.89899-0.78601,2.009-1.284,3.327-1.492c1.52899-0.241,2.81799-0.14499,3.86401,0.28799c1.039,0.436,1.655,1.267,1.84799,2.49802
		l1.181,7.496c0.03601,0.22699,0.11099,0.40298,0.22501,0.526c0.116,0.12198,0.323,0.15997,0.62198,0.11298
		c0.09702-0.01599,0.20602-0.039,0.32602-0.069c0.11899-0.03299,0.246-0.07199,0.38-0.11798l0.254,1.617
		c-0.32501,0.151-0.57501,0.25299-0.74902,0.30399c-0.17398,0.052-0.41498,0.104-0.72299,0.15201
		c-0.75299,0.11899-1.34198-0.06201-1.76599-0.543c-0.224-0.25601-0.41199-0.63699-0.56601-1.14401
		c-0.354,0.65302-0.914,1.26001-1.67999,1.82001c-0.76801,0.561-1.65302,0.91998-2.65701,1.07901
		c-1.207,0.189-2.25-0.02103-3.13098-0.63202c-0.88101-0.61301-1.40802-1.46698-1.58099-2.56799
		c-0.19101-1.20499,0.039-2.19901,0.68698-2.98099c0.64999-0.78101,1.57401-1.34601,2.77301-1.69101L286.26141,343.92844z
		 M282.58643,350.56244c0.51999,0.29001,1.09399,0.38599,1.72699,0.28601c0.76898-0.121,1.48599-0.41602,2.151-0.88602
		c1.121-0.78101,1.577-1.84198,1.36499-3.185l-0.276-1.759c-0.23999,0.21301-0.56198,0.40802-0.96399,0.58902
		c-0.40201,0.17999-0.802,0.32498-1.198,0.43799l-1.29501,0.37799c-0.776,0.23001-1.345,0.49002-1.70898,0.77902
		c-0.616,0.487-0.86002,1.146-0.728,1.978C281.75842,349.81042,282.06741,350.27045,282.58643,350.56244"/>
	
		<rect x="293.00723" y="332.58383" transform="matrix(-0.9878 0.15575 -0.15575 -0.9878 637.8468 633.25873)" fill="#FFFFFF" width="2.21502" height="18.06784"/>
	<path fill="#FFFFFF" d="M305.93793,335.93295c0.92899,0.29797,1.67398,0.75598,2.233,1.37299
		c0.53799,0.58801,0.948,1.306,1.23099,2.159c0.22299,0.57901,0.43701,1.52499,0.64401,2.83701l-9.46301,1.48999
		c0.24802,1.31702,0.724,2.33099,1.42902,3.04102c0.70499,0.70798,1.66397,0.96698,2.87698,0.77499
		c1.133-0.17801,1.979-0.70001,2.53299-1.561c0.31-0.49799,0.49701-1.04999,0.56302-1.65298l2.14999-0.33902
		c0.01999,0.487-0.086,1.05002-0.31201,1.68701c-0.228,0.638-0.509,1.17499-0.845,1.60901
		c-0.55698,0.75198-1.30399,1.31699-2.23999,1.69699c-0.50299,0.21201-1.08301,0.37-1.742,0.474
		c-1.60999,0.25299-3.06699-0.12201-4.371-1.12399c-1.30499-1.00101-2.12399-2.56403-2.45798-4.686
		c-0.33002-2.09-0.03403-3.875,0.888-5.35699c0.92099-1.48203,2.29199-2.366,4.112-2.65201
		C304.08493,335.55893,305.0079,335.63593,305.93793,335.93295 M307.52493,340.91794
		c-0.23703-0.93301-0.56201-1.65799-0.97202-2.17499c-0.76001-0.95901-1.83499-1.32901-3.224-1.11002
		c-0.996,0.15701-1.77399,0.651-2.33499,1.48102c-0.56,0.83099-0.77301,1.80899-0.63702,2.93298L307.52493,340.91794z"/>
	
		<rect x="314.0293" y="344.72504" transform="matrix(-0.98782 0.15562 -0.15562 -0.98782 680.64288 638.8454)" fill="#FFFFFF" width="2.57029" height="2.68163"/>
	<path fill="#FFFFFF" d="M327.29935,332.91113c1.03098,0.56802,1.77698,1.70901,2.23798,3.42102l-2.12598,0.33499
		c-0.25601-0.78299-0.65601-1.40201-1.20203-1.85999c-0.54498-0.45801-1.328-0.60703-2.34799-0.44601
		c-1.39398,0.22-2.28198,1.05499-2.66699,2.509c-0.25,0.94299-0.27402,2.06201-0.07001,3.35599
		c0.20502,1.30301,0.65399,2.35602,1.345,3.16c0.69,0.80099,1.62701,1.11002,2.80899,0.92401
		c0.90802-0.14301,1.58301-0.53299,2.02701-1.16901c0.44299-0.63599,0.69-1.44998,0.742-2.44101l2.12601-0.33499
		c0.02798,1.763-0.38101,3.12-1.228,4.07101c-0.845,0.95099-2.02502,1.54498-3.54102,1.784
		c-1.70099,0.267-3.155-0.14001-4.36301-1.224c-1.20798-1.08401-1.95898-2.55701-2.25299-4.42102
		c-0.35901-2.28299-0.08499-4.14697,0.82501-5.59399c0.91-1.44598,2.22299-2.30499,3.94-2.57599
		C325.01932,332.17514,326.26834,332.34314,327.29935,332.91113"/>
	<path fill="#FFFFFF" d="M340.6673,331.42703c1.32602,0.935,2.16,2.487,2.50101,4.655c0.33002,2.09702,0.09702,3.909-0.70099,5.436
		c-0.79901,1.52802-2.263,2.45901-4.39401,2.79401c-1.77798,0.28101-3.285-0.10199-4.51999-1.147
		c-1.23599-1.04599-2.01599-2.58801-2.336-4.62799c-0.345-2.185-0.06702-4.01102,0.82999-5.479
		c0.89801-1.46701,2.27499-2.349,4.13501-2.64099C337.84631,330.15405,339.34131,330.49103,340.6673,331.42703 M340.67133,340.28802
		c0.35999-1.17999,0.435-2.43997,0.22299-3.78299c-0.19101-1.21399-0.53799-2.17099-1.04199-2.871
		c-0.798-1.10199-1.94202-1.534-3.431-1.29999c-1.32202,0.20801-2.20203,0.86798-2.64301,1.98199
		c-0.439,1.11401-0.54501,2.392-0.319,3.83099c0.21799,1.383,0.69901,2.49002,1.44498,3.31702
		c0.746,0.827,1.772,1.138,3.078,0.93198C339.41431,342.17105,340.31232,341.46805,340.67133,340.28802"/>
	<path fill="#FFFFFF" d="M344.87354,329.43353l2.16199-0.34097l0.29099,1.84799c0.418-0.72202,0.815-1.26199,1.19-1.62
		c0.64301-0.60699,1.42102-0.98401,2.33701-1.12802c1.03702-0.16299,1.91101-0.039,2.62399,0.37201
		c0.40201,0.23401,0.79202,0.61301,1.17401,1.13501c0.37701-0.77301,0.866-1.379,1.47-1.82001
		c0.603-0.43799,1.31299-0.72299,2.13101-0.85199c1.75-0.276,3.03998,0.16898,3.871,1.33298
		c0.44598,0.62601,0.76099,1.51501,0.94199,2.66501l1.36499,8.66299l-2.27298,0.35703l-1.423-9.039
		c-0.13602-0.86603-0.44702-1.427-0.931-1.68301c-0.48502-0.25601-1.03799-0.33398-1.66202-0.23599
		c-0.85898,0.13498-1.55298,0.53799-2.082,1.211c-0.52899,0.672-0.68799,1.681-0.47598,3.026l1.19199,7.569l-2.22299,0.35098
		l-1.33701-8.49298c-0.13998-0.88202-0.34601-1.51001-0.62-1.88202c-0.42899-0.55499-1.09601-0.76099-2.00299-0.61899
		c-0.82501,0.13101-1.52701,0.569-2.10202,1.31601c-0.57599,0.746-0.73199,1.95798-0.46799,3.634l1.08701,6.89999l-2.186,0.345
		L344.87354,329.43353z"/>
	
		<rect x="367.94736" y="336.23343" transform="matrix(-0.98788 0.15524 -0.15524 -0.98788 786.39355 613.73639)" fill="#FFFFFF" width="2.57013" height="2.68161"/>
	<path fill="#FFFFFF" d="M372.51315,325.08102l2.16199-0.34097l0.29099,1.84698c0.41702-0.72101,0.81403-1.26099,1.19-1.61899
		c0.64301-0.608,1.42102-0.98401,2.336-1.12802c1.03802-0.16299,1.91302-0.03998,2.625,0.371
		c0.40201,0.23502,0.79202,0.61401,1.17401,1.13602c0.37601-0.77402,0.866-1.38,1.46899-1.82101
		c0.604-0.43698,1.314-0.72198,2.13202-0.85098c1.74899-0.276,3.039,0.16898,3.87,1.33298
		c0.44699,0.62601,0.76199,1.51401,0.94199,2.66501l1.36502,8.66202l-2.272,0.358l-1.42401-9.039
		c-0.13599-0.86603-0.44699-1.427-0.92999-1.68301c-0.48502-0.25699-1.039-0.33398-1.66202-0.237
		c-0.85999,0.13599-1.55298,0.539-2.082,1.21201c-0.52899,0.672-0.68799,1.681-0.47598,3.026l1.19098,7.569l-2.22198,0.35001
		l-1.33801-8.49301c-0.13898-0.88199-0.34598-1.51001-0.62-1.88199c-0.42798-0.55402-1.095-0.76001-2.00198-0.61801
		c-0.82602,0.13-1.52802,0.56799-2.103,1.31601c-0.57501,0.746-0.73001,1.957-0.46701,3.634l1.08701,6.89999l-2.18701,0.345
		L372.51315,325.08102z"/>
	<polygon fill="#FFFFFF" points="392.00043,322.01175 394.83041,321.56674 398.54141,325.67474 400.8454,320.61874 
		403.51541,320.26074 400.11841,327.23276 405.74942,333.18076 402.95441,333.62076 398.95441,329.24475 396.58841,334.62375 
		393.81842,335.05975 397.34842,327.66876 	"/>
	<path fill="#EE202E" d="M457.07666,15.98484h1.57898l2.33899,6.87701l2.32098-6.87701h1.56799v8.13303h-1.05096v-4.79901
		c0-0.16699,0.00201-0.44101,0.01099-0.82596c0.00702-0.38403,0.01001-0.79602,0.01001-1.23401l-2.32202,6.85898h-1.09198
		l-2.34198-6.85898v0.24799c0,0.20099,0.00195,0.50299,0.01495,0.91199c0.01105,0.40799,0.01703,0.70801,0.01703,0.89999v4.79901
		h-1.05298V15.98484z"/>
	<path fill="#EE202E" d="M470.26215,19.71086c0.50201,0,0.89899-0.103,1.19202-0.30899
		c0.29199-0.20801,0.43896-0.58099,0.43896-1.11899c0-0.58002-0.20502-0.974-0.61499-1.18402
		c-0.21899-0.112-0.51202-0.16595-0.87701-0.16595h-2.61499v2.77795H470.26215z M466.68317,15.98484h3.69598
		c0.60999,0,1.11096,0.09003,1.50598,0.27106c0.75,0.34698,1.12598,0.987,1.12598,1.922c0,0.48596-0.09998,0.88596-0.302,1.19696
		c-0.20197,0.30899-0.48199,0.55801-0.84296,0.746c0.31598,0.129,0.55402,0.29901,0.71497,0.51001
		c0.16205,0.20898,0.25104,0.55099,0.27002,1.02298l0.03802,1.09201c0.01099,0.30899,0.03699,0.54099,0.07697,0.69101
		c0.06799,0.258,0.185,0.42398,0.35498,0.49899v0.18201h-1.35095c-0.03802-0.07001-0.06604-0.16101-0.08899-0.271
		c-0.02301-0.11002-0.04102-0.32501-0.05505-0.64203l-0.06696-1.35699c-0.02301-0.53101-0.216-0.888-0.57501-1.069
		c-0.20398-0.099-0.526-0.14798-0.96204-0.14798h-2.43597v3.487h-1.10297V15.98484z"/>
	<path fill="#EE202E" d="M465.19873,7.45768c-6.94305,0-12.59503,5.64899-12.59503,12.59497
		c0,6.94299,5.65198,12.59201,12.59503,12.59201c6.94299,0,12.59497-5.64902,12.59497-12.59201
		C477.7937,13.10667,472.14172,7.45768,465.19873,7.45768 M465.19873,34.34763c-7.88403,0-14.29602-6.41397-14.29602-14.29498
		c0-7.88397,6.41199-14.29797,14.29602-14.29797c7.88397,0,14.29596,6.414,14.29596,14.29797
		C479.49469,27.93366,473.0827,34.34763,465.19873,34.34763"/>
</g>
</svg>
