<?xml version="1.0" encoding="UTF-8"?>
<svg xmlns="http://www.w3.org/2000/svg" xmlns:xlink="http://www.w3.org/1999/xlink" width="121pt" height="37pt" viewBox="0 0 121 37" version="1.1">
<g id="surface1">
<path style=" stroke:none;fill-rule:nonzero;fill:rgb(50.980392%,0.784314%,49.411765%);fill-opacity:1;" d="M 29.050781 24.457031 C 28.210938 24.625 27.691406 25.085938 25.128906 25.859375 C 22.644531 26.492188 18.378906 26.316406 14.964844 24.828125 C 12.324219 23.730469 8.335938 22.023438 8.335938 22.023438 L 5.535156 20.773438 L 4.960938 22.609375 C 4.960938 22.609375 9.355469 24.273438 12.878906 26.609375 C 14.472656 27.667969 18.894531 30.445312 18.894531 30.445312 C 18.894531 30.445312 20.996094 31.976562 21.949219 31.972656 C 22.78125 31.957031 23.480469 31.074219 24.589844 30.011719 C 25.945312 28.800781 26.566406 28.121094 28.042969 26.90625 C 29.027344 26.03125 29.527344 25.570312 29.644531 25.359375 C 29.929688 24.847656 29.53125 24.359375 29.050781 24.457031 "/>
<path style=" stroke:none;fill-rule:nonzero;fill:rgb(50.980392%,0.784314%,49.411765%);fill-opacity:1;" d="M 17.496094 20.820312 C 15.101562 20.820312 11.289062 19.734375 11.289062 12.734375 C 11.285156 8.269531 13.03125 4.75 17.492188 4.644531 C 22.464844 4.746094 23.699219 8.113281 23.703125 12.730469 C 23.808594 17.289062 22.214844 20.921875 17.496094 20.820312 M 29.417969 12.753906 C 29.421875 8.269531 26.378906 2.828125 17.511719 2.726562 C 9.683594 2.9375 5.613281 7.222656 5.617188 12.761719 C 5.828125 20.667969 12.929688 22.792969 17.523438 22.789062 C 25.046875 22.785156 29.621094 18.414062 29.417969 12.753906 "/>
<path style=" stroke:none;fill-rule:nonzero;fill:rgb(50.980392%,0.784314%,49.411765%);fill-opacity:1;" d="M 0 35.828125 L 1.144531 35.828125 L 1.144531 36.972656 L 0 36.972656 Z M 0 35.828125 "/>
<path style=" stroke:none;fill-rule:nonzero;fill:rgb(50.980392%,0.784314%,49.411765%);fill-opacity:1;" d="M 2.796875 35.828125 L 3.9375 35.828125 L 3.9375 36.972656 L 2.796875 36.972656 Z M 2.796875 35.828125 "/>
<path style=" stroke:none;fill-rule:nonzero;fill:rgb(50.980392%,0.784314%,49.411765%);fill-opacity:1;" d="M 5.59375 35.828125 L 6.738281 35.828125 L 6.738281 36.972656 L 5.59375 36.972656 Z M 5.59375 35.828125 "/>
<path style=" stroke:none;fill-rule:nonzero;fill:rgb(50.980392%,0.784314%,49.411765%);fill-opacity:1;" d="M 8.390625 35.828125 L 9.53125 35.828125 L 9.53125 36.972656 L 8.390625 36.972656 Z M 8.390625 35.828125 "/>
<path style=" stroke:none;fill-rule:nonzero;fill:rgb(50.980392%,0.784314%,49.411765%);fill-opacity:1;" d="M 11.183594 35.828125 L 12.328125 35.828125 L 12.328125 36.972656 L 11.183594 36.972656 Z M 11.183594 35.828125 "/>
<path style=" stroke:none;fill-rule:nonzero;fill:rgb(50.980392%,0.784314%,49.411765%);fill-opacity:1;" d="M 13.980469 35.828125 L 15.125 35.828125 L 15.125 36.972656 L 13.980469 36.972656 Z M 13.980469 35.828125 "/>
<path style=" stroke:none;fill-rule:nonzero;fill:rgb(50.980392%,0.784314%,49.411765%);fill-opacity:1;" d="M 16.777344 35.828125 L 17.921875 35.828125 L 17.921875 36.972656 L 16.777344 36.972656 Z M 16.777344 35.828125 "/>
<path style=" stroke:none;fill-rule:nonzero;fill:rgb(50.980392%,0.784314%,49.411765%);fill-opacity:1;" d="M 19.574219 35.828125 L 20.71875 35.828125 L 20.71875 36.972656 L 19.574219 36.972656 Z M 19.574219 35.828125 "/>
<path style=" stroke:none;fill-rule:nonzero;fill:rgb(50.980392%,0.784314%,49.411765%);fill-opacity:1;" d="M 22.371094 35.828125 L 23.511719 35.828125 L 23.511719 36.972656 L 22.371094 36.972656 Z M 22.371094 35.828125 "/>
<path style=" stroke:none;fill-rule:nonzero;fill:rgb(50.980392%,0.784314%,49.411765%);fill-opacity:1;" d="M 25.167969 35.828125 L 26.308594 35.828125 L 26.308594 36.972656 L 25.167969 36.972656 Z M 25.167969 35.828125 "/>
<path style=" stroke:none;fill-rule:nonzero;fill:rgb(50.980392%,0.784314%,49.411765%);fill-opacity:1;" d="M 27.960938 35.828125 L 29.109375 35.828125 L 29.109375 36.972656 L 27.960938 36.972656 Z M 27.960938 35.828125 "/>
<path style=" stroke:none;fill-rule:nonzero;fill:rgb(50.980392%,0.784314%,49.411765%);fill-opacity:1;" d="M 30.757812 35.828125 L 31.902344 35.828125 L 31.902344 36.972656 L 30.757812 36.972656 Z M 30.757812 35.828125 "/>
<path style=" stroke:none;fill-rule:nonzero;fill:rgb(50.980392%,0.784314%,49.411765%);fill-opacity:1;" d="M 33.554688 35.832031 L 34.699219 35.832031 L 34.699219 36.976562 L 33.554688 36.976562 Z M 33.554688 35.832031 "/>
<path style=" stroke:none;fill-rule:nonzero;fill:rgb(50.980392%,0.784314%,49.411765%);fill-opacity:1;" d="M 0 34.738281 L 34.703125 34.738281 L 34.703125 0 L 0 0 Z M 33.5625 33.59375 L 1.140625 33.59375 L 1.140625 1.140625 L 33.5625 1.140625 Z M 33.5625 33.59375 "/>
<path style=" stroke:none;fill-rule:nonzero;fill:rgb(0%,56.862745%,57.647059%);fill-opacity:1;" d="M 119.941406 34.921875 C 119.8125 34.921875 119.6875 34.957031 119.566406 35.023438 C 119.445312 35.085938 119.34375 35.183594 119.28125 35.304688 C 119.214844 35.421875 119.175781 35.554688 119.175781 35.6875 C 119.175781 35.820312 119.210938 35.945312 119.277344 36.066406 C 119.34375 36.1875 119.441406 36.285156 119.5625 36.351562 C 119.683594 36.417969 119.808594 36.449219 119.941406 36.449219 C 120.070312 36.449219 120.199219 36.417969 120.320312 36.351562 C 120.441406 36.285156 120.539062 36.1875 120.605469 36.066406 C 120.671875 35.945312 120.707031 35.820312 120.707031 35.6875 C 120.703125 35.550781 120.667969 35.421875 120.601562 35.304688 C 120.535156 35.183594 120.4375 35.085938 120.316406 35.019531 C 120.191406 34.957031 120.070312 34.921875 119.941406 34.921875 M 119.941406 34.769531 C 120.09375 34.769531 120.246094 34.808594 120.394531 34.886719 C 120.535156 34.964844 120.65625 35.082031 120.734375 35.226562 C 120.816406 35.371094 120.859375 35.527344 120.859375 35.6875 C 120.859375 35.847656 120.820312 35.996094 120.742188 36.140625 C 120.660156 36.285156 120.542969 36.402344 120.398438 36.484375 C 120.253906 36.5625 120.101562 36.605469 119.941406 36.605469 C 119.78125 36.605469 119.625 36.5625 119.484375 36.484375 C 119.339844 36.40625 119.222656 36.289062 119.144531 36.144531 C 119.066406 36.003906 119.023438 35.847656 119.023438 35.6875 C 119.019531 35.527344 119.0625 35.375 119.144531 35.226562 C 119.226562 35.082031 119.34375 34.96875 119.488281 34.886719 C 119.636719 34.808594 119.785156 34.769531 119.941406 34.769531 "/>
<path style=" stroke:none;fill-rule:nonzero;fill:rgb(0%,56.862745%,57.647059%);fill-opacity:1;" d="M 119.691406 35.640625 L 119.890625 35.640625 C 119.980469 35.640625 120.046875 35.625 120.078125 35.597656 C 120.113281 35.570312 120.128906 35.53125 120.128906 35.488281 C 120.128906 35.457031 120.125 35.433594 120.109375 35.410156 C 120.089844 35.386719 120.066406 35.371094 120.035156 35.359375 C 120.007812 35.347656 119.953125 35.339844 119.875 35.339844 L 119.691406 35.339844 Z M 119.539062 36.191406 L 119.535156 35.210938 L 119.875 35.210938 C 119.988281 35.210938 120.074219 35.21875 120.125 35.238281 C 120.175781 35.253906 120.21875 35.285156 120.25 35.332031 C 120.28125 35.378906 120.296875 35.425781 120.296875 35.476562 C 120.296875 35.546875 120.269531 35.609375 120.21875 35.664062 C 120.167969 35.71875 120.097656 35.746094 120.011719 35.753906 C 120.050781 35.769531 120.078125 35.785156 120.097656 35.808594 C 120.136719 35.84375 120.1875 35.910156 120.242188 36 L 120.363281 36.195312 L 120.167969 36.191406 L 120.082031 36.039062 C 120.011719 35.917969 119.957031 35.839844 119.914062 35.808594 C 119.886719 35.785156 119.84375 35.777344 119.789062 35.777344 L 119.691406 35.777344 L 119.691406 36.191406 Z M 119.539062 36.191406 "/>
<path style=" stroke:none;fill-rule:nonzero;fill:rgb(0%,56.862745%,57.647059%);fill-opacity:1;" d="M 42.308594 33.785156 L 42.308594 34.472656 C 41.851562 34.726562 41.320312 34.851562 40.71875 34.851562 C 40.230469 34.851562 39.816406 34.753906 39.476562 34.554688 C 39.136719 34.359375 38.867188 34.089844 38.667969 33.746094 C 38.472656 33.398438 38.371094 33.027344 38.371094 32.625 C 38.371094 31.988281 38.597656 31.453125 39.054688 31.019531 C 39.507812 30.585938 40.066406 30.367188 40.730469 30.367188 C 41.191406 30.367188 41.703125 30.488281 42.261719 30.726562 L 42.261719 31.402344 C 41.75 31.109375 41.25 30.960938 40.765625 30.960938 C 40.261719 30.960938 39.847656 31.121094 39.515625 31.4375 C 39.1875 31.753906 39.019531 32.148438 39.019531 32.625 C 39.019531 33.105469 39.183594 33.5 39.507812 33.8125 C 39.835938 34.121094 40.25 34.273438 40.757812 34.273438 C 41.289062 34.273438 41.804688 34.113281 42.308594 33.785156 Z M 45.757812 30.363281 C 46.433594 30.363281 46.996094 30.574219 47.445312 31.003906 C 47.894531 31.429688 48.117188 31.96875 48.117188 32.613281 C 48.117188 33.257812 47.890625 33.792969 47.4375 34.214844 C 46.984375 34.640625 46.414062 34.851562 45.722656 34.851562 C 45.0625 34.851562 44.515625 34.640625 44.074219 34.214844 C 43.636719 33.792969 43.417969 33.261719 43.417969 32.625 C 43.417969 31.972656 43.640625 31.429688 44.082031 31.003906 C 44.523438 30.574219 45.082031 30.363281 45.757812 30.363281 Z M 45.78125 30.957031 C 45.28125 30.957031 44.871094 31.113281 44.546875 31.425781 C 44.226562 31.738281 44.066406 32.140625 44.066406 32.625 C 44.066406 33.097656 44.226562 33.492188 44.550781 33.804688 C 44.875 34.117188 45.277344 34.273438 45.765625 34.273438 C 46.25 34.273438 46.660156 34.113281 46.984375 33.796875 C 47.3125 33.476562 47.472656 33.078125 47.472656 32.601562 C 47.472656 32.136719 47.3125 31.746094 46.984375 31.429688 C 46.660156 31.113281 46.257812 30.957031 45.78125 30.957031 Z M 52.898438 30.425781 L 53.484375 30.425781 L 53.484375 34.800781 L 52.855469 34.800781 L 52.855469 31.394531 L 51.511719 33.085938 L 51.394531 33.085938 L 50.035156 31.394531 L 50.035156 34.800781 L 49.410156 34.800781 L 49.410156 30.425781 L 50 30.425781 L 51.453125 32.222656 Z M 54.921875 34.800781 L 54.921875 30.417969 L 56.308594 30.417969 C 56.726562 30.417969 57.058594 30.53125 57.308594 30.757812 C 57.554688 30.980469 57.679688 31.285156 57.679688 31.664062 C 57.679688 31.917969 57.617188 32.144531 57.488281 32.339844 C 57.363281 32.539062 57.1875 32.679688 56.96875 32.769531 C 56.746094 32.859375 56.429688 32.902344 56.015625 32.902344 L 55.550781 32.902344 L 55.550781 34.800781 Z M 56.199219 30.976562 L 55.550781 30.976562 L 55.550781 32.34375 L 56.238281 32.34375 C 56.492188 32.34375 56.6875 32.285156 56.828125 32.164062 C 56.964844 32.042969 57.03125 31.871094 57.03125 31.648438 C 57.03125 31.199219 56.753906 30.976562 56.199219 30.976562 Z M 59.640625 30.398438 L 60.078125 30.398438 L 62.039062 34.800781 L 61.398438 34.800781 L 60.816406 33.503906 L 58.953125 33.503906 L 58.40625 34.800781 L 57.761719 34.800781 Z M 60.558594 32.945312 L 59.855469 31.359375 L 59.199219 32.945312 Z M 66.527344 30.425781 L 67.121094 30.425781 L 67.121094 34.800781 L 66.582031 34.800781 L 63.660156 31.429688 L 63.660156 34.800781 L 63.070312 34.800781 L 63.070312 30.425781 L 63.578125 30.425781 L 66.527344 33.824219 Z M 66.089844 29.234375 C 66.089844 29.484375 66.03125 29.683594 65.914062 29.824219 C 65.828125 29.9375 65.71875 29.992188 65.585938 29.992188 C 65.472656 29.992188 65.316406 29.949219 65.125 29.867188 C 64.929688 29.78125 64.785156 29.742188 64.683594 29.742188 C 64.632812 29.742188 64.585938 29.761719 64.542969 29.804688 C 64.503906 29.84375 64.480469 29.90625 64.472656 29.992188 L 64.210938 29.992188 C 64.242188 29.695312 64.304688 29.5 64.390625 29.402344 C 64.480469 29.300781 64.589844 29.253906 64.722656 29.253906 C 64.84375 29.253906 65.042969 29.308594 65.316406 29.417969 C 65.453125 29.472656 65.554688 29.503906 65.613281 29.503906 C 65.671875 29.503906 65.722656 29.484375 65.765625 29.441406 C 65.804688 29.402344 65.832031 29.332031 65.847656 29.234375 Z M 68.59375 30.425781 L 69.21875 30.425781 L 69.21875 34.800781 L 68.59375 34.800781 Z M 69.785156 29.160156 L 69.078125 30.101562 L 68.726562 30.101562 L 69.148438 29.160156 Z M 72.117188 30.398438 L 72.558594 30.398438 L 74.519531 34.800781 L 73.878906 34.800781 L 73.296875 33.503906 L 71.429688 33.503906 L 70.882812 34.800781 L 70.242188 34.800781 Z M 73.039062 32.945312 L 72.332031 31.359375 L 71.679688 32.945312 Z M 77.851562 34.792969 L 77.851562 30.425781 L 79.324219 30.425781 C 79.917969 30.425781 80.390625 30.511719 80.734375 30.691406 C 81.082031 30.871094 81.355469 31.132812 81.5625 31.480469 C 81.765625 31.828125 81.867188 32.203125 81.867188 32.613281 C 81.867188 32.90625 81.8125 33.1875 81.699219 33.453125 C 81.589844 33.71875 81.425781 33.957031 81.21875 34.15625 C 81.007812 34.367188 80.753906 34.527344 80.476562 34.632812 C 80.3125 34.695312 80.160156 34.738281 80.023438 34.761719 C 79.882812 34.785156 79.621094 34.792969 79.234375 34.792969 Z M 79.257812 30.980469 L 78.476562 30.980469 L 78.476562 34.238281 L 79.277344 34.238281 C 79.589844 34.238281 79.832031 34.214844 80.007812 34.171875 C 80.179688 34.128906 80.324219 34.074219 80.441406 34.007812 C 80.554688 33.941406 80.664062 33.863281 80.757812 33.765625 C 81.066406 33.453125 81.21875 33.058594 81.21875 32.578125 C 81.21875 32.109375 81.0625 31.726562 80.746094 31.429688 C 80.625 31.316406 80.492188 31.226562 80.34375 31.15625 C 80.191406 31.085938 80.046875 31.039062 79.914062 31.015625 C 79.777344 30.992188 79.558594 30.980469 79.257812 30.980469 Z M 83.183594 30.425781 L 85.660156 30.425781 L 85.660156 30.980469 L 83.808594 30.980469 L 83.808594 32.316406 L 85.597656 32.316406 L 85.597656 32.878906 L 83.808594 32.878906 L 83.808594 34.238281 L 85.722656 34.238281 L 85.722656 34.792969 L 83.183594 34.792969 Z M 90.316406 32.964844 L 89.839844 32.675781 C 89.542969 32.496094 89.328125 32.316406 89.203125 32.140625 C 89.078125 31.960938 89.015625 31.757812 89.015625 31.53125 C 89.015625 31.183594 89.132812 30.90625 89.371094 30.691406 C 89.609375 30.476562 89.921875 30.367188 90.304688 30.367188 C 90.667969 30.367188 91.003906 30.46875 91.308594 30.675781 L 91.308594 31.386719 C 90.992188 31.082031 90.652344 30.929688 90.289062 30.929688 C 90.085938 30.929688 89.917969 30.980469 89.785156 31.074219 C 89.65625 31.167969 89.589844 31.289062 89.589844 31.4375 C 89.589844 31.566406 89.636719 31.691406 89.734375 31.804688 C 89.832031 31.917969 89.988281 32.039062 90.203125 32.164062 L 90.679688 32.449219 C 91.214844 32.765625 91.480469 33.171875 91.480469 33.667969 C 91.480469 34.015625 91.363281 34.300781 91.128906 34.523438 C 90.894531 34.742188 90.589844 34.851562 90.210938 34.851562 C 89.78125 34.851562 89.386719 34.71875 89.03125 34.453125 L 89.03125 33.65625 C 89.371094 34.085938 89.761719 34.300781 90.207031 34.300781 C 90.402344 34.300781 90.566406 34.246094 90.695312 34.136719 C 90.828125 34.027344 90.890625 33.890625 90.890625 33.726562 C 90.890625 33.457031 90.699219 33.207031 90.316406 32.96875 Z M 92.699219 30.425781 L 95.179688 30.425781 L 95.179688 30.980469 L 93.328125 30.980469 L 93.328125 32.316406 L 95.117188 32.316406 L 95.117188 32.878906 L 93.328125 32.878906 L 93.328125 34.238281 L 95.238281 34.238281 L 95.238281 34.792969 L 92.699219 34.792969 Z M 98.800781 32.644531 L 100.269531 32.644531 L 100.269531 34.5 C 99.730469 34.734375 99.195312 34.851562 98.667969 34.851562 C 97.941406 34.851562 97.363281 34.640625 96.929688 34.214844 C 96.496094 33.792969 96.28125 33.273438 96.28125 32.652344 C 96.28125 31.996094 96.503906 31.453125 96.953125 31.019531 C 97.402344 30.585938 97.964844 30.367188 98.640625 30.367188 C 98.886719 30.367188 99.121094 30.394531 99.34375 30.449219 C 99.5625 30.5 99.84375 30.597656 100.179688 30.742188 L 100.179688 31.378906 C 99.660156 31.078125 99.140625 30.925781 98.628906 30.925781 C 98.152344 30.925781 97.75 31.085938 97.421875 31.414062 C 97.09375 31.738281 96.929688 32.140625 96.929688 32.613281 C 96.929688 33.109375 97.09375 33.515625 97.421875 33.832031 C 97.75 34.148438 98.167969 34.304688 98.683594 34.304688 C 98.9375 34.304688 99.234375 34.246094 99.582031 34.132812 L 99.644531 34.113281 L 99.644531 33.203125 L 98.800781 33.203125 Z M 104.757812 30.425781 L 105.386719 30.425781 L 105.386719 32.910156 C 105.386719 33.246094 105.363281 33.5 105.3125 33.667969 C 105.265625 33.839844 105.203125 33.984375 105.132812 34.097656 C 105.058594 34.210938 104.96875 34.316406 104.867188 34.402344 C 104.519531 34.703125 104.066406 34.851562 103.507812 34.851562 C 102.9375 34.851562 102.480469 34.703125 102.136719 34.40625 C 102.035156 34.316406 101.945312 34.210938 101.871094 34.097656 C 101.800781 33.984375 101.742188 33.84375 101.695312 33.679688 C 101.648438 33.515625 101.625 33.253906 101.625 32.902344 L 101.625 30.425781 L 102.253906 30.425781 L 102.253906 32.910156 C 102.253906 33.320312 102.300781 33.605469 102.394531 33.765625 C 102.488281 33.925781 102.632812 34.054688 102.824219 34.152344 C 103.015625 34.25 103.242188 34.300781 103.503906 34.300781 C 103.875 34.300781 104.175781 34.203125 104.410156 34.007812 C 104.53125 33.902344 104.621094 33.78125 104.675781 33.636719 C 104.730469 33.496094 104.757812 33.253906 104.757812 32.910156 Z M 106.804688 34.800781 L 106.804688 30.425781 L 107.898438 30.425781 C 108.34375 30.425781 108.691406 30.535156 108.953125 30.753906 C 109.210938 30.972656 109.34375 31.269531 109.34375 31.644531 C 109.34375 31.898438 109.277344 32.117188 109.152344 32.304688 C 109.023438 32.488281 108.839844 32.628906 108.605469 32.71875 C 108.742188 32.8125 108.878906 32.9375 109.015625 33.097656 C 109.148438 33.253906 109.335938 33.53125 109.578125 33.925781 C 109.730469 34.175781 109.851562 34.363281 109.945312 34.488281 L 110.175781 34.800781 L 109.429688 34.800781 L 109.238281 34.511719 C 109.226562 34.492188 109.214844 34.476562 109.203125 34.460938 L 109.082031 34.285156 L 108.886719 33.964844 L 108.675781 33.625 C 108.546875 33.445312 108.429688 33.300781 108.320312 33.195312 C 108.214844 33.089844 108.117188 33.011719 108.03125 32.964844 C 107.945312 32.917969 107.796875 32.894531 107.59375 32.894531 L 107.429688 32.894531 L 107.429688 34.800781 Z M 107.617188 30.957031 L 107.429688 30.957031 L 107.429688 32.339844 L 107.667969 32.339844 C 107.984375 32.339844 108.203125 32.3125 108.320312 32.257812 C 108.433594 32.203125 108.53125 32.117188 108.597656 32.011719 C 108.660156 31.902344 108.695312 31.777344 108.695312 31.636719 C 108.695312 31.5 108.65625 31.375 108.585938 31.261719 C 108.511719 31.148438 108.410156 31.070312 108.277344 31.023438 C 108.144531 30.980469 107.925781 30.957031 107.617188 30.957031 Z M 112.949219 30.363281 C 113.625 30.363281 114.1875 30.574219 114.636719 31.003906 C 115.085938 31.429688 115.3125 31.96875 115.3125 32.613281 C 115.3125 33.257812 115.085938 33.792969 114.632812 34.214844 C 114.175781 34.640625 113.605469 34.851562 112.914062 34.851562 C 112.257812 34.851562 111.707031 34.640625 111.269531 34.214844 C 110.828125 33.792969 110.609375 33.261719 110.609375 32.625 C 110.609375 31.972656 110.832031 31.429688 111.273438 31.003906 C 111.714844 30.574219 112.273438 30.363281 112.949219 30.363281 Z M 112.976562 30.957031 C 112.472656 30.957031 112.0625 31.113281 111.742188 31.425781 C 111.417969 31.738281 111.257812 32.140625 111.257812 32.625 C 111.257812 33.097656 111.417969 33.492188 111.742188 33.804688 C 112.066406 34.117188 112.46875 34.273438 112.957031 34.273438 C 113.445312 34.273438 113.851562 34.113281 114.175781 33.796875 C 114.503906 33.476562 114.667969 33.078125 114.667969 32.601562 C 114.667969 32.136719 114.503906 31.746094 114.175781 31.429688 C 113.851562 31.113281 113.449219 30.957031 112.976562 30.957031 Z M 117.695312 32.964844 L 117.21875 32.675781 C 116.921875 32.496094 116.710938 32.316406 116.582031 32.140625 C 116.457031 31.960938 116.394531 31.757812 116.394531 31.53125 C 116.394531 31.183594 116.511719 30.90625 116.753906 30.691406 C 116.992188 30.476562 117.300781 30.367188 117.683594 30.367188 C 118.046875 30.367188 118.382812 30.46875 118.6875 30.675781 L 118.6875 31.386719 C 118.375 31.082031 118.035156 30.929688 117.671875 30.929688 C 117.464844 30.929688 117.296875 30.980469 117.167969 31.074219 C 117.035156 31.167969 116.96875 31.289062 116.96875 31.4375 C 116.96875 31.566406 117.019531 31.691406 117.117188 31.804688 C 117.210938 31.917969 117.367188 32.039062 117.582031 32.164062 L 118.0625 32.449219 C 118.59375 32.765625 118.859375 33.171875 118.859375 33.667969 C 118.859375 34.015625 118.742188 34.300781 118.507812 34.523438 C 118.273438 34.742188 117.96875 34.851562 117.59375 34.851562 C 117.160156 34.851562 116.769531 34.71875 116.414062 34.453125 L 116.414062 33.65625 C 116.75 34.085938 117.140625 34.300781 117.585938 34.300781 C 117.78125 34.300781 117.945312 34.246094 118.078125 34.136719 C 118.207031 34.027344 118.273438 33.890625 118.273438 33.726562 C 118.273438 33.457031 118.082031 33.207031 117.695312 32.96875 Z M 117.695312 32.964844 "/>
<path style=" stroke:none;fill-rule:nonzero;fill:rgb(0%,56.862745%,57.647059%);fill-opacity:1;" d="M 56.488281 24.484375 L 53.96875 26.929688 C 53.183594 26.886719 52.363281 26.746094 51.507812 26.507812 C 50.652344 26.269531 49.785156 25.941406 48.902344 25.523438 C 48.023438 25.105469 46.847656 24.390625 45.378906 23.378906 C 43.246094 22.992188 41.492188 21.980469 40.109375 20.34375 C 38.726562 18.703125 38.035156 16.8125 38.035156 14.671875 C 38.035156 12.054688 38.925781 9.886719 40.703125 8.171875 C 42.484375 6.457031 44.734375 5.601562 47.457031 5.601562 C 50.160156 5.601562 52.410156 6.453125 54.203125 8.152344 C 55.992188 9.855469 56.886719 11.996094 56.886719 14.570312 C 56.886719 16.738281 56.210938 18.640625 54.859375 20.28125 C 53.507812 21.917969 51.757812 22.953125 49.609375 23.378906 L 50.273438 23.628906 C 52.335938 24.425781 53.824219 24.820312 54.734375 24.820312 C 55.234375 24.820312 55.820312 24.707031 56.488281 24.484375 Z M 47.457031 7.984375 C 45.484375 7.984375 43.859375 8.621094 42.570312 9.890625 C 41.285156 11.164062 40.644531 12.765625 40.644531 14.695312 C 40.644531 16.578125 41.289062 18.144531 42.585938 19.394531 C 43.878906 20.644531 45.503906 21.269531 47.457031 21.269531 C 49.382812 21.269531 51.007812 20.632812 52.328125 19.351562 C 53.648438 18.070312 54.304688 16.496094 54.304688 14.621094 C 54.304688 12.707031 53.660156 11.121094 52.367188 9.867188 C 51.070312 8.609375 49.433594 7.984375 47.457031 7.984375 Z M 66.277344 23.378906 L 66.277344 21.898438 C 65.792969 22.429688 65.242188 22.84375 64.617188 23.136719 C 63.996094 23.433594 63.375 23.578125 62.757812 23.578125 C 62.03125 23.578125 61.359375 23.398438 60.746094 23.035156 C 60.132812 22.667969 59.667969 22.175781 59.355469 21.554688 C 59.039062 20.929688 58.882812 19.894531 58.882812 18.449219 L 58.882812 11.835938 L 61.164062 11.835938 L 61.164062 18.414062 C 61.164062 19.625 61.339844 20.472656 61.683594 20.953125 C 62.03125 21.433594 62.640625 21.671875 63.507812 21.671875 C 64.59375 21.671875 65.519531 21.140625 66.277344 20.078125 L 66.277344 11.835938 L 68.5625 11.835938 L 68.5625 23.378906 Z M 79.289062 16.441406 L 79.289062 21.347656 C 79.289062 21.738281 79.421875 21.9375 79.691406 21.9375 C 79.964844 21.9375 80.394531 21.730469 80.980469 21.320312 L 80.980469 22.714844 C 80.460938 23.046875 80.046875 23.277344 79.734375 23.398438 C 79.417969 23.519531 79.085938 23.582031 78.75 23.578125 C 77.773438 23.578125 77.195312 23.195312 77.019531 22.425781 C 76.050781 23.179688 75.019531 23.554688 73.921875 23.554688 C 73.121094 23.554688 72.453125 23.289062 71.917969 22.757812 C 71.382812 22.226562 71.117188 21.558594 71.117188 20.757812 C 71.117188 20.027344 71.375 19.378906 71.898438 18.804688 C 72.421875 18.234375 73.164062 17.777344 74.125 17.445312 L 77.042969 16.441406 L 77.042969 15.824219 C 77.042969 14.4375 76.351562 13.742188 74.964844 13.742188 C 73.71875 13.742188 72.507812 14.386719 71.328125 15.675781 L 71.328125 13.179688 C 72.214844 12.132812 73.488281 11.609375 75.152344 11.609375 C 76.398438 11.609375 77.394531 11.9375 78.148438 12.589844 C 78.398438 12.796875 78.625 13.078125 78.824219 13.421875 C 79.023438 13.769531 79.152344 14.117188 79.207031 14.464844 C 79.261719 14.8125 79.289062 15.46875 79.289062 16.441406 Z M 77.042969 21.09375 L 77.042969 17.671875 L 75.515625 18.261719 C 74.738281 18.570312 74.1875 18.878906 73.867188 19.195312 C 73.546875 19.507812 73.382812 19.898438 73.382812 20.367188 C 73.382812 20.84375 73.535156 21.234375 73.84375 21.535156 C 74.148438 21.835938 74.542969 21.984375 75.027344 21.984375 C 75.753906 21.984375 76.425781 21.6875 77.042969 21.09375 Z M 78.710938 5.574219 L 75.878906 9.339844 L 74.476562 9.339844 L 76.167969 5.574219 Z M 82.632812 5.851562 L 84.914062 5.851562 L 84.914062 23.378906 L 82.632812 23.378906 Z M 89.652344 6.980469 C 90.027344 6.980469 90.347656 7.109375 90.617188 7.371094 C 90.882812 7.628906 91.015625 7.945312 91.015625 8.324219 C 91.015625 8.691406 90.882812 9.007812 90.617188 9.277344 C 90.347656 9.542969 90.027344 9.679688 89.652344 9.679688 C 89.300781 9.679688 88.992188 9.542969 88.722656 9.269531 C 88.457031 9 88.324219 8.683594 88.324219 8.324219 C 88.324219 7.972656 88.457031 7.660156 88.722656 7.386719 C 88.992188 7.117188 89.300781 6.980469 89.652344 6.980469 Z M 88.523438 11.835938 L 90.804688 11.835938 L 90.804688 23.378906 L 88.523438 23.378906 Z M 92.496094 13.667969 L 96.78125 9.453125 L 96.78125 11.835938 L 100.429688 11.835938 L 100.429688 13.894531 L 96.78125 13.894531 L 96.78125 19.542969 C 96.78125 20.863281 97.328125 21.523438 98.425781 21.523438 C 99.242188 21.523438 100.109375 21.25 101.019531 20.707031 L 101.019531 22.839844 C 100.140625 23.332031 99.183594 23.578125 98.148438 23.578125 C 97.105469 23.578125 96.234375 23.273438 95.542969 22.664062 C 95.328125 22.488281 95.148438 22.277344 95.003906 22.042969 C 94.859375 21.8125 94.742188 21.511719 94.644531 21.140625 C 94.546875 20.765625 94.5 20.058594 94.5 19.011719 L 94.5 13.894531 L 92.496094 13.894531 Z M 110.34375 16.441406 L 110.34375 21.347656 C 110.34375 21.738281 110.480469 21.9375 110.746094 21.9375 C 111.023438 21.9375 111.453125 21.730469 112.039062 21.320312 L 112.039062 22.714844 C 111.519531 23.046875 111.105469 23.277344 110.789062 23.398438 C 110.476562 23.519531 110.144531 23.582031 109.804688 23.578125 C 108.828125 23.578125 108.253906 23.195312 108.078125 22.425781 C 107.105469 23.179688 106.074219 23.554688 104.980469 23.554688 C 104.179688 23.554688 103.507812 23.289062 102.976562 22.757812 C 102.441406 22.226562 102.171875 21.558594 102.171875 20.757812 C 102.171875 20.027344 102.433594 19.378906 102.957031 18.804688 C 103.476562 18.234375 104.21875 17.777344 105.179688 17.445312 L 108.101562 16.441406 L 108.101562 15.824219 C 108.101562 14.4375 107.40625 13.742188 106.019531 13.742188 C 104.777344 13.742188 103.5625 14.386719 102.386719 15.675781 L 102.386719 13.179688 C 103.269531 12.132812 104.546875 11.609375 106.207031 11.609375 C 107.453125 11.609375 108.453125 11.9375 109.203125 12.589844 C 109.457031 12.796875 109.679688 13.078125 109.882812 13.421875 C 110.082031 13.769531 110.210938 14.117188 110.265625 14.464844 C 110.316406 14.8125 110.34375 15.46875 110.34375 16.441406 Z M 108.101562 21.09375 L 108.101562 17.671875 L 106.574219 18.261719 C 105.796875 18.570312 105.246094 18.878906 104.925781 19.195312 C 104.601562 19.507812 104.441406 19.898438 104.441406 20.367188 C 104.441406 20.84375 104.59375 21.234375 104.898438 21.535156 C 105.203125 21.835938 105.597656 21.984375 106.082031 21.984375 C 106.808594 21.984375 107.484375 21.6875 108.101562 21.09375 Z M 113.152344 22.550781 L 113.152344 20.089844 C 113.792969 20.542969 114.453125 20.910156 115.125 21.1875 C 115.796875 21.46875 116.363281 21.609375 116.824219 21.609375 C 117.300781 21.609375 117.710938 21.492188 118.050781 21.257812 C 118.394531 21.023438 118.566406 20.742188 118.566406 20.417969 C 118.566406 20.082031 118.457031 19.804688 118.234375 19.582031 C 118.011719 19.363281 117.535156 19.042969 116.796875 18.625 C 115.328125 17.804688 114.363281 17.105469 113.910156 16.523438 C 113.453125 15.941406 113.226562 15.308594 113.226562 14.621094 C 113.226562 13.734375 113.570312 13.011719 114.261719 12.449219 C 114.949219 11.890625 115.835938 11.609375 116.925781 11.609375 C 118.050781 11.609375 119.210938 11.929688 120.394531 12.5625 L 120.394531 14.820312 C 119.042969 14.003906 117.933594 13.59375 117.074219 13.59375 C 116.632812 13.59375 116.273438 13.6875 116.003906 13.875 C 115.730469 14.0625 115.59375 14.3125 115.59375 14.621094 C 115.59375 14.890625 115.71875 15.144531 115.964844 15.390625 C 116.210938 15.632812 116.644531 15.925781 117.261719 16.265625 L 118.078125 16.730469 C 120 17.820312 120.960938 19.023438 120.960938 20.34375 C 120.960938 21.289062 120.589844 22.0625 119.851562 22.671875 C 119.109375 23.277344 118.160156 23.578125 117 23.578125 C 116.3125 23.578125 115.703125 23.507812 115.167969 23.359375 C 114.632812 23.214844 113.960938 22.945312 113.152344 22.550781 Z M 113.152344 22.550781 "/>
</g>
</svg>
