<?xml version="1.0" encoding="iso-8859-1"?>
<!-- Generator: Adobe Illustrator 17.0.0, SVG Export Plug-In . SVG Version: 6.00 Build 0)  -->
<!DOCTYPE svg PUBLIC "-//W3C//DTD SVG 1.1//EN" "http://www.w3.org/Graphics/SVG/1.1/DTD/svg11.dtd" [
	<!ENTITY st0 "fill:#1A4162;">
	<!ENTITY st1 "fill:none;">
	<!ENTITY st2 "fill:#F2709E;">
	<!ENTITY st3 "fill:#E3E5E5;">
	<!ENTITY st4 "fill:#F0C41B;">
	<!ENTITY st5 "fill:#FAE196;">
	<!ENTITY st6 "fill:#FFFFFF;">
	<!ENTITY st7 "fill:#E6AA46;">
	<!ENTITY st8 "fill:#D1D1D1;">
]>
<svg version="1.1" id="Capa_1" xmlns="http://www.w3.org/2000/svg" xmlns:xlink="http://www.w3.org/1999/xlink" x="0px" y="0px"
	 width="999.09991px" height="264.0264px" viewBox="3164.00952 374.75726 999.09991 264.0264"
	 style="enable-background:new 3164.00952 374.75726 999.09991 264.0264;" xml:space="preserve">
<g>
	<g>
		<rect x="3515.28711" y="414.78708" style="&st1;" width="803.45801" height="180"/>
		<path style="&st0;" d="M3569.38672,490.53711h-49.2168v-9.76465l23.22754-24.75684
			c3.18848-3.48438,5.54785-6.52539,7.07715-9.12305c1.52832-2.59668,2.29297-5.0625,2.29297-7.39746
			c0-3.18848-0.80566-5.69629-2.41602-7.52148c-1.61133-1.82422-3.91309-2.73633-6.9043-2.73633
			c-3.22266,0-5.7627,1.10938-7.62012,3.32812c-1.85742,2.21973-2.78613,5.1377-2.78613,8.75391h-14.30176
			c0-4.37207,1.04297-8.36621,3.13184-11.9834c2.08691-3.61621,5.03809-6.45215,8.85156-8.50781
			c3.81445-2.05371,8.1377-3.08203,12.9707-3.08203c7.39746,0,13.14258,1.77539,17.23633,5.32617
			c4.09277,3.55078,6.13965,8.56543,6.13965,15.04199c0,3.55078-0.9209,7.16797-2.76172,10.84961
			c-1.8418,3.68262-4.99805,7.97266-9.46875,12.87109l-16.32324,17.21191h30.87109V490.53711z"/>
		<path style="&st0;" d="M3577.3584,455.22656l4.14258-36.49414h40.24219v11.88574h-28.55371l-1.77539,15.43555
			c3.38574-1.80762,6.98535-2.71191,10.7998-2.71191c6.83789,0,12.19727,2.12012,16.07715,6.36133
			c3.87891,4.24121,5.81934,10.17676,5.81934,17.80371c0,4.63574-0.97852,8.78613-2.93457,12.45215s-4.75879,6.50977-8.4082,8.53125
			c-3.64941,2.02246-7.95703,3.0332-12.9209,3.0332c-4.33984,0-8.36719-0.87988-12.08301-2.63867
			c-3.71484-1.75781-6.64941-4.23242-8.80273-7.42188c-2.15332-3.18848-3.2959-6.82129-3.42773-10.89844h14.10547
			c0.29492,2.99219,1.33887,5.31836,3.13086,6.97754c1.79199,1.66113,4.13477,2.49121,7.02734,2.49121
			c3.22266,0,5.7041-1.15918,7.44727-3.47754c1.74219-2.31738,2.61328-5.59668,2.61328-9.83789
			c0-4.07617-1.00293-7.2002-3.00781-9.37012c-2.00586-2.16992-4.84961-3.25488-8.53125-3.25488
			c-3.38672,0-6.13281,0.8877-8.23633,2.66309l-1.38086,1.28223L3577.3584,455.22656z"/>
		<path style="&st0;" d="M3629.60547,432.54102c0-4.40527,1.42969-7.98047,4.29004-10.72656
			c2.86035-2.74414,6.6084-4.11719,11.24414-4.11719c4.70117,0,8.48242,1.35547,11.34277,4.06836
			c2.86035,2.71191,4.29102,6.38672,4.29102,11.02246v3.55078c0,4.43848-1.43066,8.00586-4.29102,10.70117
			c-2.86035,2.69629-6.6084,4.04395-11.24414,4.04395c-4.66895,0-8.44141-1.35645-11.31836-4.06836
			c-2.87695-2.71289-4.31445-6.36914-4.31445-10.97266V432.54102z M3639.07422,436.39941c0,1.98438,0.56641,3.58008,1.70117,4.78711
			c1.13379,1.20605,2.62109,1.80957,4.46289,1.80957c1.84082,0,3.30469-0.61133,4.38867-1.83496
			c1.08594-1.22363,1.62793-2.86035,1.62793-4.91113v-3.66992c0-1.9834-0.54199-3.58789-1.62793-4.81152
			c-1.08398-1.22363-2.58105-1.83594-4.4873-1.83594c-1.80859,0-3.27148,0.60449-4.38965,1.81152
			c-1.11719,1.20605-1.67578,2.88477-1.67578,5.0332V436.39941z M3648.04883,485.16211l-6.95312-3.74805l35.06445-56.12207
			l6.95312,3.74805L3648.04883,485.16211z M3663.92969,472.93164c0-4.43848,1.44629-8.01465,4.33984-10.72656
			c2.89258-2.71289,6.64062-4.06836,11.24414-4.06836c4.66797,0,8.44043,1.33984,11.31738,4.01855
			c2.87695,2.68066,4.31543,6.37109,4.31543,11.07227v3.55078c0,4.40625-1.41406,7.96387-4.24121,10.67676
			c-2.82812,2.71191-6.5918,4.06836-11.29395,4.06836c-4.73438,0-8.53125-1.36328-11.3916-4.09277
			c-2.86035-2.72852-4.29004-6.34473-4.29004-10.84961V472.93164z M3673.39844,476.83887c0,1.81836,0.5918,3.37305,1.77539,4.66309
			s2.66211,1.93359,4.4375,1.93359c4.01172,0,6.01758-2.23145,6.01758-6.69629v-3.77051c0-1.9834-0.55957-3.5791-1.67773-4.78516
			c-1.11719-1.20703-2.59668-1.81152-4.4375-1.81152c-1.8418,0-3.32129,0.60449-4.43945,1.81152
			c-1.11719,1.20605-1.67578,2.85156-1.67578,4.93457V476.83887z"/>
		<path style="&st0;" d="M3521.69824,580.53711v-71.80469h22.09375c6.3125,0,11.95898,1.42285,16.94043,4.26562
			c4.98047,2.84473,8.86816,6.88867,11.66309,12.13184c2.79395,5.24512,4.19238,11.2041,4.19238,17.87793v3.30371
			c0,6.6748-1.37402,12.60938-4.11816,17.80371c-2.74609,5.19531-6.61719,9.22168-11.61426,12.08203
			c-4.99805,2.86035-10.63574,4.30762-16.91602,4.33984H3521.69824z M3536.49316,520.7168v47.93555h7.15137
			c5.78613,0,10.20801-1.89062,13.26562-5.67188c3.05762-3.78027,4.61914-9.18848,4.68555-16.22461v-3.79785
			c0-7.29883-1.5127-12.83008-4.53711-16.59473c-3.02539-3.76465-7.44727-5.64648-13.2666-5.64648H3536.49316z"/>
		<path style="&st0;" d="M3609.10254,581.52344c-7.82422,0-14.19531-2.39941-19.10938-7.2002
			c-4.91602-4.7998-7.37305-11.19434-7.37305-19.18359v-1.38086c0-5.3584,1.03516-10.15137,3.10742-14.37598
			c2.07031-4.22461,5.00488-7.47949,8.80273-9.76465c3.79688-2.28516,8.12891-3.42773,12.99414-3.42773
			c7.29883,0,13.04492,2.30176,17.23633,6.9043c4.19238,4.60352,6.28809,11.12988,6.28809,19.5791v5.81934h-33.97949
			c0.46094,3.48535,1.84961,6.28027,4.16797,8.38379c2.31738,2.10449,5.25195,3.15625,8.80273,3.15625
			c5.49023,0,9.78125-1.98926,12.87109-5.96777l7.00391,7.8418c-2.1377,3.02539-5.03125,5.38379-8.67969,7.07617
			C3617.58496,580.67676,3613.54199,581.52344,3609.10254,581.52344z M3607.47559,537.68164
			c-2.82812,0-5.12109,0.95801-6.87988,2.87305c-1.75879,1.91602-2.88477,4.65625-3.37793,8.22266h19.8252v-1.13965
			c-0.06641-3.16992-0.9209-5.62207-2.56445-7.35547C3612.83398,538.54785,3610.5,537.68164,3607.47559,537.68164z"/>
		<path style="&st0;" d="M3666.22852,565.79199c0-1.74219-0.8623-3.11523-2.58887-4.11816
			c-1.72559-1.00293-4.49609-1.89844-8.30957-2.6875c-12.69141-2.66309-19.03613-8.05469-19.03613-16.17578
			c0-4.73438,1.96387-8.6875,5.89355-11.86133c3.92773-3.17188,9.06543-4.75879,15.41113-4.75879
			c6.77246,0,12.18848,1.5957,16.25,4.78418c4.05957,3.18945,6.09082,7.33203,6.09082,12.42773h-14.25293
			c0-2.03809-0.6582-3.72363-1.97266-5.05566c-1.31543-1.33105-3.37012-1.99707-6.16504-1.99707
			c-2.39941,0-4.25781,0.54297-5.57227,1.62793c-1.31543,1.08496-1.97266,2.46582-1.97266,4.14258
			c0,1.57812,0.74707,2.85254,2.24414,3.82129c1.49512,0.9707,4.01953,1.80859,7.57031,2.51562s6.54199,1.50391,8.97461,2.3916
			c7.5293,2.76172,11.29395,7.5459,11.29395,14.35156c0,4.86621-2.08789,8.80273-6.2627,11.81055
			c-4.17578,3.00879-9.56836,4.5127-16.17578,4.5127c-4.47168,0-8.44238-0.79688-11.91016-2.3916
			c-3.46973-1.59473-6.18945-3.78027-8.16211-6.55957c-1.97266-2.77734-2.95898-5.77734-2.95898-9h13.5127
			c0.13086,2.53223,1.06836,4.47168,2.81152,5.81934c1.74219,1.34863,4.07617,2.02246,7.00195,2.02246
			c2.72949,0,4.79199-0.51855,6.18945-1.55371C3665.53027,568.82422,3666.22852,567.46875,3666.22852,565.79199z"/>
		<path style="&st0;" d="M3709.30957,570.0332c2.63086,0,4.76758-0.72266,6.41211-2.16992
			c1.64355-1.44629,2.49805-3.37012,2.56445-5.77051h13.36426c-0.0332,3.61719-1.01953,6.92871-2.95898,9.9375
			c-1.94043,3.00781-4.59473,5.34277-7.96484,7.00293s-7.09375,2.49023-11.16992,2.49023
			c-7.62793,0-13.64453-2.42383-18.0498-7.27441c-4.40625-4.84863-6.6084-11.54688-6.6084-20.0957v-0.9375
			c0-8.21875,2.18652-14.77734,6.55957-19.67676c4.37207-4.89844,10.37207-7.34863,18-7.34863
			c6.67383,0,12.02441,1.89844,16.05273,5.69629c4.02637,3.79688,6.07324,8.85254,6.13965,15.16504h-13.36426
			c-0.06641-2.77539-0.9209-5.03223-2.56445-6.76758c-1.64453-1.73535-3.81445-2.60254-6.50977-2.60254
			c-3.32129,0-5.82812,1.20996-7.52148,3.62988s-2.53906,6.34766-2.53906,11.7793v1.48242
			c0,5.49902,0.83789,9.45117,2.51465,11.85449C3703.34277,568.83203,3705.89062,570.0332,3709.30957,570.0332z"/>
		<path style="&st0;" d="M3770.5332,575.1123c-3.51855,4.27441-8.38477,6.41113-14.59766,6.41113
			c-5.7207,0-10.08594-1.64355-13.09375-4.93164c-3.00879-3.28711-4.5459-8.10352-4.61133-14.44922v-34.96582h14.25195v34.5127
			c0,5.5625,2.53223,8.34375,7.5957,8.34375c4.83203,0,8.15332-1.67871,9.96094-5.03711v-37.81934h14.30273v53.36035h-13.41406
			L3770.5332,575.1123z"/>
		<path style="&st0;" d="M3818.17676,581.52344c-7.82422,0-14.19531-2.39941-19.10938-7.2002
			c-4.91602-4.7998-7.37305-11.19434-7.37305-19.18359v-1.38086c0-5.3584,1.03516-10.15137,3.10742-14.37598
			c2.07031-4.22461,5.00488-7.47949,8.80273-9.76465c3.79688-2.28516,8.12891-3.42773,12.99414-3.42773
			c7.29883,0,13.04492,2.30176,17.23633,6.9043c4.19238,4.60352,6.28809,11.12988,6.28809,19.5791v5.81934h-33.97949
			c0.46094,3.48535,1.84961,6.28027,4.16797,8.38379c2.31738,2.10449,5.25195,3.15625,8.80273,3.15625
			c5.49023,0,9.78125-1.98926,12.87109-5.96777l7.00391,7.8418c-2.1377,3.02539-5.03125,5.38379-8.67969,7.07617
			C3826.65918,580.67676,3822.61621,581.52344,3818.17676,581.52344z M3816.5498,537.68164
			c-2.82812,0-5.12109,0.95801-6.87988,2.87305c-1.75879,1.91602-2.88477,4.65625-3.37793,8.22266h19.8252v-1.13965
			c-0.06641-3.16992-0.9209-5.62207-2.56445-7.35547C3821.9082,538.54785,3819.57422,537.68164,3816.5498,537.68164z"/>
		<path style="&st0;" d="M3860.57031,527.17676l0.44434,6.16504c3.81348-4.7666,8.92676-7.15137,15.33691-7.15137
			c5.65527,0,9.86328,1.66113,12.625,4.98145c2.76172,3.32129,4.17578,8.28516,4.24219,14.89355v34.47168h-14.25293v-34.20508
			c0-3.03125-0.6582-5.23145-1.97266-6.59961c-1.31543-1.36719-3.50098-2.05078-6.55957-2.05078
			c-4.01074,0-7.01953,1.71387-9.02441,5.14062v37.71484h-14.25293v-53.36035H3860.57031z"/>
		<path style="&st0;" d="M3919.48633,514.05859v13.11816h9.12402v10.45508h-9.12402v26.63086
			c0,1.97266,0.37793,3.38672,1.13477,4.24121c0.75586,0.85547,2.20215,1.28223,4.33984,1.28223
			c1.57812,0,2.97559-0.11426,4.19141-0.34473v10.7998c-2.79395,0.85449-5.6709,1.28223-8.62988,1.28223
			c-9.99512,0-15.09082-5.0459-15.28809-15.13965v-28.75195h-7.79199v-10.45508h7.79199v-13.11816H3919.48633z"/>
		<path style="&st0;" d="M3931.7959,553.36426c0-5.29297,1.01855-10.01172,3.05762-14.1543
			c2.03809-4.14258,4.97266-7.34766,8.80273-9.61621s8.27734-3.40332,13.33984-3.40332c7.20117,0,13.07715,2.20312,17.63086,6.6084
			c4.55371,4.40625,7.09375,10.38965,7.61914,17.95117l0.09961,3.64941c0,8.18652-2.28613,14.75391-6.85547,19.70215
			c-4.57031,4.94824-10.70117,7.42188-18.39453,7.42188s-13.83398-2.46582-18.41992-7.39746
			c-4.58691-4.93164-6.87988-11.63867-6.87988-20.12109V553.36426z M3946.04883,554.37598
			c0,5.07129,0.95312,8.94824,2.85938,11.63184c1.90723,2.68359,4.63672,4.02539,8.1875,4.02539
			c3.45117,0,6.14746-1.3252,8.08789-3.97656c1.93945-2.65039,2.90918-6.88965,2.90918-12.71777
			c0-4.97168-0.96973-8.8252-2.90918-11.55762c-1.94043-2.73242-4.66895-4.09961-8.1875-4.09961
			c-3.48438,0-6.18066,1.3584-8.08789,4.07422C3947.00195,544.47363,3946.04883,548.67969,3946.04883,554.37598z"/>
	</g>
	<rect x="3458.3125" y="428.94427" style="&st1;" width="33.30228" height="195.83539"/>
	<path style="&st2;" d="M3449.2085,515.19232h-41.28979v-41.28989c0-3.53806-2.86841-6.40628-6.40625-6.40628h-10.52686
		c-3.53809,0-6.40625,2.86823-6.40625,6.40628v41.28989h-41.28979c-3.53833,0-6.40625,2.86823-6.40625,6.40631v10.52667
		c0,3.53809,2.86792,6.40631,6.40625,6.40631h41.28979v41.28986c0,3.53809,2.86816,6.40631,6.40625,6.40631h10.52686
		c3.53784,0,6.40625-2.86823,6.40625-6.40631v-41.28986h41.28979c3.53809,0,6.40625-2.86823,6.40625-6.40631v-10.52667
		C3455.61475,518.06055,3452.74658,515.19232,3449.2085,515.19232z"/>
</g>
</svg>
