<?xml version="1.0" encoding="iso-8859-1"?>
<!-- Generator: Adobe Illustrator 17.0.0, SVG Export Plug-In . SVG Version: 6.00 Build 0)  -->
<!DOCTYPE svg PUBLIC "-//W3C//DTD SVG 1.1//EN" "http://www.w3.org/Graphics/SVG/1.1/DTD/svg11.dtd" [
	<!ENTITY st0 "fill:#1A4162;">
	<!ENTITY st1 "fill:none;">
	<!ENTITY st2 "fill:#F2709E;">
	<!ENTITY st3 "fill:#E3E5E5;">
	<!ENTITY st4 "fill:#F0C41B;">
	<!ENTITY st5 "fill:#FAE196;">
	<!ENTITY st6 "fill:#FFFFFF;">
	<!ENTITY st7 "fill:#E6AA46;">
	<!ENTITY st8 "fill:#D1D1D1;">
]>
<svg version="1.1" id="Capa_1" xmlns="http://www.w3.org/2000/svg" xmlns:xlink="http://www.w3.org/1999/xlink" x="0px" y="0px"
	 width="999.09991px" height="264.0264px" viewBox="3164.00952 -809.30151 999.09991 264.0264"
	 style="enable-background:new 3164.00952 -809.30151 999.09991 264.0264;" xml:space="preserve">
<g>
	<path style="&st2;" d="M3449.2085-685.69171h-41.28979v-41.28992c0-3.53809-2.86841-6.40625-6.40625-6.40625h-10.52686
		c-3.53809,0-6.40625,2.86816-6.40625,6.40625v41.28992h-41.28979c-3.53809,0-6.40625,2.86816-6.40625,6.40625v10.52673
		c0,3.53809,2.86816,6.40631,6.40625,6.40631h41.28979v41.28986c0,3.53809,2.86816,6.40631,6.40625,6.40631h10.52686
		c3.53784,0,6.40625-2.86823,6.40625-6.40631v-41.28986h41.28979c3.53809,0,6.40625-2.86823,6.40625-6.40631v-10.52673
		C3455.61475-682.82355,3452.74658-685.69171,3449.2085-685.69171z"/>
	<g>
		<rect x="3515.28711" y="-766.27173" style="&st1;" width="803.45801" height="180"/>
		<path style="&st0;" d="M3566.9707-743.24121c0,3.48535-0.87109,6.57617-2.61328,9.27148
			c-1.74316,2.69629-4.14258,4.85059-7.20117,6.46094c3.48535,1.67676,6.24707,3.98633,8.28516,6.92871
			c2.03906,2.94238,3.05859,6.40332,3.05859,10.38086c0,6.37891-2.16992,11.41699-6.50977,15.11621
			c-4.33984,3.69824-10.24219,5.54785-17.70508,5.54785c-7.46387,0-13.38184-1.85742-17.75391-5.57324
			c-4.37305-3.71484-6.55859-8.74512-6.55859-15.09082c0-3.97754,1.01855-7.44629,3.05664-10.40527
			c2.03906-2.95898,4.78418-5.25977,8.23633-6.9043c-3.05762-1.61035-5.44922-3.76465-7.17578-6.46094
			c-1.72559-2.69531-2.58887-5.78613-2.58887-9.27148c0-6.11523,2.03809-10.98926,6.11523-14.62207
			c4.07617-3.63281,9.61621-5.44922,16.62012-5.44922c6.96973,0,12.50098,1.7998,16.59473,5.40039
			C3564.92383-754.3125,3566.9707-749.42188,3566.9707-743.24121z M3554.19727-711.23438c0-3.12305-0.9043-5.62207-2.71191-7.49609
			c-1.80859-1.87402-4.24121-2.81152-7.29883-2.81152c-3.02539,0-5.44141,0.92969-7.24902,2.78711
			c-1.80859,1.85742-2.71289,4.36426-2.71289,7.52051c0,3.05762,0.8877,5.52344,2.66309,7.39746s4.24121,2.81055,7.39746,2.81055
			c3.08984,0,5.51465-0.90332,7.27441-2.71191C3553.31738-705.5459,3554.19727-708.04492,3554.19727-711.23438z
			 M3552.71875-742.55078c0-2.79395-0.74023-5.03809-2.21973-6.73145s-3.56738-2.54004-6.2627-2.54004
			c-2.66406,0-4.73438,0.82227-6.21484,2.46582c-1.47852,1.64453-2.21875,3.91309-2.21875,6.80566
			c0,2.86035,0.74023,5.16211,2.21875,6.9043c1.48047,1.74316,3.56738,2.61426,6.26367,2.61426
			c2.69531,0,4.77539-0.87109,6.23828-2.61426C3551.98633-737.38867,3552.71875-739.69043,3552.71875-742.55078z"/>
		<path style="&st0;" d="M3574.70801-748.51758c0-4.40527,1.42969-7.98145,4.29004-10.72656s6.6084-4.11816,11.24414-4.11816
			c4.70117,0,8.48242,1.35645,11.34277,4.06934c2.86035,2.71191,4.29102,6.38574,4.29102,11.02148v3.55078
			c0,4.43848-1.43066,8.00684-4.29102,10.70215c-2.86035,2.69629-6.6084,4.04395-11.24414,4.04395
			c-4.66895,0-8.44141-1.35645-11.31836-4.06836c-2.87695-2.71289-4.31445-6.37012-4.31445-10.97363V-748.51758z
			 M3584.17676-744.65918c0,1.9834,0.56641,3.58008,1.70117,4.78613c1.13379,1.20703,2.62109,1.81055,4.46289,1.81055
			c1.84082,0,3.30469-0.6123,4.38867-1.83594c1.08594-1.22363,1.62793-2.86035,1.62793-4.91016v-3.6709
			c0-1.9834-0.54199-3.58789-1.62793-4.81152c-1.08398-1.22363-2.58105-1.83496-4.4873-1.83496
			c-1.80859,0-3.27148,0.60352-4.38965,1.81055c-1.11719,1.20703-1.67578,2.88477-1.67578,5.03418V-744.65918z
			 M3593.15137-695.89746l-6.95312-3.74805l35.06445-56.12207l6.95312,3.74805L3593.15137-695.89746z M3609.03223-708.12793
			c0-4.43848,1.44629-8.01367,4.33984-10.72559c2.89258-2.71289,6.64062-4.06934,11.24414-4.06934
			c4.66797,0,8.44043,1.33984,11.31738,4.01953s4.31543,6.37012,4.31543,11.07129v3.55078
			c0,4.40625-1.41406,7.96484-4.24121,10.67773c-2.82812,2.71191-6.5918,4.06836-11.29395,4.06836
			c-4.73438,0-8.53125-1.36426-11.3916-4.09375c-2.86035-2.72852-4.29004-6.34473-4.29004-10.84961V-708.12793z
			 M3618.50098-704.21973c0,1.81836,0.5918,3.37207,1.77539,4.66211s2.66211,1.93457,4.4375,1.93457
			c4.01172,0,6.01758-2.23145,6.01758-6.69629v-3.77051c0-1.9834-0.55957-3.5791-1.67773-4.78613
			c-1.11719-1.20703-2.59668-1.81055-4.4375-1.81055c-1.8418,0-3.32129,0.60352-4.43945,1.81055
			c-1.11719,1.20703-1.67578,2.85156-1.67578,4.93555V-704.21973z"/>
		<path style="&st0;" d="M3521.69824-600.52148v-71.80469h22.09375c6.3125,0,11.95898,1.42188,16.94043,4.26562
			c4.98047,2.84375,8.86816,6.8877,11.66309,12.13184c2.79395,5.24414,4.19238,11.20312,4.19238,17.87695v3.30469
			c0,6.6748-1.37402,12.6084-4.11816,17.80273c-2.74609,5.19531-6.61719,9.22266-11.61426,12.08301
			c-4.99805,2.86035-10.63574,4.30762-16.91602,4.33984H3521.69824z M3536.49316-660.34277v47.93555h7.15137
			c5.78613,0,10.20801-1.88965,13.26562-5.6709c3.05762-3.78027,4.61914-9.18945,4.68555-16.22559v-3.79688
			c0-7.29883-1.5127-12.83008-4.53711-16.59473c-3.02539-3.76465-7.44727-5.64746-13.2666-5.64746H3536.49316z"/>
		<path style="&st0;" d="M3609.10254-599.53516c-7.82422,0-14.19531-2.39941-19.10938-7.2002
			c-4.91602-4.7998-7.37305-11.19531-7.37305-19.18457v-1.38086c0-5.3584,1.03516-10.15039,3.10742-14.375
			c2.07031-4.22461,5.00488-7.47949,8.80273-9.76465c3.79688-2.28516,8.12891-3.42773,12.99414-3.42773
			c7.29883,0,13.04492,2.30176,17.23633,6.9043c4.19238,4.60352,6.28809,11.12891,6.28809,19.57812v5.81934h-33.97949
			c0.46094,3.48535,1.84961,6.28027,4.16797,8.38379c2.31738,2.10449,5.25195,3.15625,8.80273,3.15625
			c5.49023,0,9.78125-1.98828,12.87109-5.9668l7.00391,7.84082c-2.1377,3.02539-5.03125,5.38379-8.67969,7.07715
			C3617.58496-600.38184,3613.54199-599.53516,3609.10254-599.53516z M3607.47559-643.37793
			c-2.82812,0-5.12109,0.95801-6.87988,2.87402c-1.75879,1.91504-2.88477,4.65625-3.37793,8.22266h19.8252v-1.13965
			c-0.06641-3.16992-0.9209-5.62207-2.56445-7.35645C3612.83398-642.51074,3610.5-643.37793,3607.47559-643.37793z"/>
		<path style="&st0;" d="M3666.22852-615.26758c0-1.74219-0.8623-3.11426-2.58887-4.11719
			c-1.72559-1.00293-4.49609-1.89941-8.30957-2.68848c-12.69141-2.66309-19.03613-8.05469-19.03613-16.17578
			c0-4.73438,1.96387-8.6875,5.89355-11.86035c3.92773-3.17285,9.06543-4.75879,15.41113-4.75879
			c6.77246,0,12.18848,1.59473,16.25,4.7832c4.05957,3.18945,6.09082,7.33203,6.09082,12.42773h-14.25293
			c0-2.03809-0.6582-3.72266-1.97266-5.05469c-1.31543-1.33105-3.37012-1.99707-6.16504-1.99707
			c-2.39941,0-4.25781,0.54199-5.57227,1.62695c-1.31543,1.08496-1.97266,2.46582-1.97266,4.14258
			c0,1.57812,0.74707,2.85254,2.24414,3.82227c1.49512,0.96973,4.01953,1.80859,7.57031,2.51562s6.54199,1.50391,8.97461,2.3916
			c7.5293,2.76172,11.29395,7.54492,11.29395,14.35059c0,4.86621-2.08789,8.80371-6.2627,11.81152
			c-4.17578,3.00879-9.56836,4.5127-16.17578,4.5127c-4.47168,0-8.44238-0.79785-11.91016-2.3916
			c-3.46973-1.59473-6.18945-3.78125-8.16211-6.55957s-2.95898-5.77734-2.95898-9h13.5127
			c0.13086,2.53223,1.06836,4.47168,2.81152,5.81934c1.74219,1.34863,4.07617,2.02148,7.00195,2.02148
			c2.72949,0,4.79199-0.51758,6.18945-1.55273C3665.53027-612.23438,3666.22852-613.59082,3666.22852-615.26758z"/>
		<path style="&st0;" d="M3709.30957-611.02637c2.63086,0,4.76758-0.72266,6.41211-2.16992
			c1.64355-1.44629,2.49805-3.36914,2.56445-5.76953h13.36426c-0.0332,3.61719-1.01953,6.92871-2.95898,9.9375
			c-1.94043,3.00781-4.59473,5.34277-7.96484,7.00293c-3.37012,1.65918-7.09375,2.49023-11.16992,2.49023
			c-7.62793,0-13.64453-2.4248-18.0498-7.27441c-4.40625-4.84961-6.6084-11.54785-6.6084-20.09668v-0.93652
			c0-8.21875,2.18652-14.77832,6.55957-19.67773c4.37207-4.89844,10.37207-7.34766,18-7.34766
			c6.67383,0,12.02441,1.89844,16.05273,5.69629c4.02637,3.79688,6.07324,8.85156,6.13965,15.16406h-13.36426
			c-0.06641-2.77539-0.9209-5.03125-2.56445-6.7666c-1.64453-1.73535-3.81445-2.60352-6.50977-2.60352
			c-3.32129,0-5.82812,1.21094-7.52148,3.63086s-2.53906,6.34668-2.53906,11.7793v1.48145c0,5.5,0.83789,9.45117,2.51465,11.85449
			C3703.34277-612.22754,3705.89062-611.02637,3709.30957-611.02637z"/>
		<path style="&st0;" d="M3770.5332-605.94629c-3.51855,4.27441-8.38477,6.41113-14.59766,6.41113
			c-5.7207,0-10.08594-1.64355-13.09375-4.93164c-3.00879-3.28711-4.5459-8.10449-4.61133-14.4502v-34.96484h14.25195v34.51172
			c0,5.56348,2.53223,8.34375,7.5957,8.34375c4.83203,0,8.15332-1.67773,9.96094-5.03613v-37.81934h14.30273v53.36035h-13.41406
			L3770.5332-605.94629z"/>
		<path style="&st0;" d="M3818.17676-599.53516c-7.82422,0-14.19531-2.39941-19.10938-7.2002
			c-4.91602-4.7998-7.37305-11.19531-7.37305-19.18457v-1.38086c0-5.3584,1.03516-10.15039,3.10742-14.375
			c2.07031-4.22461,5.00488-7.47949,8.80273-9.76465c3.79688-2.28516,8.12891-3.42773,12.99414-3.42773
			c7.29883,0,13.04492,2.30176,17.23633,6.9043c4.19238,4.60352,6.28809,11.12891,6.28809,19.57812v5.81934h-33.97949
			c0.46094,3.48535,1.84961,6.28027,4.16797,8.38379c2.31738,2.10449,5.25195,3.15625,8.80273,3.15625
			c5.49023,0,9.78125-1.98828,12.87109-5.9668l7.00391,7.84082c-2.1377,3.02539-5.03125,5.38379-8.67969,7.07715
			C3826.65918-600.38184,3822.61621-599.53516,3818.17676-599.53516z M3816.5498-643.37793
			c-2.82812,0-5.12109,0.95801-6.87988,2.87402c-1.75879,1.91504-2.88477,4.65625-3.37793,8.22266h19.8252v-1.13965
			c-0.06641-3.16992-0.9209-5.62207-2.56445-7.35645C3821.9082-642.51074,3819.57422-643.37793,3816.5498-643.37793z"/>
		<path style="&st0;" d="M3860.57031-653.88184l0.44434,6.16406c3.81348-4.7666,8.92676-7.15039,15.33691-7.15039
			c5.65527,0,9.86328,1.66016,12.625,4.98047c2.76172,3.32129,4.17578,8.28516,4.24219,14.89355v34.47266h-14.25293v-34.20605
			c0-3.03125-0.6582-5.23145-1.97266-6.59863c-1.31543-1.36719-3.50098-2.05176-6.55957-2.05176
			c-4.01074,0-7.01953,1.71387-9.02441,5.14062v37.71582h-14.25293v-53.36035H3860.57031z"/>
		<path style="&st0;" d="M3919.48633-667v13.11816h9.12402v10.45508h-9.12402v26.63086c0,1.97266,0.37793,3.38672,1.13477,4.24121
			c0.75586,0.85547,2.20215,1.28223,4.33984,1.28223c1.57812,0,2.97559-0.11523,4.19141-0.3457v10.80078
			c-2.79395,0.85449-5.6709,1.28223-8.62988,1.28223c-9.99512,0-15.09082-5.04688-15.28809-15.14062v-28.75098h-7.79199v-10.45508
			h7.79199V-667H3919.48633z"/>
		<path style="&st0;" d="M3931.7959-627.69531c0-5.29297,1.01855-10.01074,3.05762-14.15332
			c2.03809-4.14258,4.97266-7.34863,8.80273-9.61719s8.27734-3.40234,13.33984-3.40234c7.20117,0,13.07715,2.20312,17.63086,6.6084
			c4.55371,4.40625,7.09375,10.38965,7.61914,17.95117l0.09961,3.64941c0,8.18652-2.28613,14.75391-6.85547,19.70215
			c-4.57031,4.94824-10.70117,7.42188-18.39453,7.42188s-13.83398-2.46582-18.41992-7.39746
			c-4.58691-4.93164-6.87988-11.63867-6.87988-20.12109V-627.69531z M3946.04883-626.68359
			c0,5.07129,0.95312,8.94922,2.85938,11.63184c1.90723,2.68359,4.63672,4.02539,8.1875,4.02539
			c3.45117,0,6.14746-1.3252,8.08789-3.97559c1.93945-2.65137,2.90918-6.88965,2.90918-12.71875
			c0-4.97168-0.96973-8.82422-2.90918-11.55762c-1.94043-2.73242-4.66895-4.09961-8.1875-4.09961
			c-3.48438,0-6.18066,1.3584-8.08789,4.0752C3947.00195-636.58594,3946.04883-632.37891,3946.04883-626.68359z"/>
	</g>
</g>
<g>
	<rect x="3458.3125" y="-773.9212" style="&st1;" width="33.30228" height="195.83539"/>
</g>
</svg>
