<?xml version="1.0" encoding="iso-8859-1"?>
<!-- Generator: Adobe Illustrator 17.0.0, SVG Export Plug-In . SVG Version: 6.00 Build 0)  -->
<!DOCTYPE svg PUBLIC "-//W3C//DTD SVG 1.1//EN" "http://www.w3.org/Graphics/SVG/1.1/DTD/svg11.dtd" [
	<!ENTITY st0 "fill:#1A4162;">
	<!ENTITY st1 "fill:none;">
	<!ENTITY st2 "fill:#F2709E;">
	<!ENTITY st3 "fill:#E3E5E5;">
	<!ENTITY st4 "fill:#F0C41B;">
	<!ENTITY st5 "fill:#FAE196;">
	<!ENTITY st6 "fill:#FFFFFF;">
	<!ENTITY st7 "fill:#E6AA46;">
	<!ENTITY st8 "fill:#D1D1D1;">
]>
<svg version="1.1" id="Capa_1" xmlns="http://www.w3.org/2000/svg" xmlns:xlink="http://www.w3.org/1999/xlink" x="0px" y="0px"
	 width="999.09991px" height="264.0264px" viewBox="1081.40649 -221.24272 999.09991 264.0264"
	 style="enable-background:new 1081.40649 -221.24272 999.09991 264.0264;" xml:space="preserve">
<g>
	<g id="XMLID_209_">
		<path id="XMLID_224_" style="&st3;" d="M1297.96997-28.85526H1116.0531c-6.27246,0-11.349-5.08008-11.349-11.34901V-165.6756
			c0-6.269,5.07654-11.349,11.349-11.349h181.91687c6.26892,0,11.349,5.08008,11.349,11.349v125.47133
			C1309.31897-33.93534,1304.23889-28.85526,1297.96997-28.85526"/>
		<path id="XMLID_223_" style="&st4;" d="M1174.36133-113.52359h-47.59058c-2.44128,0-4.42749-1.98264-4.42749-4.42744v-33.47917
			c0-2.44481,1.98621-4.42744,4.42749-4.42744h47.59058c2.44482,0,4.42749,1.98264,4.42749,4.42744v33.47917
			C1178.7887-115.50623,1176.80603-113.52359,1174.36133-113.52359"/>
		<path id="XMLID_222_" style="&st5;" d="M1174.36133-109.99562h-47.59058c-4.38513,0-7.95532-3.57021-7.95532-7.95541v-33.47917
			c0-4.38506,3.57019-7.95526,7.95532-7.95526h47.59058c4.38513,0,7.95532,3.57021,7.95532,7.95526v33.47917
			C1182.31665-113.56598,1178.74646-109.99562,1174.36133-109.99562 M1126.77075-152.32982
			c-0.50098,0-0.89954,0.40219-0.89954,0.89955v33.47916c0,0.49735,0.39856,0.89969,0.89954,0.89969h47.59058
			c0.49744,0,0.89954-0.40219,0.89954-0.89969v-33.47916c0-0.49736-0.4021-0.89955-0.89954-0.89955H1126.77075z"/>
		<path id="XMLID_221_" style="&st4;" d="M1178.7887-151.43021c0-2.44826-1.98267-4.42744-4.42749-4.42744h-16.7395h-9.68408
			c-2.44836,0-4.42749,1.97925-4.42749,4.42744v9.68401v23.79531c0,2.44481,1.97913,4.42744,4.42749,4.42744h5.25659
			c2.44482,0,4.42749-1.98264,4.42749-4.42744v-19.36787c0-2.44473,1.979-4.42744,4.42737-4.42744h12.31213
			c2.44482,0,4.42749-1.98264,4.42749-4.42744V-151.43021z"/>
		<path id="XMLID_220_" style="&st5;" d="M1153.19434-109.99562h-5.25659c-4.38501,0-7.9552-3.57021-7.9552-7.95541v-33.47917
			c0-4.38506,3.57019-7.95526,7.9552-7.95526h26.42358c4.38513,0,7.95532,3.57021,7.95532,7.95526v5.25648
			c0,4.38506-3.57019,7.95543-7.95532,7.95543h-12.31213c-0.50085,0-0.89966,0.40219-0.89966,0.89954v19.36787
			C1161.14954-113.56598,1157.57935-109.99562,1153.19434-109.99562 M1147.93774-152.32982
			c-0.50085,0-0.89954,0.40219-0.89954,0.89955v33.47916c0,0.49735,0.39868,0.89969,0.89954,0.89969h5.25659
			c0.49731,0,0.89954-0.40219,0.89954-0.89969v-19.36787c0-4.38506,3.57019-7.95528,7.9552-7.95528h12.31213
			c0.49744,0,0.89954-0.40219,0.89954-0.89969v-5.25648c0-0.49734-0.4021-0.89954-0.89954-0.89954h-26.42346V-152.32982z"/>
		<path id="XMLID_219_" style="&st5;" d="M1178.7887-124.10707h-21.16699c-1.95093,0-3.52783-1.58044-3.52783-3.52789
			c0-1.94731,1.5769-3.52783,3.52783-3.52783h21.16699c1.95093,0,3.52783,1.58044,3.52783,3.52783
			C1182.31665-125.68758,1180.73962-124.10707,1178.7887-124.10707"/>
		<path id="XMLID_218_" style="&st5;" d="M1143.51025-138.21844h-21.16699c-1.95093,0-3.52783-1.58044-3.52783-3.52789
			c0-1.94731,1.5769-3.52783,3.52783-3.52783h21.16699c1.95093,0,3.52783,1.58044,3.52783,3.52783
			C1147.03809-139.79889,1145.46118-138.21844,1143.51025-138.21844"/>
		<path id="XMLID_217_" style="&st5;" d="M1143.51025-124.10707h-21.16699c-1.95093,0-3.52783-1.58044-3.52783-3.52789
			c0-1.94731,1.5769-3.52783,3.52783-3.52783h21.16699c1.95093,0,3.52783,1.58044,3.52783,3.52783
			C1147.03809-125.68758,1145.46118-124.10707,1143.51025-124.10707"/>
		<path id="XMLID_216_" style="&st6;" d="M1245.81787-159.38554h-31.75061c-1.95081,0-3.52783,1.58044-3.52783,3.52783
			c0,1.94737,1.57703,3.52789,3.52783,3.52789h31.75061c1.95093,0,3.52783-1.58044,3.52783-3.52789
			C1249.3457-157.80518,1247.7688-159.38554,1245.81787-159.38554"/>
		<path id="XMLID_215_" style="&st6;" d="M1295.20764-155.85771c0-1.94731-1.5769-3.52783-3.52783-3.52783h-31.75061
			c-1.95081,0-3.52783,1.58044-3.52783,3.52783c0,1.94737,1.57703,3.52789,3.52783,3.52789h31.75061
			C1293.63074-152.32982,1295.20764-153.9104,1295.20764-155.85771"/>
		<path id="XMLID_214_" style="&st6;" d="M1217.59509-141.74634h-3.52783c-1.95081,0-3.52783,1.58044-3.52783,3.52789
			c0,1.94731,1.57703,3.52783,3.52783,3.52783h3.52783c1.95093,0,3.52783-1.58044,3.52783-3.52783
			C1221.12292-140.16576,1219.54602-141.74634,1217.59509-141.74634"/>
		<path id="XMLID_213_" style="&st6;" d="M1238.76221-141.74634h-7.05579c-1.95093,0-3.52783,1.58044-3.52783,3.52789
			c0,1.94731,1.5769,3.52783,3.52783,3.52783h7.05579c1.95081,0,3.52771-1.58044,3.52771-3.52783
			C1242.28992-140.16576,1240.71301-141.74634,1238.76221-141.74634"/>
		<path id="XMLID_212_" style="&st6;" d="M1256.40137-141.74634h-3.52771c-1.95093,0-3.52783,1.58044-3.52783,3.52789
			c0,1.94731,1.5769,3.52783,3.52783,3.52783h3.52771c1.95093,0,3.52783-1.58044,3.52783-3.52783
			C1259.9292-140.16576,1258.35229-141.74634,1256.40137-141.74634"/>
		<path id="XMLID_211_" style="&st6;" d="M1277.56836-141.74634h-7.05566c-1.95093,0-3.52783,1.58044-3.52783,3.52789
			c0,1.94731,1.5769,3.52783,3.52783,3.52783h7.05566c1.95093,0,3.52783-1.58044,3.52783-3.52783
			C1281.09631-140.16576,1279.51941-141.74634,1277.56836-141.74634"/>
		<path id="XMLID_210_" style="&st6;" d="M1289.17505-140.7233c-0.63855,0.67029-1.02307,1.58757-1.02307,2.50485
			s0.38452,1.83441,1.02307,2.50471c0.66675,0.63512,1.54871,1.02312,2.50476,1.02312c0.91724,0,1.83105-0.38814,2.50488-1.02312
			c0.63489-0.6703,1.02307-1.58757,1.02307-2.50471c0-0.91728-0.38818-1.83456-1.02307-2.50485
			C1292.84399-142.0285,1290.48035-142.0285,1289.17505-140.7233"/>
	</g>
	<g>
		<circle style="&st7;" cx="1271.19189" cy="-61.39013" r="18.06129"/>
		<circle style="&st2;" cx="1248.66663" cy="-61.39013" r="18.06129"/>
		<path style="&st5;" d="M1253.13-61.39206c0,5.71469,2.65649,10.80544,6.79919,14.11527
			c4.14221-3.30975,6.79919-8.40101,6.79919-14.11527c0-5.71419-2.65649-10.80544-6.79919-14.11527
			C1255.78699-72.1975,1253.13-67.10625,1253.13-61.39206z"/>
	</g>
</g>
<g>
	<rect x="1334.6792" y="-179.22943" style="&st1;" width="803.45801" height="180"/>
	<path style="&st0;" d="M1386.04688-119.22949h-11.71875v-24.375h-22.85156v24.375h-11.71875v-56.875h11.71875v23.04688h22.85156
		v-23.04688h11.71875V-119.22949z"/>
	<path style="&st0;" d="M1419.07812-119.22949c-0.52148-1.01562-0.89844-2.27832-1.13281-3.78906
		c-2.73438,3.04688-6.28906,4.57031-10.66406,4.57031c-4.14062,0-7.57227-1.19727-10.29297-3.59375
		c-2.7207-2.39551-4.08203-5.41602-4.08203-9.0625c0-4.47852,1.66016-7.91602,4.98047-10.3125
		c3.32031-2.39551,8.11914-3.60645,14.39453-3.63281h5.19531v-2.42188c0-1.95312-0.50195-3.51562-1.50391-4.6875
		s-2.58398-1.75781-4.74609-1.75781c-1.90039,0-3.39258,0.45605-4.47266,1.36719c-1.08008,0.91211-1.62109,2.16211-1.62109,3.75
		h-11.28906c0-2.44727,0.75586-4.71289,2.26562-6.79688c1.50977-2.08301,3.64648-3.7168,6.40625-4.90234
		c2.75977-1.18457,5.85938-1.77734,9.29688-1.77734c5.20898,0,9.3418,1.30859,12.40234,3.92578s4.58984,6.2959,4.58984,11.03516
		v18.32031c0.02539,4.01074,0.58594,7.04492,1.67969,9.10156v0.66406H1419.07812z M1409.74219-127.08105
		c1.66602,0,3.20312-0.37109,4.60938-1.11328s2.44727-1.73828,3.125-2.98828v-7.26562h-4.21875
		c-5.65039,0-8.6582,1.95312-9.02344,5.85938l-0.03906,0.66406c0,1.40625,0.49414,2.56543,1.48438,3.47656
		C1406.66992-127.53613,1408.02344-127.08105,1409.74219-127.08105z"/>
	<path style="&st0;" d="M1458.81641-130.90918c0-1.37988-0.68359-2.4668-2.05078-3.26172
		c-1.36719-0.79395-3.5625-1.50391-6.58203-2.12891c-10.05273-2.10938-15.07812-6.37988-15.07812-12.8125
		c0-3.75,1.55469-6.88086,4.66797-9.39453c3.11133-2.5127,7.17969-3.76953,12.20703-3.76953
		c5.36328,0,9.6543,1.26367,12.87109,3.78906c3.21484,2.52637,4.82422,5.80762,4.82422,9.84375h-11.28906
		c0-1.61426-0.52148-2.94922-1.5625-4.00391c-1.04297-1.05469-2.66992-1.58203-4.88281-1.58203
		c-1.90234,0-3.37305,0.42969-4.41406,1.28906c-1.04297,0.85938-1.5625,1.95312-1.5625,3.28125
		c0,1.25,0.5918,2.25977,1.77734,3.02734c1.18359,0.76855,3.18359,1.43262,5.99609,1.99219
		c2.8125,0.56055,5.18164,1.19141,7.10938,1.89453c5.96289,2.1875,8.94531,5.97656,8.94531,11.36719
		c0,3.85449-1.6543,6.97266-4.96094,9.35547c-3.30859,2.38281-7.57812,3.57422-12.8125,3.57422
		c-3.54297,0-6.6875-0.63184-9.43359-1.89453c-2.74805-1.2627-4.90234-2.99414-6.46484-5.19531
		c-1.5625-2.2002-2.34375-4.57617-2.34375-7.12891h10.70312c0.10352,2.00586,0.8457,3.54199,2.22656,4.60938
		c1.37891,1.06836,3.22852,1.60156,5.54688,1.60156c2.16016,0,3.79492-0.41016,4.90234-1.23047
		C1458.26172-128.50684,1458.81641-129.58105,1458.81641-130.90918z"/>
	<path style="&st0;" d="M1490.00586-171.88574v10.39062h7.22656v8.28125h-7.22656v21.09375
		c0,1.5625,0.29883,2.68262,0.89844,3.35938c0.59766,0.67773,1.74414,1.01562,3.4375,1.01562
		c1.25,0,2.35547-0.09082,3.32031-0.27344v8.55469c-2.21484,0.67676-4.49219,1.01562-6.83594,1.01562
		c-7.91797,0-11.95312-3.99707-12.10938-11.99219v-22.77344h-6.17188v-8.28125h6.17188v-10.39062H1490.00586z"/>
	<path style="&st0;" d="M1527.15039-119.22949c-0.52148-1.01562-0.89844-2.27832-1.13281-3.78906
		c-2.73438,3.04688-6.28906,4.57031-10.66406,4.57031c-4.14062,0-7.57227-1.19727-10.29297-3.59375
		c-2.72266-2.39551-4.08203-5.41602-4.08203-9.0625c0-4.47852,1.66016-7.91602,4.98047-10.3125
		c3.32031-2.39551,8.11719-3.60645,14.39453-3.63281h5.19531v-2.42188c0-1.95312-0.50195-3.51562-1.50391-4.6875
		c-1.00391-1.17188-2.58594-1.75781-4.74609-1.75781c-1.90234,0-3.39258,0.45605-4.47266,1.36719
		c-1.08203,0.91211-1.62109,2.16211-1.62109,3.75h-11.28906c0-2.44727,0.75391-4.71289,2.26562-6.79688
		c1.50977-2.08301,3.64453-3.7168,6.40625-4.90234c2.75977-1.18457,5.85938-1.77734,9.29688-1.77734
		c5.20703,0,9.3418,1.30859,12.40234,3.92578c3.05859,2.61719,4.58984,6.2959,4.58984,11.03516v18.32031
		c0.02539,4.01074,0.58594,7.04492,1.67969,9.10156v0.66406H1527.15039z M1517.81445-127.08105
		c1.66602,0,3.20312-0.37109,4.60938-1.11328s2.44727-1.73828,3.125-2.98828v-7.26562h-4.21875
		c-5.65234,0-8.66016,1.95312-9.02344,5.85938l-0.03906,0.66406c0,1.40625,0.49414,2.56543,1.48438,3.47656
		C1514.74023-127.53613,1516.0957-127.08105,1517.81445-127.08105z"/>
	<path style="&st0;" d="M1592.42383-119.22949h-11.28906v-43.5752l-13.47656,4.16113v-9.10156l23.55469-8.4375h1.21094V-119.22949z"
		/>
	<path style="&st0;" d="M1643.20312-119.22949h-38.98438v-7.73438l18.39844-19.60938
		c2.52539-2.75977,4.39453-5.16895,5.60547-7.22656c1.21094-2.05664,1.81641-4.00977,1.81641-5.85938
		c0-2.52539-0.63867-4.51172-1.91406-5.95703s-3.09961-2.16797-5.46875-2.16797c-2.55273,0-4.56445,0.87891-6.03516,2.63672
		s-2.20703,4.06934-2.20703,6.93359h-11.32812c0-3.46289,0.82617-6.62695,2.48047-9.49219
		c1.6543-2.86426,3.99023-5.11035,7.01172-6.73828c3.02148-1.62695,6.44531-2.44141,10.27344-2.44141
		c5.85938,0,10.41016,1.40625,13.65234,4.21875s4.86328,6.78418,4.86328,11.91406c0,2.8125-0.72852,5.67773-2.1875,8.59375
		c-1.45898,2.91699-3.95898,6.31543-7.5,10.19531L1618.75-128.33105h24.45312V-119.22949z"/>
	<path style="&st0;" d="M1686.5625-176.10449l14.60938,41.25l14.53125-41.25h15.39062v56.875h-11.75781v-15.54688l1.17188-26.83594
		l-15.35156,42.38281h-8.04688l-15.3125-42.34375l1.17188,26.79688v15.54688H1671.25v-56.875H1686.5625z"/>
	<path style="&st0;" d="M1758.98438-118.44824c-6.19922,0-11.24414-1.90039-15.13672-5.70312
		c-3.89453-3.80176-5.83984-8.86719-5.83984-15.19531v-1.09375c0-4.24414,0.82031-8.04004,2.46094-11.38672
		c1.64062-3.3457,3.96484-5.92383,6.97266-7.73438c3.00781-1.80957,6.4375-2.71484,10.29297-2.71484
		c5.78125,0,10.33203,1.82324,13.65234,5.46875c3.32031,3.64648,4.98047,8.81543,4.98047,15.50781v4.60938h-26.91406
		c0.36328,2.76074,1.46484,4.97461,3.30078,6.64062c1.83594,1.66699,4.16016,2.5,6.97266,2.5
		c4.34766,0,7.74609-1.5752,10.19531-4.72656l5.54688,6.21094c-1.69336,2.39648-3.98438,4.26465-6.875,5.60547
		S1762.5-118.44824,1758.98438-118.44824z M1757.69531-153.1748c-2.24023,0-4.05664,0.75879-5.44922,2.27588
		c-1.39453,1.51758-2.28516,3.68848-2.67578,6.51318h15.70312v-0.90283c-0.05273-2.51074-0.73047-4.45312-2.03125-5.82617
		C1761.93945-152.48828,1760.08984-153.1748,1757.69531-153.1748z"/>
	<path style="&st0;" d="M1804.23242-130.90918c0-1.37988-0.68359-2.4668-2.05078-3.26172
		c-1.36719-0.79395-3.5625-1.50391-6.58203-2.12891c-10.05273-2.10938-15.07812-6.37988-15.07812-12.8125
		c0-3.75,1.55469-6.88086,4.66797-9.39453c3.11133-2.5127,7.17969-3.76953,12.20703-3.76953
		c5.36328,0,9.6543,1.26367,12.87109,3.78906c3.21484,2.52637,4.82422,5.80762,4.82422,9.84375h-11.28906
		c0-1.61426-0.52148-2.94922-1.5625-4.00391c-1.04297-1.05469-2.66992-1.58203-4.88281-1.58203
		c-1.90234,0-3.37305,0.42969-4.41406,1.28906c-1.04297,0.85938-1.5625,1.95312-1.5625,3.28125
		c0,1.25,0.5918,2.25977,1.77734,3.02734c1.18359,0.76855,3.18359,1.43262,5.99609,1.99219
		c2.8125,0.56055,5.18164,1.19141,7.10938,1.89453c5.96289,2.1875,8.94531,5.97656,8.94531,11.36719
		c0,3.85449-1.6543,6.97266-4.96094,9.35547c-3.30859,2.38281-7.57812,3.57422-12.8125,3.57422
		c-3.54297,0-6.6875-0.63184-9.43359-1.89453c-2.74805-1.2627-4.90234-2.99414-6.46484-5.19531
		c-1.5625-2.2002-2.34375-4.57617-2.34375-7.12891h10.70312c0.10352,2.00586,0.8457,3.54199,2.22656,4.60938
		c1.37891,1.06836,3.22852,1.60156,5.54688,1.60156c2.16016,0,3.79492-0.41016,4.90234-1.23047
		C1803.67773-128.50684,1804.23242-129.58105,1804.23242-130.90918z"/>
	<path style="&st0;" d="M1840.0957-118.44824c-6.19922,0-11.24414-1.90039-15.13672-5.70312
		c-3.89453-3.80176-5.83984-8.86719-5.83984-15.19531v-1.09375c0-4.24414,0.82031-8.04004,2.46094-11.38672
		c1.64062-3.3457,3.96484-5.92383,6.97266-7.73438c3.00781-1.80957,6.4375-2.71484,10.29297-2.71484
		c5.78125,0,10.33203,1.82324,13.65234,5.46875c3.32031,3.64648,4.98047,8.81543,4.98047,15.50781v4.60938h-26.91406
		c0.36328,2.76074,1.46484,4.97461,3.30078,6.64062c1.83594,1.66699,4.16016,2.5,6.97266,2.5
		c4.34766,0,7.74609-1.5752,10.19531-4.72656l5.54688,6.21094c-1.69336,2.39648-3.98438,4.26465-6.875,5.60547
		S1843.61133-118.44824,1840.0957-118.44824z M1838.80664-153.1748c-2.24023,0-4.05664,0.75879-5.44922,2.27588
		c-1.39453,1.51758-2.28516,3.68848-2.67578,6.51318h15.70312v-0.90283c-0.05273-2.51074-0.73047-4.45312-2.03125-5.82617
		C1843.05078-152.48828,1841.20117-153.1748,1838.80664-153.1748z"/>
	<path style="&st0;" d="M1885.3418-130.90918c0-1.37988-0.68359-2.4668-2.05078-3.26172
		c-1.36719-0.79395-3.56055-1.50391-6.58203-2.12891c-10.05273-2.10938-15.07812-6.37988-15.07812-12.8125
		c0-3.75,1.55664-6.88086,4.66797-9.39453c3.11133-2.5127,7.18164-3.76953,12.20703-3.76953
		c5.36523,0,9.6543,1.26367,12.87109,3.78906c3.2168,2.52637,4.82422,5.80762,4.82422,9.84375h-11.28906
		c0-1.61426-0.52148-2.94922-1.5625-4.00391s-2.66992-1.58203-4.88281-1.58203c-1.90039,0-3.37305,0.42969-4.41406,1.28906
		s-1.5625,1.95312-1.5625,3.28125c0,1.25,0.5918,2.25977,1.77734,3.02734c1.18555,0.76855,3.18359,1.43262,5.99609,1.99219
		c2.8125,0.56055,5.18164,1.19141,7.10938,1.89453c5.96289,2.1875,8.94531,5.97656,8.94531,11.36719
		c0,3.85449-1.6543,6.97266-4.96094,9.35547s-7.57812,3.57422-12.8125,3.57422c-3.54102,0-6.68555-0.63184-9.43359-1.89453
		s-4.90234-2.99414-6.46484-5.19531c-1.5625-2.2002-2.34375-4.57617-2.34375-7.12891h10.70312
		c0.10352,2.00586,0.8457,3.54199,2.22656,4.60938c1.38086,1.06836,3.22852,1.60156,5.54688,1.60156
		c2.16211,0,3.79492-0.41016,4.90234-1.23047S1885.3418-129.58105,1885.3418-130.90918z"/>
	<path style="&st0;" d="M1369.25-54.15136c0-2.21289-0.78125-3.91211-2.34375-5.09766c-1.5625-1.18457-4.375-2.43457-8.4375-3.75
		c-4.0625-1.31446-7.2793-2.61036-9.64844-3.88672c-6.45898-3.48926-9.6875-8.18945-9.6875-14.10156
		c0-3.07227,0.86523-5.81348,2.59766-8.22266c1.73047-2.4082,4.21875-4.29004,7.46094-5.64453
		c3.24219-1.35352,6.88086-2.03125,10.91797-2.03125c4.0625,0,7.68164,0.73633,10.85938,2.20703
		c3.17578,1.47168,5.64453,3.54883,7.40234,6.23047c1.75781,2.68262,2.63672,5.72949,2.63672,9.14062h-11.71875
		c0-2.60352-0.82031-4.62891-2.46094-6.07422s-3.94531-2.16797-6.91406-2.16797c-2.86523,0-5.0918,0.60547-6.67969,1.81641
		c-1.58984,1.21094-2.38281,2.80664-2.38281,4.78516c0,1.84961,0.92969,3.39844,2.79297,4.64844
		c1.86133,1.25,4.60156,2.42188,8.22266,3.51562c6.66602,2.00586,11.52344,4.49219,14.57031,7.46094
		c3.04688,2.96875,4.57031,6.667,4.57031,11.09375c0,4.92188-1.86328,8.7832-5.58594,11.58203
		c-3.72461,2.7998-8.73828,4.19922-15.03906,4.19922c-4.375,0-8.35938-0.80078-11.95312-2.40234s-6.33594-3.79492-8.22266-6.58203
		c-1.88867-2.78613-2.83203-6.01562-2.83203-9.6875h11.75781c0,6.27637,3.75,9.41406,11.25,9.41406
		c2.78516,0,4.96094-0.56641,6.52344-1.69922S1369.25-52.12011,1369.25-54.15136z"/>
	<path style="&st0;" d="M1386.94922-92.43262c0-1.69238,0.56641-3.08594,1.69922-4.17969s2.67578-1.64062,4.62891-1.64062
		c1.92578,0,3.46289,0.54688,4.60938,1.64062c1.14453,1.09375,1.71875,2.4873,1.71875,4.17969
		c0,1.71875-0.58008,3.125-1.73828,4.21875c-1.16016,1.09375-2.68945,1.64062-4.58984,1.64062
		c-1.90234,0-3.43164-0.54688-4.58984-1.64062C1387.52734-89.30762,1386.94922-90.71387,1386.94922-92.43262z M1398.94141-39.22949
		h-11.32812v-42.26563h11.32812V-39.22949z"/>
	<path style="&st0;" d="M1417.39648-81.49512l0.35156,4.88281c3.01953-3.77539,7.07031-5.66406,12.14844-5.66406
		c4.47852,0,7.8125,1.31543,10,3.94531c2.1875,2.63086,3.30664,6.5625,3.35938,11.79688v27.30469h-11.28906v-27.09375
		c0-2.40088-0.52148-4.14355-1.5625-5.22656c-1.04297-1.08301-2.77344-1.625-5.19531-1.625
		c-3.17773,0-5.56055,1.35742-7.14844,4.07178v29.87354h-11.28906v-42.26563H1417.39648z"/>
	<path style="&st0;" d="M1484.93555-39.22949h-11.71875v-56.875h11.71875V-39.22949z"/>
	<path style="&st0;" d="M1504.33203-81.49512l0.35156,4.88281c3.01953-3.77539,7.07031-5.66406,12.14844-5.66406
		c4.47852,0,7.8125,1.31543,10,3.94531c2.1875,2.63086,3.30664,6.5625,3.35938,11.79688v27.30469h-11.28906v-27.09375
		c0-2.40088-0.52148-4.14355-1.5625-5.22656c-1.04297-1.08301-2.77344-1.625-5.19531-1.625
		c-3.17773,0-5.56055,1.35742-7.14844,4.07178v29.87354h-11.28906v-42.26563H1504.33203z"/>
	<path style="&st0;" d="M1550.99609-91.88574v10.39062h7.22656v8.28125h-7.22656v21.09375c0,1.5625,0.29883,2.68262,0.89844,3.35938
		c0.59961,0.67773,1.74414,1.01562,3.4375,1.01562c1.25,0,2.35742-0.09082,3.32031-0.27344v8.55469
		c-2.21289,0.67676-4.49219,1.01562-6.83594,1.01562c-7.91602,0-11.95312-3.99707-12.10938-11.99219v-22.77344h-6.17188v-8.28125
		h6.17188v-10.39062H1550.99609z"/>
	<path style="&st0;" d="M1581.83008-38.44824c-6.19922,0-11.24414-1.90039-15.13672-5.70312
		c-3.89453-3.80176-5.83984-8.86719-5.83984-15.19531v-1.09375c0-4.24414,0.82031-8.04004,2.46094-11.38672
		c1.64062-3.3457,3.96484-5.92383,6.97266-7.73438c3.00781-1.80957,6.4375-2.71484,10.29297-2.71484
		c5.78125,0,10.33203,1.82324,13.65234,5.46875c3.32031,3.64648,4.98047,8.81543,4.98047,15.50782v4.60938h-26.91406
		c0.36328,2.76074,1.46484,4.97461,3.30078,6.64062c1.83594,1.66699,4.16016,2.5,6.97266,2.5
		c4.34766,0,7.74609-1.5752,10.19531-4.72656l5.54688,6.21094c-1.69336,2.39648-3.98438,4.26465-6.875,5.60547
		S1585.3457-38.44824,1581.83008-38.44824z M1580.54102-73.1748c-2.24023,0-4.05664,0.75879-5.44922,2.27588
		c-1.39453,1.51758-2.28516,3.68848-2.67578,6.51318h15.70312v-0.90283c-0.05273-2.51074-0.73047-4.45312-2.03125-5.82617
		C1584.78516-72.48828,1582.93555-73.1748,1580.54102-73.1748z"/>
	<path style="&st0;" d="M1628.63281-70.90918c-1.53711-0.20801-2.89062-0.3125-4.0625-0.3125
		c-4.27148,0-7.07031,1.44531-8.39844,4.33594v27.65625h-11.28906v-42.26563h10.66406l0.3125,5.03906
		c2.26562-3.87988,5.40234-5.82031,9.41406-5.82031c1.25,0,2.42188,0.16992,3.51562,0.50781L1628.63281-70.90918z"/>
	<path style="&st0;" d="M1652.08398-38.44824c-6.19922,0-11.24414-1.90039-15.13672-5.70312
		c-3.89453-3.80176-5.83984-8.86719-5.83984-15.19531v-1.09375c0-4.24414,0.82031-8.04004,2.46094-11.38672
		c1.64062-3.3457,3.96484-5.92383,6.97266-7.73438c3.00781-1.80957,6.4375-2.71484,10.29297-2.71484
		c5.78125,0,10.33203,1.82324,13.65234,5.46875c3.32031,3.64648,4.98047,8.81543,4.98047,15.50782v4.60938h-26.91406
		c0.36328,2.76074,1.46484,4.97461,3.30078,6.64062c1.83594,1.66699,4.16016,2.5,6.97266,2.5
		c4.34766,0,7.74609-1.5752,10.19531-4.72656l5.54688,6.21094c-1.69336,2.39648-3.98438,4.26465-6.875,5.60547
		S1655.59961-38.44824,1652.08398-38.44824z M1650.79492-73.1748c-2.24023,0-4.05664,0.75879-5.44922,2.27588
		c-1.39453,1.51758-2.28516,3.68848-2.67578,6.51318h15.70312v-0.90283c-0.05273-2.51074-0.73047-4.45312-2.03125-5.82617
		C1655.03906-72.48828,1653.18945-73.1748,1650.79492-73.1748z"/>
	<path style="&st0;" d="M1697.33203-50.90918c0-1.37988-0.68359-2.4668-2.05078-3.26172
		c-1.36719-0.79395-3.5625-1.50391-6.58203-2.12891c-10.05273-2.10938-15.07812-6.37988-15.07812-12.8125
		c0-3.75,1.55469-6.88086,4.66797-9.39453c3.11133-2.5127,7.17969-3.76953,12.20703-3.76953
		c5.36328,0,9.6543,1.26367,12.87109,3.78906c3.21484,2.52637,4.82422,5.80762,4.82422,9.84375h-11.28906
		c0-1.61426-0.52148-2.94922-1.5625-4.00391c-1.04297-1.05469-2.66992-1.58203-4.88281-1.58203
		c-1.90234,0-3.37305,0.42969-4.41406,1.28906c-1.04297,0.85938-1.5625,1.95312-1.5625,3.28125
		c0,1.25,0.5918,2.25977,1.77734,3.02734c1.18359,0.76855,3.18359,1.43262,5.99609,1.99219
		c2.8125,0.56055,5.18164,1.19141,7.10938,1.89454c5.96289,2.1875,8.94531,5.97656,8.94531,11.36719
		c0,3.85449-1.6543,6.97266-4.96094,9.35547c-3.30859,2.38281-7.57812,3.57422-12.8125,3.57422
		c-3.54297,0-6.6875-0.63184-9.43359-1.89453c-2.74805-1.2627-4.90234-2.99414-6.46484-5.19531
		c-1.5625-2.2002-2.34375-4.57617-2.34375-7.12891h10.70312c0.10352,2.00586,0.8457,3.54199,2.22656,4.60938
		c1.37891,1.06836,3.22852,1.60156,5.54688,1.60156c2.16016,0,3.79492-0.41016,4.90234-1.23047
		C1696.77734-48.50683,1697.33203-49.58105,1697.33203-50.90918z"/>
	<path style="&st0;" d="M1733.19531-38.44824c-6.19922,0-11.24414-1.90039-15.13672-5.70312
		c-3.89453-3.80176-5.83984-8.86719-5.83984-15.19531v-1.09375c0-4.24414,0.82031-8.04004,2.46094-11.38672
		c1.64062-3.3457,3.96484-5.92383,6.97266-7.73438c3.00781-1.80957,6.4375-2.71484,10.29297-2.71484
		c5.78125,0,10.33203,1.82324,13.65234,5.46875c3.32031,3.64648,4.98047,8.81543,4.98047,15.50782v4.60938h-26.91406
		c0.36328,2.76074,1.46484,4.97461,3.30078,6.64062c1.83594,1.66699,4.16016,2.5,6.97266,2.5
		c4.34766,0,7.74609-1.5752,10.19531-4.72656l5.54688,6.21094c-1.69336,2.39648-3.98438,4.26465-6.875,5.60547
		S1736.71094-38.44824,1733.19531-38.44824z M1731.90625-73.1748c-2.24023,0-4.05664,0.75879-5.44922,2.27588
		c-1.39453,1.51758-2.28516,3.68848-2.67578,6.51318h15.70312v-0.90283c-0.05273-2.51074-0.73047-4.45312-2.03125-5.82617
		C1736.15039-72.48828,1734.30078-73.1748,1731.90625-73.1748z"/>
	<path style="&st0;" d="M1778.44141-50.90918c0-1.37988-0.68359-2.4668-2.05078-3.26172
		c-1.36719-0.79395-3.56055-1.50391-6.58203-2.12891c-10.05273-2.10938-15.07812-6.37988-15.07812-12.8125
		c0-3.75,1.55664-6.88086,4.66797-9.39453c3.11133-2.5127,7.18164-3.76953,12.20703-3.76953
		c5.36523,0,9.6543,1.26367,12.87109,3.78906c3.2168,2.52637,4.82422,5.80762,4.82422,9.84375h-11.28906
		c0-1.61426-0.52148-2.94922-1.5625-4.00391s-2.66992-1.58203-4.88281-1.58203c-1.90039,0-3.37305,0.42969-4.41406,1.28906
		s-1.5625,1.95312-1.5625,3.28125c0,1.25,0.5918,2.25977,1.77734,3.02734c1.18555,0.76855,3.18359,1.43262,5.99609,1.99219
		c2.8125,0.56055,5.18164,1.19141,7.10938,1.89454c5.96289,2.1875,8.94531,5.97656,8.94531,11.36719
		c0,3.85449-1.6543,6.97266-4.96094,9.35547s-7.57812,3.57422-12.8125,3.57422c-3.54102,0-6.68555-0.63184-9.43359-1.89453
		s-4.90234-2.99414-6.46484-5.19531c-1.5625-2.2002-2.34375-4.57617-2.34375-7.12891h10.70312
		c0.10352,2.00586,0.8457,3.54199,2.22656,4.60938c1.38086,1.06836,3.22852,1.60156,5.54688,1.60156
		c2.16211,0,3.79492-0.41016,4.90234-1.23047S1778.44141-49.58105,1778.44141-50.90918z"/>
</g>
</svg>
