<?xml version="1.0" encoding="iso-8859-1"?>
<!-- Generator: Adobe Illustrator 17.0.0, SVG Export Plug-In . SVG Version: 6.00 Build 0)  -->
<!DOCTYPE svg PUBLIC "-//W3C//DTD SVG 1.1//EN" "http://www.w3.org/Graphics/SVG/1.1/DTD/svg11.dtd" [
	<!ENTITY st0 "fill:#1A4162;">
	<!ENTITY st1 "fill:none;">
	<!ENTITY st2 "fill:#F2709E;">
	<!ENTITY st3 "fill:#E3E5E5;">
	<!ENTITY st4 "fill:#F0C41B;">
	<!ENTITY st5 "fill:#FAE196;">
	<!ENTITY st6 "fill:#FFFFFF;">
	<!ENTITY st7 "fill:#E6AA46;">
	<!ENTITY st8 "fill:#D1D1D1;">
]>
<svg version="1.1" id="Capa_1" xmlns="http://www.w3.org/2000/svg" xmlns:xlink="http://www.w3.org/1999/xlink" x="0px" y="0px"
	 width="999.09991px" height="264.0264px" viewBox="39.80198 374.75726 999.09991 264.0264"
	 style="enable-background:new 39.80198 374.75726 999.09991 264.0264;" xml:space="preserve">
<g>
	<g>
		<path style="&st0;" d="M311.41406,456.8389v19.78857H299.8418v-56.16406h21.91016c4.2168,0,7.92676,0.77148,11.12891,2.31445
			c3.20117,1.54297,5.66309,3.73584,7.38672,6.57715c1.72266,2.8418,2.58496,6.0752,2.58496,9.70117
			c0,5.50342-1.88477,9.84326-5.65137,13.01855c-3.76758,3.17676-8.98242,4.76416-15.6416,4.76416H311.41406z M311.41406,447.46536
			h10.33789c3.05957,0,5.39355-0.71973,7.00098-2.16016c1.60742-1.43994,2.41113-3.49707,2.41113-6.17188
			c0-2.75146-0.80957-4.97607-2.43066-6.67334c-1.61914-1.69727-3.85742-2.57129-6.71094-2.62305h-10.6084V447.46536z"/>
		<path style="&st0;" d="M372.16504,476.62747c-0.51465-1.00293-0.8877-2.25-1.11816-3.7417
			c-2.70117,3.00879-6.21094,4.51318-10.53125,4.51318c-4.08887,0-7.47754-1.18262-10.16406-3.54883
			c-2.6875-2.36572-4.03125-5.34863-4.03125-8.94922c0-4.42285,1.63965-7.81738,4.91797-10.18359
			c3.2793-2.36572,8.0166-3.56152,14.21484-3.5874h5.13086v-2.3916c0-1.92871-0.49609-3.47168-1.48535-4.62891
			c-0.99023-1.15723-2.55273-1.73584-4.68652-1.73584c-1.87793,0-3.35059,0.4502-4.41699,1.3501
			c-1.06738,0.90039-1.60059,2.13477-1.60059,3.70312h-11.14844c0-2.41699,0.74512-4.6543,2.2373-6.71191
			c1.49121-2.05713,3.59961-3.67041,6.32617-4.84131c2.72559-1.16943,5.78613-1.75488,9.18066-1.75488
			c5.14258,0,9.22559,1.29199,12.24707,3.87695c3.02148,2.58398,4.53223,6.2168,4.53223,10.89697v18.09131
			c0.02539,3.96045,0.5791,6.95654,1.65918,8.98779v0.65576H372.16504z M362.94531,468.87405
			c1.64551,0,3.16406-0.3667,4.55273-1.09912c1.38867-0.7334,2.41602-1.7168,3.08594-2.95117v-7.1748h-4.16602
			c-5.58105,0-8.55176,1.92871-8.91113,5.78613l-0.03809,0.65576c0,1.38867,0.4873,2.5332,1.46484,3.43311
			C359.91113,468.42435,361.24805,468.87405,362.94531,468.87405z"/>
		<path style="&st0;" d="M387.12598,455.45023c0-6.40332,1.52344-11.55908,4.57031-15.46826
			c3.04785-3.90869,7.15625-5.86328,12.32422-5.86328c4.57715,0,8.13965,1.56885,10.68555,4.70605l0.46289-3.93457h10.10645
			v40.34863c0,3.65137-0.8291,6.82764-2.48828,9.52783c-1.6582,2.7002-3.99219,4.75732-7.00098,6.17188
			c-3.00879,1.41406-6.53223,2.12158-10.56934,2.12158c-3.06055,0-6.04395-0.61133-8.94922-1.83203
			c-2.90625-1.22217-5.10547-2.79688-6.59668-4.72559l4.9375-6.78906c2.77734,3.11133,6.14648,4.66748,10.10742,4.66748
			c2.95605,0,5.25781-0.79053,6.9043-2.37256c1.64551-1.58105,2.46875-3.8252,2.46875-6.73096v-2.2373
			c-2.57227,2.90625-5.9541,4.35889-10.14453,4.35889c-5.01562,0-9.07227-1.96045-12.1709-5.88281
			c-3.09863-3.9209-4.64746-9.12256-4.64746-15.60303V455.45023z M398.27344,456.24319c0,3.79785,0.75781,6.77539,2.27637,8.93262
			c1.5166,2.15723,3.59961,3.23535,6.24805,3.23535c3.39453,0,5.8252-1.27832,7.29102-3.83643V446.9429
			c-1.49219-2.55762-3.89648-3.83643-7.21289-3.83643c-2.67578,0-4.77734,1.09814-6.30762,3.29395
			C399.03809,448.59671,398.27344,451.87747,398.27344,456.24319z"/>
		<path style="&st0;" d="M456.85547,476.62747c-0.51465-1.00293-0.8877-2.25-1.11816-3.7417
			c-2.70117,3.00879-6.21094,4.51318-10.53125,4.51318c-4.08887,0-7.47754-1.18262-10.16406-3.54883
			c-2.6875-2.36572-4.03125-5.34863-4.03125-8.94922c0-4.42285,1.63965-7.81738,4.91797-10.18359
			c3.2793-2.36572,8.0166-3.56152,14.21484-3.5874h5.13086v-2.3916c0-1.92871-0.49609-3.47168-1.48535-4.62891
			c-0.99023-1.15723-2.55273-1.73584-4.68652-1.73584c-1.87793,0-3.35059,0.4502-4.41699,1.3501
			c-1.06738,0.90039-1.60059,2.13477-1.60059,3.70312h-11.14844c0-2.41699,0.74512-4.6543,2.2373-6.71191
			c1.49121-2.05713,3.59961-3.67041,6.32617-4.84131c2.72559-1.16943,5.78613-1.75488,9.18066-1.75488
			c5.14258,0,9.22559,1.29199,12.24707,3.87695c3.02148,2.58398,4.53223,6.2168,4.53223,10.89697v18.09131
			c0.02539,3.96045,0.5791,6.95654,1.65918,8.98779v0.65576H456.85547z M447.63574,468.87405
			c1.64551,0,3.16406-0.3667,4.55273-1.09912c1.38867-0.7334,2.41602-1.7168,3.08594-2.95117v-7.1748h-4.16602
			c-5.58105,0-8.55176,1.92871-8.91113,5.78613l-0.03809,0.65576c0,1.38867,0.4873,2.5332,1.46484,3.43311
			C444.60156,468.42435,445.93848,468.87405,447.63574,468.87405z"/>
		<path style="&st0;" d="M518.88281,476.62747c-0.51465-1.00293-0.8877-2.25-1.11816-3.7417
			c-2.70117,3.00879-6.21094,4.51318-10.53125,4.51318c-4.08887,0-7.47754-1.18262-10.16406-3.54883
			c-2.6875-2.36572-4.03125-5.34863-4.03125-8.94922c0-4.42285,1.63965-7.81738,4.91797-10.18359
			c3.2793-2.36572,8.0166-3.56152,14.21484-3.5874h5.13086v-2.3916c0-1.92871-0.49609-3.47168-1.48535-4.62891
			c-0.99023-1.15723-2.55273-1.73584-4.68652-1.73584c-1.87793,0-3.35059,0.4502-4.41699,1.3501
			c-1.06738,0.90039-1.60059,2.13477-1.60059,3.70312h-11.14844c0-2.41699,0.74512-4.6543,2.2373-6.71191
			c1.49121-2.05713,3.59961-3.67041,6.32617-4.84131c2.72559-1.16943,5.78613-1.75488,9.18066-1.75488
			c5.14258,0,9.22559,1.29199,12.24707,3.87695c3.02148,2.58398,4.53223,6.2168,4.53223,10.89697v18.09131
			c0.02539,3.96045,0.5791,6.95654,1.65918,8.98779v0.65576H518.88281z M509.66309,468.87405
			c1.64551,0,3.16406-0.3667,4.55273-1.09912c1.38867-0.7334,2.41602-1.7168,3.08594-2.95117v-7.1748h-4.16602
			c-5.58105,0-8.55176,1.92871-8.91113,5.78613l-0.03809,0.65576c0,1.38867,0.4873,2.5332,1.46484,3.43311
			C506.62891,468.42435,507.96582,468.87405,509.66309,468.87405z"/>
		<path style="&st0;" d="M583.34082,476.62747h-11.14844v-43.03076l-13.30859,4.10938v-8.98779l23.26074-8.33203h1.19629V476.62747z
			"/>
		<path style="&st0;" d="M633.48633,476.62747h-38.49805v-7.6377l18.16895-19.36426
			c2.49414-2.72559,4.33984-5.10449,5.53516-7.13623c1.19629-2.03125,1.79395-3.95996,1.79395-5.78613
			c0-2.49414-0.63086-4.45557-1.89062-5.88232c-1.25977-1.42773-3.06055-2.14111-5.40039-2.14111
			c-2.52051,0-4.50684,0.86768-5.95898,2.604c-1.45312,1.73535-2.17969,4.01807-2.17969,6.84668h-11.18652
			c0-3.41992,0.81641-6.54443,2.44922-9.37354c1.63281-2.82861,3.94043-5.04639,6.9248-6.65381
			c2.98242-1.60693,6.36426-2.41113,10.14453-2.41113c5.78613,0,10.28027,1.38867,13.48145,4.16602
			c3.20215,2.77734,4.80273,6.69922,4.80273,11.76514c0,2.77734-0.7207,5.60645-2.16016,8.48633
			c-1.44043,2.88037-3.90918,6.23633-7.40625,10.06787l-12.76855,13.4624h24.14844V476.62747z"/>
		<path style="&st0;" d="M676.30273,420.46341l14.42676,40.73438l14.34961-40.73438h15.19824v56.16406h-11.61035v-15.35254
			l1.15625-26.50049l-15.15918,41.85303h-7.94629l-15.12109-41.81445l1.15723,26.46191v15.35254h-11.57227v-56.16406H676.30273z"/>
		<path style="&st0;" d="M747.81836,477.39896c-6.12109,0-11.10352-1.87695-14.94824-5.63184
			c-3.84473-3.75439-5.7666-8.75635-5.7666-15.00537v-1.08008c0-4.19141,0.81055-7.93945,2.42969-11.24463
			c1.62109-3.30371,3.91602-5.84961,6.88574-7.6377c2.9707-1.78662,6.3584-2.68066,10.16504-2.68066
			c5.70898,0,10.20215,1.80029,13.48145,5.40039c3.27832,3.60059,4.91797,8.70508,4.91797,15.31396v4.55176h-26.57715
			c0.35938,2.72607,1.44629,4.91211,3.25879,6.55762c1.81348,1.646,4.1084,2.46875,6.88574,2.46875
			c4.29395,0,7.65039-1.55566,10.06836-4.66748l5.47656,6.1333c-1.67188,2.36621-3.93359,4.21143-6.78906,5.53564
			C754.45312,476.73636,751.28906,477.39896,747.81836,477.39896z M746.54492,443.10648c-2.21191,0-4.00586,0.74902-5.38086,2.24756
			c-1.37598,1.49854-2.25684,3.64209-2.64258,6.43164h15.50684v-0.8916c-0.05176-2.47949-0.7207-4.39746-2.00586-5.75342
			C750.73633,443.7847,748.91016,443.10648,746.54492,443.10648z"/>
		<path style="&st0;" d="M792.5,465.09378c0-1.36279-0.67578-2.43604-2.02539-3.22119c-1.35059-0.78369-3.51758-1.48486-6.5-2.10205
			c-9.92676-2.08301-14.88965-6.30029-14.88965-12.65234c0-3.70312,1.53613-6.79492,4.60938-9.27686
			c3.07324-2.48145,7.09082-3.72266,12.05469-3.72266c5.29688,0,9.53418,1.24756,12.70996,3.7417
			c3.17578,2.49463,4.76367,5.73486,4.76367,9.7207H792.0752c0-1.59424-0.51465-2.9126-1.54297-3.95361
			c-1.0293-1.04199-2.63672-1.5625-4.82129-1.5625c-1.87793,0-3.33105,0.42432-4.35938,1.27295
			c-1.0293,0.84863-1.54297,1.92871-1.54297,3.24023c0,1.23438,0.58496,2.23145,1.75488,2.98975
			c1.16992,0.75879,3.14355,1.41455,5.9209,1.9668c2.77734,0.55371,5.11719,1.17676,7.02148,1.87109
			c5.8877,2.16016,8.83301,5.90186,8.83301,11.2251c0,3.80615-1.63379,6.88525-4.89941,9.23877
			c-3.26562,2.35254-7.48242,3.5293-12.65234,3.5293c-3.49707,0-6.60254-0.62402-9.31543-1.87109
			c-2.71289-1.24658-4.84082-2.95654-6.38379-5.12988c-1.54297-2.17285-2.31445-4.51953-2.31445-7.04004h10.56934
			c0.10254,1.98047,0.83496,3.49756,2.19824,4.55176c1.36328,1.05469,3.18848,1.58154,5.47852,1.58154
			c2.13379,0,3.74707-0.40479,4.84082-1.21533C791.95312,467.46634,792.5,466.4053,792.5,465.09378z"/>
		<path style="&st0;" d="M827.91602,477.39896c-6.12109,0-11.10352-1.87695-14.94824-5.63184
			c-3.84473-3.75439-5.7666-8.75635-5.7666-15.00537v-1.08008c0-4.19141,0.81055-7.93945,2.42969-11.24463
			c1.62109-3.30371,3.91602-5.84961,6.88574-7.6377c2.9707-1.78662,6.3584-2.68066,10.16504-2.68066
			c5.70898,0,10.20215,1.80029,13.48145,5.40039c3.27832,3.60059,4.91797,8.70508,4.91797,15.31396v4.55176h-26.57715
			c0.35938,2.72607,1.44629,4.91211,3.25879,6.55762c1.81348,1.646,4.1084,2.46875,6.88574,2.46875
			c4.29395,0,7.65039-1.55566,10.06836-4.66748l5.47656,6.1333c-1.67188,2.36621-3.93359,4.21143-6.78906,5.53564
			C834.55078,476.73636,831.38672,477.39896,827.91602,477.39896z M826.64258,443.10648c-2.21191,0-4.00586,0.74902-5.38086,2.24756
			c-1.37598,1.49854-2.25684,3.64209-2.64258,6.43164h15.50684v-0.8916c-0.05176-2.47949-0.7207-4.39746-2.00586-5.75342
			C830.83398,443.7847,829.00781,443.10648,826.64258,443.10648z"/>
		<path style="&st0;" d="M872.59766,465.09378c0-1.36279-0.67578-2.43604-2.02539-3.22119
			c-1.35059-0.78369-3.51758-1.48486-6.5-2.10205c-9.92676-2.08301-14.88965-6.30029-14.88965-12.65234
			c0-3.70312,1.53613-6.79492,4.60938-9.27686c3.07324-2.48145,7.09082-3.72266,12.05469-3.72266
			c5.29688,0,9.53418,1.24756,12.70996,3.7417c3.17578,2.49463,4.76367,5.73486,4.76367,9.7207h-11.14746
			c0-1.59424-0.51465-2.9126-1.54297-3.95361c-1.0293-1.04199-2.63672-1.5625-4.82129-1.5625
			c-1.87793,0-3.33105,0.42432-4.35938,1.27295c-1.0293,0.84863-1.54297,1.92871-1.54297,3.24023
			c0,1.23438,0.58496,2.23145,1.75488,2.98975c1.16992,0.75879,3.14355,1.41455,5.9209,1.9668
			c2.77734,0.55371,5.11719,1.17676,7.02148,1.87109c5.8877,2.16016,8.83301,5.90186,8.83301,11.2251
			c0,3.80615-1.63379,6.88525-4.89941,9.23877c-3.26562,2.35254-7.48242,3.5293-12.65234,3.5293
			c-3.49707,0-6.60254-0.62402-9.31543-1.87109c-2.71289-1.24658-4.84082-2.95654-6.38379-5.12988
			c-1.54297-2.17285-2.31445-4.51953-2.31445-7.04004h10.56934c0.10254,1.98047,0.83496,3.49756,2.19824,4.55176
			c1.36328,1.05469,3.18848,1.58154,5.47852,1.58154c2.13379,0,3.74707-0.40479,4.84082-1.21533
			C872.05078,467.46634,872.59766,466.4053,872.59766,465.09378z"/>
		<path style="&st0;" d="M328.96582,542.89209c0-2.18555-0.77148-3.86328-2.31445-5.03418
			c-1.54297-1.16943-4.32031-2.40381-8.33203-3.70312c-4.01172-1.29785-7.18848-2.57764-9.52832-3.83789
			c-6.37793-3.4458-9.56641-8.0874-9.56641-13.92529c0-3.03418,0.85449-5.74069,2.56543-8.1196
			c1.70996-2.37842,4.16602-4.23682,7.36719-5.57422c3.20215-1.33691,6.79492-2.00586,10.78125-2.00586
			c4.01172,0,7.58594,0.72705,10.72461,2.17969c3.13672,1.45312,5.57324,3.50391,7.30957,6.15234
			c1.73535,2.64893,2.60352,5.65768,2.60352,9.02634h-11.57227c0-2.57129-0.80957-4.57129-2.43066-5.99805
			c-1.61914-1.4277-3.89551-2.14108-6.82715-2.14108c-2.8291,0-5.02832,0.59814-6.59668,1.79346
			c-1.56836,1.19626-2.35254,2.77145-2.35254,4.72556c0,1.82617,0.91895,3.35596,2.75781,4.59033s4.54492,2.3916,8.12012,3.47168
			c6.58301,1.98047,11.37891,4.43604,14.38867,7.36768c3.00781,2.93164,4.5127,6.5835,4.5127,10.95508
			c0,4.86035-1.83887,8.67334-5.5166,11.4375c-3.67773,2.76465-8.62793,4.14648-14.85059,4.14648
			c-4.32031,0-8.25488-0.79102-11.80371-2.37207c-3.54883-1.58203-6.25586-3.74805-8.12012-6.5
			c-1.86426-2.75146-2.7959-5.94043-2.7959-9.56641h11.61035c0,6.19775,3.70312,9.29639,11.10938,9.29639
			c2.75098,0,4.89941-0.55908,6.44238-1.67822C328.19434,546.46045,328.96582,544.89795,328.96582,542.89209z"/>
		<path style="&st0;" d="M346.44434,505.08939c0-1.67139,0.55859-3.04736,1.67773-4.12744
			c1.11816-1.08008,2.64258-1.62012,4.57031-1.62012c1.90332,0,3.41992,0.54004,4.55273,1.62012
			c1.13086,1.08008,1.69727,2.45605,1.69727,4.12744c0,1.69727-0.57324,3.08594-1.7168,4.16602
			c-1.14453,1.08008-2.65625,1.62012-4.5332,1.62012s-3.3877-0.54004-4.53223-1.62012S346.44434,506.78665,346.44434,505.08939z
			 M358.28613,557.62744h-11.18652v-41.7373h11.18652V557.62744z"/>
		<path style="&st0;" d="M376.51074,515.89014l0.34668,4.82178c2.98242-3.72852,6.98145-5.59326,11.99707-5.59326
			c4.42188,0,7.71484,1.29883,9.875,3.896c2.16016,2.59766,3.26465,6.48047,3.31641,11.64941v26.96338h-11.14746v-26.75488
			c0-2.37109-0.51465-4.0918-1.54297-5.16162c-1.0293-1.06934-2.73926-1.60449-5.12988-1.60449
			c-3.13867,0-5.49121,1.34033-7.05957,4.021v29.5h-11.14746v-41.7373H376.51074z"/>
		<path style="&st0;" d="M443.20508,557.62744h-11.57227v-56.16403h11.57227V557.62744z"/>
		<path style="&st0;" d="M462.3584,515.89014l0.34668,4.82178c2.98242-3.72852,6.98145-5.59326,11.99707-5.59326
			c4.42188,0,7.71484,1.29883,9.875,3.896c2.16016,2.59766,3.26465,6.48047,3.31641,11.64941v26.96338h-11.14746v-26.75488
			c0-2.37109-0.51465-4.0918-1.54297-5.16162c-1.0293-1.06934-2.73926-1.60449-5.12988-1.60449
			c-3.13867,0-5.49121,1.34033-7.05957,4.021v29.5h-11.14746v-41.7373H462.3584z"/>
		<path style="&st0;" d="M508.44043,505.62943v10.26071h7.13574v8.17773h-7.13574v20.83008
			c0,1.54297,0.29492,2.64893,0.88672,3.31738c0.59082,0.66895,1.72266,1.00293,3.39453,1.00293
			c1.23438,0,2.32715-0.08984,3.2793-0.27002v8.44775c-2.18652,0.66846-4.43652,1.00293-6.75098,1.00293
			c-7.81836,0-11.80371-3.94727-11.95801-11.84229v-22.48877h-6.09473v-8.17773h6.09473v-10.26071H508.44043z"/>
		<path style="&st0;" d="M538.8877,558.39893c-6.12109,0-11.10352-1.87695-14.94824-5.63184
			c-3.84473-3.75439-5.7666-8.75635-5.7666-15.00537v-1.08008c0-4.19141,0.81055-7.93945,2.42969-11.24463
			c1.62109-3.30371,3.91602-5.84961,6.88574-7.6377c2.9707-1.78662,6.3584-2.68066,10.16504-2.68066
			c5.70898,0,10.20215,1.80029,13.48145,5.40039c3.27832,3.60059,4.91797,8.70508,4.91797,15.31396v4.55176h-26.57715
			c0.35938,2.72607,1.44629,4.91211,3.25879,6.55762c1.81348,1.646,4.1084,2.46875,6.88574,2.46875
			c4.29395,0,7.65039-1.55566,10.06836-4.66748l5.47656,6.1333c-1.67188,2.36621-3.93359,4.21143-6.78906,5.53564
			C545.52246,557.73633,542.3584,558.39893,538.8877,558.39893z M537.61426,524.10645c-2.21191,0-4.00586,0.74902-5.38086,2.24756
			c-1.37598,1.49854-2.25684,3.64209-2.64258,6.43164h15.50684v-0.8916c-0.05176-2.47949-0.7207-4.39746-2.00586-5.75342
			C541.80566,524.78467,539.97949,524.10645,537.61426,524.10645z"/>
		<path style="&st0;" d="M585.10352,526.34375c-1.51758-0.20557-2.85352-0.30859-4.01172-0.30859
			c-4.21777,0-6.98145,1.42725-8.29297,4.28174v27.31055h-11.14844v-41.7373h10.53125l0.30859,4.97607
			c2.2373-3.83154,5.33594-5.74756,9.29688-5.74756c1.23438,0,2.39062,0.16748,3.4707,0.50146L585.10352,526.34375z"/>
		<path style="&st0;" d="M608.26172,558.39893c-6.12109,0-11.10352-1.87695-14.94824-5.63184
			c-3.84473-3.75439-5.7666-8.75635-5.7666-15.00537v-1.08008c0-4.19141,0.81055-7.93945,2.42969-11.24463
			c1.62109-3.30371,3.91602-5.84961,6.88574-7.6377c2.9707-1.78662,6.3584-2.68066,10.16504-2.68066
			c5.70898,0,10.20215,1.80029,13.48145,5.40039c3.27832,3.60059,4.91797,8.70508,4.91797,15.31396v4.55176h-26.57715
			c0.35938,2.72607,1.44629,4.91211,3.25879,6.55762c1.81348,1.646,4.1084,2.46875,6.88574,2.46875
			c4.29395,0,7.65039-1.55566,10.06836-4.66748l5.47656,6.1333c-1.67188,2.36621-3.93359,4.21143-6.78906,5.53564
			C614.89648,557.73633,611.73242,558.39893,608.26172,558.39893z M606.98828,524.10645c-2.21191,0-4.00586,0.74902-5.38086,2.24756
			c-1.37598,1.49854-2.25684,3.64209-2.64258,6.43164h15.50684v-0.8916c-0.05176-2.47949-0.7207-4.39746-2.00586-5.75342
			C611.17969,524.78467,609.35352,524.10645,606.98828,524.10645z"/>
		<path style="&st0;" d="M652.94336,546.09375c0-1.36279-0.67578-2.43604-2.02539-3.22119
			c-1.35059-0.78363-3.51758-1.48486-6.5-2.10205c-9.92676-2.08301-14.88965-6.30029-14.88965-12.65234
			c0-3.70312,1.53613-6.79492,4.60938-9.27686c3.07324-2.48145,7.09082-3.72266,12.05469-3.72266
			c5.29688,0,9.53418,1.24756,12.70996,3.7417c3.17578,2.49463,4.76367,5.73486,4.76367,9.7207h-11.14746
			c0-1.59424-0.51465-2.9126-1.54297-3.95361c-1.0293-1.04199-2.63672-1.5625-4.82129-1.5625
			c-1.87793,0-3.33105,0.42432-4.35938,1.27295c-1.0293,0.84863-1.54297,1.92871-1.54297,3.24023
			c0,1.23438,0.58496,2.23145,1.75488,2.98975c1.16992,0.75879,3.14355,1.41455,5.9209,1.9668
			c2.77734,0.55371,5.11719,1.17676,7.02148,1.87109c5.8877,2.16016,8.83301,5.90186,8.83301,11.2251
			c0,3.80615-1.63379,6.88525-4.89941,9.23877c-3.26562,2.35254-7.48242,3.5293-12.65234,3.5293
			c-3.49707,0-6.60254-0.62402-9.31543-1.87109c-2.71289-1.24658-4.84082-2.95654-6.38379-5.12988
			c-1.54297-2.17285-2.31445-4.51953-2.31445-7.04004h10.56934c0.10254,1.98047,0.83496,3.49756,2.19824,4.55176
			c1.36328,1.05469,3.18848,1.58154,5.47852,1.58154c2.13379,0,3.74707-0.40479,4.84082-1.21533
			C652.39648,548.46631,652.94336,547.40527,652.94336,546.09375z"/>
		<path style="&st0;" d="M688.35938,558.39893c-6.12109,0-11.10352-1.87695-14.94824-5.63184
			c-3.84473-3.75439-5.7666-8.75635-5.7666-15.00537v-1.08008c0-4.19141,0.81055-7.93945,2.42969-11.24463
			c1.62109-3.30371,3.91602-5.84961,6.88574-7.6377c2.9707-1.78662,6.3584-2.68066,10.16504-2.68066
			c5.70898,0,10.20215,1.80029,13.48145,5.40039c3.27832,3.60059,4.91797,8.70508,4.91797,15.31396v4.55176h-26.57715
			c0.35938,2.72607,1.44629,4.91211,3.25879,6.55762c1.81348,1.646,4.1084,2.46875,6.88574,2.46875
			c4.29395,0,7.65039-1.55566,10.06836-4.66748l5.47656,6.1333c-1.67188,2.36621-3.93359,4.21143-6.78906,5.53564
			C694.99414,557.73633,691.83008,558.39893,688.35938,558.39893z M687.08594,524.10645c-2.21191,0-4.00586,0.74902-5.38086,2.24756
			c-1.37598,1.49854-2.25684,3.64209-2.64258,6.43164h15.50684v-0.8916c-0.05176-2.47949-0.7207-4.39746-2.00586-5.75342
			C691.27734,524.78467,689.45117,524.10645,687.08594,524.10645z"/>
		<path style="&st0;" d="M733.04102,546.09375c0-1.36279-0.67578-2.43604-2.02539-3.22119
			c-1.35059-0.78363-3.51758-1.48486-6.5-2.10205c-9.92676-2.08301-14.88965-6.30029-14.88965-12.65234
			c0-3.70312,1.53613-6.79492,4.60938-9.27686c3.07324-2.48145,7.09082-3.72266,12.05469-3.72266
			c5.29688,0,9.53418,1.24756,12.70996,3.7417c3.17578,2.49463,4.76367,5.73486,4.76367,9.7207h-11.14746
			c0-1.59424-0.51465-2.9126-1.54297-3.95361c-1.0293-1.04199-2.63672-1.5625-4.82129-1.5625
			c-1.87793,0-3.33105,0.42432-4.35938,1.27295c-1.0293,0.84863-1.54297,1.92871-1.54297,3.24023
			c0,1.23438,0.58496,2.23145,1.75488,2.98975c1.16992,0.75879,3.14355,1.41455,5.9209,1.9668
			c2.77734,0.55371,5.11719,1.17676,7.02148,1.87109c5.8877,2.16016,8.83301,5.90186,8.83301,11.2251
			c0,3.80615-1.63379,6.88525-4.89941,9.23877c-3.26562,2.35254-7.48242,3.5293-12.65234,3.5293
			c-3.49707,0-6.60254-0.62402-9.31543-1.87109c-2.71289-1.24658-4.84082-2.95654-6.38379-5.12988
			c-1.54297-2.17285-2.31445-4.51953-2.31445-7.04004h10.56934c0.10254,1.98047,0.83496,3.49756,2.19824,4.55176
			c1.36328,1.05469,3.18848,1.58154,5.47852,1.58154c2.13379,0,3.74707-0.40479,4.84082-1.21533
			C732.49414,548.46631,733.04102,547.40527,733.04102,546.09375z"/>
	</g>
</g>
<g>
	<g id="XMLID_1_">
		<path id="XMLID_17_" style="&st3;" d="M256.36545,567.14478H74.44861c-6.27252,0-11.34903-5.08008-11.34903-11.34906V430.32443
			c0-6.26901,5.07651-11.34903,11.34903-11.34903h181.91684c6.26898,0,11.34903,5.08008,11.34903,11.34903v125.47128
			C267.71448,562.0647,262.63443,567.14478,256.36545,567.14478"/>
		<path id="XMLID_16_" style="&st4;" d="M132.75685,482.47641H85.1662c-2.44128,0-4.42747-1.98264-4.42747-4.42743v-33.47916
			c0-2.44482,1.9862-4.42746,4.42747-4.42746h47.59065c2.44484,0,4.42749,1.98264,4.42749,4.42746v33.47916
			C137.18422,480.49377,135.20158,482.47641,132.75685,482.47641"/>
		<path id="XMLID_15_" style="&st5;" d="M132.75685,486.00439H85.1662c-4.38507,0-7.95528-3.57022-7.95528-7.95541v-33.47916
			c0-4.38507,3.57021-7.95529,7.95528-7.95529h47.59065c4.38509,0,7.95529,3.57022,7.95529,7.95529v33.47916
			C140.71214,482.43402,137.14194,486.00439,132.75685,486.00439 M85.1662,443.6702c-0.50092,0-0.89954,0.40219-0.89954,0.89954
			v33.47919c0,0.49734,0.39863,0.89969,0.89954,0.89969h47.59065c0.49738,0,0.89955-0.40219,0.89955-0.89969v-33.47919
			c0-0.49734-0.40218-0.89954-0.89955-0.89954H85.1662z"/>
		<path id="XMLID_14_" style="&st4;" d="M137.18422,444.56982c0-2.44827-1.98267-4.42746-4.42749-4.42746h-16.7396h-9.68398
			c-2.44836,0-4.42747,1.97925-4.42747,4.42746v9.68399v23.79532c0,2.44479,1.97911,4.42743,4.42747,4.42743h5.25652
			c2.44482,0,4.42747-1.98264,4.42747-4.42743v-19.36789c0-2.44473,1.9791-4.42743,4.42747-4.42743h12.31213
			c2.44482,0,4.42749-1.98264,4.42749-4.42746V444.56982z"/>
		<path id="XMLID_13_" style="&st5;" d="M111.58978,486.00439h-5.25651c-4.38508,0-7.95528-3.57022-7.95528-7.95541v-33.47916
			c0-4.38507,3.57021-7.95529,7.95528-7.95529h26.42358c4.38509,0,7.95529,3.57022,7.95529,7.95529v5.25647
			c0,4.38507-3.57021,7.95541-7.95529,7.95541h-12.31211c-0.50092,0-0.89967,0.40219-0.89967,0.89954v19.36789
			C119.54507,482.43402,115.97486,486.00439,111.58978,486.00439 M106.33327,443.6702c-0.50092,0-0.89955,0.40219-0.89955,0.89954
			v33.47919c0,0.49734,0.39864,0.89969,0.89955,0.89969h5.25651c0.49738,0,0.89955-0.40219,0.89955-0.89969v-19.36789
			c0-4.38504,3.57021-7.95526,7.95528-7.95526h12.31212c0.49738,0,0.89955-0.40219,0.89955-0.89969v-5.2565
			c0-0.49734-0.40218-0.89954-0.89955-0.89954h-26.42345V443.6702z"/>
		<path id="XMLID_12_" style="&st5;" d="M137.18422,471.89294h-21.16708c-1.95088,0-3.52781-1.58044-3.52781-3.52789
			c0-1.94733,1.57693-3.52783,3.52781-3.52783h21.16708c1.95087,0,3.5278,1.58044,3.5278,3.52783
			C140.71214,470.31244,139.13509,471.89294,137.18422,471.89294"/>
		<path id="XMLID_11_" style="&st5;" d="M101.9058,457.78156H80.73872c-1.95087,0-3.5278-1.58044-3.5278-3.52789
			c0-1.9473,1.57693-3.52783,3.5278-3.52783h21.16708c1.95088,0,3.52781,1.58044,3.52781,3.52783
			C105.43361,456.20111,103.85668,457.78156,101.9058,457.78156"/>
		<path id="XMLID_10_" style="&st5;" d="M101.9058,471.89294H80.73872c-1.95087,0-3.5278-1.58044-3.5278-3.52789
			c0-1.94733,1.57693-3.52783,3.5278-3.52783h21.16708c1.95088,0,3.52781,1.58044,3.52781,3.52783
			S103.85668,471.89294,101.9058,471.89294"/>
		<path id="XMLID_9_" style="&st6;" d="M204.21338,436.61447h-31.75063c-1.95087,0-3.5278,1.58044-3.5278,3.52783
			s1.57693,3.52789,3.5278,3.52789h31.75063c1.95088,0,3.5278-1.58044,3.5278-3.52789
			C207.74118,438.19482,206.16426,436.61447,204.21338,436.61447"/>
		<path id="XMLID_8_" style="&st6;" d="M253.60313,440.1423c0-1.94733-1.57692-3.52783-3.5278-3.52783h-31.75063
			c-1.95087,0-3.5278,1.58044-3.5278,3.52783s1.57693,3.52789,3.5278,3.52789h31.75063
			C252.02621,443.6702,253.60313,442.0896,253.60313,440.1423"/>
		<path id="XMLID_6_" style="&st6;" d="M175.99057,454.25366h-3.52782c-1.95087,0-3.5278,1.58044-3.5278,3.52789
			c0,1.94733,1.57693,3.52783,3.5278,3.52783h3.52782c1.95088,0,3.5278-1.58044,3.5278-3.52783
			C179.51837,455.83426,177.94145,454.25366,175.99057,454.25366"/>
		<path id="XMLID_5_" style="&st6;" d="M197.15764,454.25366h-7.05573c-1.95088,0-3.52782,1.58044-3.52782,3.52789
			c0,1.94733,1.57693,3.52783,3.52782,3.52783h7.05573c1.95087,0,3.5278-1.58044,3.5278-3.52783
			C200.68544,455.83426,199.10851,454.25366,197.15764,454.25366"/>
		<path id="XMLID_4_" style="&st6;" d="M214.79691,454.25366h-3.5278c-1.95088,0-3.52782,1.58044-3.52782,3.52789
			c0,1.94733,1.57693,3.52783,3.52782,3.52783h3.5278c1.95088,0,3.5278-1.58044,3.5278-3.52783
			C218.32471,455.83426,216.74779,454.25366,214.79691,454.25366"/>
		<path id="XMLID_3_" style="&st6;" d="M235.96387,454.25366h-7.05573c-1.95088,0-3.52782,1.58044-3.52782,3.52789
			c0,1.94733,1.57693,3.52783,3.52782,3.52783h7.05573c1.95088,0,3.5278-1.58044,3.5278-3.52783
			C239.49179,455.83426,237.91487,454.25366,235.96387,454.25366"/>
		<path id="XMLID_2_" style="&st6;" d="M247.57051,455.2767c-0.63853,0.67032-1.0231,1.58759-1.0231,2.50485
			c0,0.9173,0.38458,1.83444,1.0231,2.50473c0.66675,0.63513,1.54869,1.0231,2.50482,1.0231
			c0.91725,0,1.83099-0.38812,2.50482-1.0231c0.63498-0.67029,1.02309-1.58759,1.02309-2.50473
			c0-0.91727-0.38811-1.83453-1.02309-2.50485C251.23944,453.9715,248.87578,453.9715,247.57051,455.2767"/>
	</g>
	<g>
		<circle style="&st7;" cx="229.58728" cy="534.60992" r="18.06129"/>
		<circle style="&st2;" cx="207.06204" cy="534.60992" r="18.06129"/>
		<path style="&st5;" d="M211.52553,534.60797c0,5.71466,2.65648,10.80542,6.79918,14.11523
			c4.14224-3.30975,6.79919-8.401,6.79919-14.11523s-2.65648-10.80548-6.79919-14.1153
			C214.18248,523.80249,211.52553,528.89374,211.52553,534.60797z"/>
	</g>
</g>
</svg>
