<?xml version="1.0" encoding="iso-8859-1"?>
<!-- Generator: Adobe Illustrator 17.0.0, SVG Export Plug-In . SVG Version: 6.00 Build 0)  -->
<!DOCTYPE svg PUBLIC "-//W3C//DTD SVG 1.1//EN" "http://www.w3.org/Graphics/SVG/1.1/DTD/svg11.dtd" [
	<!ENTITY st0 "fill:#1A4162;">
	<!ENTITY st1 "fill:none;">
	<!ENTITY st2 "fill:#F2709E;">
	<!ENTITY st3 "fill:#E3E5E5;">
	<!ENTITY st4 "fill:#F0C41B;">
	<!ENTITY st5 "fill:#FAE196;">
	<!ENTITY st6 "fill:#FFFFFF;">
	<!ENTITY st7 "fill:#E6AA46;">
	<!ENTITY st8 "fill:#D1D1D1;">
]>
<svg version="1.1" id="Capa_1" xmlns="http://www.w3.org/2000/svg" xmlns:xlink="http://www.w3.org/1999/xlink" x="0px" y="0px"
	 width="999.09991px" height="264.0264px" viewBox="39.80198 1560.16797 999.09991 264.0264"
	 style="enable-background:new 39.80198 1560.16797 999.09991 264.0264;" xml:space="preserve">
<g>
	<g>
		<path style="&st0;" d="M311.62402,1642.74878v20.03906h-11.71875v-56.875h22.1875c4.27051,0,8.02734,0.78125,11.26953,2.34375
			s5.73535,3.7832,7.48047,6.66016c1.74414,2.87793,2.61719,6.15234,2.61719,9.82422c0,5.57324-1.9082,9.96777-5.72266,13.18359
			c-3.81543,3.2168-9.0957,4.82422-15.83984,4.82422H311.62402z M311.62402,1633.25659h10.46875
			c3.09863,0,5.46191-0.72852,7.08984-2.1875c1.62695-1.45801,2.44141-3.54102,2.44141-6.25
			c0-2.78613-0.82031-5.03906-2.46094-6.75781s-3.90625-2.60352-6.79688-2.65625h-10.74219V1633.25659z"/>
		<path style="&st0;" d="M373.14453,1662.78784c-0.52148-1.01562-0.89844-2.27832-1.13281-3.78906
			c-2.73438,3.04688-6.28906,4.57031-10.66406,4.57031c-4.14062,0-7.57227-1.19727-10.29297-3.59375
			c-2.72168-2.39551-4.08203-5.41602-4.08203-9.0625c0-4.47852,1.66016-7.91602,4.98047-10.3125
			c3.32031-2.39551,8.11816-3.60645,14.39453-3.63281h5.19531v-2.42188c0-1.95312-0.50195-3.51562-1.50391-4.6875
			c-1.00293-1.17188-2.58496-1.75781-4.74609-1.75781c-1.90137,0-3.39258,0.45605-4.47266,1.36719
			c-1.08105,0.91211-1.62109,2.16211-1.62109,3.75h-11.28906c0-2.44727,0.75488-4.71289,2.26562-6.79688
			c1.50977-2.08301,3.64551-3.7168,6.40625-4.90234c2.75977-1.18457,5.85938-1.77734,9.29688-1.77734
			c5.20801,0,9.3418,1.30859,12.40234,3.92578c3.05957,2.61719,4.58984,6.2959,4.58984,11.03516v18.32031
			c0.02539,4.01074,0.58594,7.04492,1.67969,9.10156v0.66406H373.14453z M363.80859,1654.93628
			c1.66602,0,3.20312-0.37109,4.60938-1.11328s2.44727-1.73828,3.125-2.98828v-7.26562h-4.21875
			c-5.65137,0-8.65918,1.95312-9.02344,5.85938l-0.03906,0.66406c0,1.40625,0.49414,2.56543,1.48438,3.47656
			C360.73535,1654.4812,362.08984,1654.93628,363.80859,1654.93628z"/>
		<path style="&st0;" d="M388.29492,1641.34253c0-6.48438,1.54297-11.70508,4.62891-15.66406
			c3.08594-3.95801,7.24609-5.9375,12.48047-5.9375c4.63477,0,8.24219,1.58887,10.82031,4.76562l0.46875-3.98438h10.23438v40.85938
			c0,3.69727-0.83984,6.91406-2.51953,9.64844s-4.04297,4.81738-7.08984,6.25c-3.04688,1.43164-6.61523,2.14844-10.70312,2.14844
			c-3.09961,0-6.12012-0.61914-9.0625-1.85547c-2.94336-1.2373-5.16992-2.83203-6.67969-4.78516l5-6.875
			c2.8125,3.15039,6.22363,4.72656,10.23438,4.72656c2.99414,0,5.3252-0.80078,6.99219-2.40234
			c1.66602-1.60156,2.5-3.87402,2.5-6.81641v-2.26562c-2.60449,2.94336-6.0293,4.41406-10.27344,4.41406
			c-5.07812,0-9.18652-1.98535-12.32422-5.95703c-3.13867-3.9707-4.70703-9.23828-4.70703-15.80078V1641.34253z
			 M399.58398,1642.14575c0,3.8457,0.76758,6.86084,2.30469,9.04541c1.53613,2.18457,3.64551,3.27637,6.32812,3.27637
			c3.4375,0,5.89844-1.29443,7.38281-3.88477v-17.85547c-1.51074-2.58984-3.94531-3.88477-7.30469-3.88477
			c-2.70898,0-4.83789,1.1123-6.38672,3.33545C400.3584,1634.4021,399.58398,1637.72437,399.58398,1642.14575z"/>
		<path style="&st0;" d="M458.90723,1662.78784c-0.52148-1.01562-0.89844-2.27832-1.13281-3.78906
			c-2.73438,3.04688-6.28906,4.57031-10.66406,4.57031c-4.14062,0-7.57227-1.19727-10.29297-3.59375
			c-2.72168-2.39551-4.08203-5.41602-4.08203-9.0625c0-4.47852,1.66016-7.91602,4.98047-10.3125
			c3.32031-2.39551,8.11816-3.60645,14.39453-3.63281h5.19531v-2.42188c0-1.95312-0.50195-3.51562-1.50391-4.6875
			c-1.00293-1.17188-2.58496-1.75781-4.74609-1.75781c-1.90137,0-3.39258,0.45605-4.47266,1.36719
			c-1.08105,0.91211-1.62109,2.16211-1.62109,3.75h-11.28906c0-2.44727,0.75488-4.71289,2.26562-6.79688
			c1.50977-2.08301,3.64551-3.7168,6.40625-4.90234c2.75977-1.18457,5.85938-1.77734,9.29688-1.77734
			c5.20801,0,9.3418,1.30859,12.40234,3.92578c3.05957,2.61719,4.58984,6.2959,4.58984,11.03516v18.32031
			c0.02539,4.01074,0.58594,7.04492,1.67969,9.10156v0.66406H458.90723z M449.57129,1654.93628
			c1.66602,0,3.20312-0.37109,4.60938-1.11328s2.44727-1.73828,3.125-2.98828v-7.26562h-4.21875
			c-5.65137,0-8.65918,1.95312-9.02344,5.85938l-0.03906,0.66406c0,1.40625,0.49414,2.56543,1.48438,3.47656
			C446.49805,1654.4812,447.85254,1654.93628,449.57129,1654.93628z"/>
		<path style="&st0;" d="M521.71973,1662.78784c-0.52148-1.01562-0.89844-2.27832-1.13281-3.78906
			c-2.73438,3.04688-6.28906,4.57031-10.66406,4.57031c-4.14062,0-7.57227-1.19727-10.29297-3.59375
			c-2.72168-2.39551-4.08203-5.41602-4.08203-9.0625c0-4.47852,1.66016-7.91602,4.98047-10.3125
			c3.32031-2.39551,8.11816-3.60645,14.39453-3.63281h5.19531v-2.42188c0-1.95312-0.50195-3.51562-1.50391-4.6875
			c-1.00293-1.17188-2.58496-1.75781-4.74609-1.75781c-1.90137,0-3.39258,0.45605-4.47266,1.36719
			c-1.08105,0.91211-1.62109,2.16211-1.62109,3.75h-11.28906c0-2.44727,0.75488-4.71289,2.26562-6.79688
			c1.50977-2.08301,3.64551-3.7168,6.40625-4.90234c2.75977-1.18457,5.85938-1.77734,9.29688-1.77734
			c5.20801,0,9.3418,1.30859,12.40234,3.92578c3.05957,2.61719,4.58984,6.2959,4.58984,11.03516v18.32031
			c0.02539,4.01074,0.58594,7.04492,1.67969,9.10156v0.66406H521.71973z M512.38379,1654.93628
			c1.66602,0,3.20312-0.37109,4.60938-1.11328s2.44727-1.73828,3.125-2.98828v-7.26562h-4.21875
			c-5.65137,0-8.65918,1.95312-9.02344,5.85938l-0.03906,0.66406c0,1.40625,0.49414,2.56543,1.48438,3.47656
			C509.31055,1654.4812,510.66504,1654.93628,512.38379,1654.93628z"/>
		<path style="&st0;" d="M590.19629,1605.3269v9.29688h-1.09375c-5.10449,0.07812-9.21289,1.40625-12.32422,3.98438
			c-3.1123,2.57812-4.98047,6.15918-5.60547,10.74219c3.02051-3.07227,6.83594-4.60938,11.44531-4.60938
			c4.94727,0,8.87988,1.77148,11.79688,5.3125c2.91602,3.54199,4.375,8.20312,4.375,13.98438
			c0,3.69824-0.80078,7.04492-2.40234,10.03906c-1.60156,2.99512-3.86719,5.32617-6.79688,6.99219
			c-2.92969,1.66699-6.24414,2.5-9.94141,2.5c-5.99023,0-10.82715-2.08301-14.51172-6.25
			c-3.68555-4.16602-5.52734-9.72656-5.52734-16.67969v-4.0625c0-6.17188,1.16504-11.62109,3.49609-16.34766
			c2.33008-4.72656,5.67676-8.38477,10.03906-10.97656c4.36133-2.59082,9.41992-3.89941,15.17578-3.92578H590.19629z
			 M579.18066,1633.84253c-1.82324,0-3.47656,0.47461-4.96094,1.42334s-2.57812,2.20264-3.28125,3.76221v3.43066
			c0,3.76953,0.74219,6.71338,2.22656,8.83105c1.48438,2.11865,3.56738,3.17773,6.25,3.17773
			c2.42188,0,4.38086-0.95508,5.87891-2.86572c1.49707-1.91016,2.24609-4.38574,2.24609-7.42725
			c0-3.09326-0.75586-5.58838-2.26562-7.48584C583.76367,1634.79175,581.73242,1633.84253,579.18066,1633.84253z"/>
		<path style="&st0;" d="M717.96973,1662.78784h-11.28906v-43.5752l-13.47656,4.16113v-9.10156l23.55469-8.4375h1.21094V1662.78784z
			"/>
		<path style="&st0;" d="M768.75098,1662.78784H729.7666v-7.73438l18.39844-19.60938
			c2.52539-2.75977,4.39453-5.16895,5.60547-7.22656c1.21094-2.05664,1.81641-4.00977,1.81641-5.85938
			c0-2.52539-0.63867-4.51172-1.91406-5.95703c-1.27637-1.44531-3.09961-2.16797-5.46875-2.16797
			c-2.55273,0-4.56445,0.87891-6.03516,2.63672c-1.47168,1.75781-2.20703,4.06934-2.20703,6.93359h-11.32812
			c0-3.46289,0.82617-6.62695,2.48047-9.49219c1.65332-2.86426,3.99023-5.11035,7.01172-6.73828
			c3.02051-1.62695,6.44531-2.44141,10.27344-2.44141c5.85938,0,10.41016,1.40625,13.65234,4.21875
			s4.86328,6.78418,4.86328,11.91406c0,2.8125-0.72949,5.67773-2.1875,8.59375c-1.45898,2.91699-3.95898,6.31543-7.5,10.19531
			l-12.92969,13.63281h24.45312V1662.78784z"/>
		<path style="&st0;" d="M314.96289,1687.62378l14.42676,40.73438l14.34961-40.73438h15.19824v56.16406h-11.61035v-15.35254
			l1.15625-26.50049l-15.15918,41.85303h-7.94629l-15.12109-41.81445l1.15723,26.46191v15.35254H299.8418v-56.16406H314.96289z"/>
		<path style="&st0;" d="M386.47852,1744.55933c-6.12109,0-11.10352-1.87695-14.94824-5.63184
			c-3.84473-3.75439-5.7666-8.75635-5.7666-15.00537v-1.08008c0-4.19141,0.81055-7.93945,2.42969-11.24463
			c1.62109-3.30371,3.91602-5.84961,6.88574-7.6377c2.9707-1.78662,6.3584-2.68066,10.16504-2.68066
			c5.70898,0,10.20215,1.80029,13.48145,5.40039c3.27832,3.60059,4.91797,8.70508,4.91797,15.31396v4.55176h-26.57715
			c0.35938,2.72607,1.44629,4.91211,3.25879,6.55762c1.81348,1.646,4.1084,2.46875,6.88574,2.46875
			c4.29395,0,7.65039-1.55566,10.06836-4.66748l5.47656,6.1333c-1.67188,2.36621-3.93359,4.21143-6.78906,5.53564
			C393.11328,1743.89673,389.94922,1744.55933,386.47852,1744.55933z M385.20508,1710.26685
			c-2.21191,0-4.00586,0.74902-5.38086,2.24756c-1.37598,1.49854-2.25684,3.64209-2.64258,6.43164h15.50684v-0.8916
			c-0.05176-2.47949-0.7207-4.39746-2.00586-5.75342C389.39648,1710.94507,387.57031,1710.26685,385.20508,1710.26685z"/>
		<path style="&st0;" d="M431.16016,1732.25415c0-1.36279-0.67578-2.43604-2.02539-3.22119
			c-1.35059-0.78369-3.51758-1.48486-6.5-2.10205c-9.92676-2.08301-14.88965-6.30029-14.88965-12.65234
			c0-3.70312,1.53613-6.79492,4.60938-9.27686c3.07324-2.48145,7.09082-3.72266,12.05469-3.72266
			c5.29688,0,9.53418,1.24756,12.70996,3.7417c3.17578,2.49463,4.76367,5.73486,4.76367,9.7207h-11.14746
			c0-1.59424-0.51465-2.9126-1.54297-3.95361c-1.0293-1.04199-2.63672-1.5625-4.82129-1.5625
			c-1.87793,0-3.33105,0.42432-4.35938,1.27295c-1.0293,0.84863-1.54297,1.92871-1.54297,3.24023
			c0,1.23438,0.58496,2.23145,1.75488,2.98975c1.16992,0.75879,3.14355,1.41455,5.9209,1.9668
			c2.77734,0.55371,5.11719,1.17676,7.02148,1.87109c5.8877,2.16016,8.83301,5.90186,8.83301,11.2251
			c0,3.80615-1.63379,6.88525-4.89941,9.23877c-3.26562,2.35254-7.48242,3.5293-12.65234,3.5293
			c-3.49707,0-6.60254-0.62402-9.31543-1.87109c-2.71289-1.24658-4.84082-2.95654-6.38379-5.12988
			c-1.54297-2.17285-2.31445-4.51953-2.31445-7.04004h10.56934c0.10254,1.98047,0.83496,3.49756,2.19824,4.55176
			c1.36328,1.05469,3.18848,1.58154,5.47852,1.58154c2.13379,0,3.74707-0.40479,4.84082-1.21533
			C430.61328,1734.62671,431.16016,1733.56567,431.16016,1732.25415z"/>
		<path style="&st0;" d="M466.57617,1744.55933c-6.12109,0-11.10352-1.87695-14.94824-5.63184
			c-3.84473-3.75439-5.7666-8.75635-5.7666-15.00537v-1.08008c0-4.19141,0.81055-7.93945,2.42969-11.24463
			c1.62109-3.30371,3.91602-5.84961,6.88574-7.6377c2.9707-1.78662,6.3584-2.68066,10.16504-2.68066
			c5.70898,0,10.20215,1.80029,13.48145,5.40039c3.27832,3.60059,4.91797,8.70508,4.91797,15.31396v4.55176h-26.57715
			c0.35938,2.72607,1.44629,4.91211,3.25879,6.55762c1.81348,1.646,4.1084,2.46875,6.88574,2.46875
			c4.29395,0,7.65039-1.55566,10.06836-4.66748l5.47656,6.1333c-1.67188,2.36621-3.93359,4.21143-6.78906,5.53564
			C473.21094,1743.89673,470.04688,1744.55933,466.57617,1744.55933z M465.30273,1710.26685
			c-2.21191,0-4.00586,0.74902-5.38086,2.24756c-1.37598,1.49854-2.25684,3.64209-2.64258,6.43164h15.50684v-0.8916
			c-0.05176-2.47949-0.7207-4.39746-2.00586-5.75342C469.49414,1710.94507,467.66797,1710.26685,465.30273,1710.26685z"/>
		<path style="&st0;" d="M511.25781,1732.25415c0-1.36279-0.67578-2.43604-2.02539-3.22119
			c-1.35059-0.78369-3.51758-1.48486-6.5-2.10205c-9.92676-2.08301-14.88965-6.30029-14.88965-12.65234
			c0-3.70312,1.53613-6.79492,4.60938-9.27686c3.07324-2.48145,7.09082-3.72266,12.05469-3.72266
			c5.29688,0,9.53418,1.24756,12.70996,3.7417c3.17578,2.49463,4.76367,5.73486,4.76367,9.7207h-11.14746
			c0-1.59424-0.51465-2.9126-1.54297-3.95361c-1.0293-1.04199-2.63672-1.5625-4.82129-1.5625
			c-1.87793,0-3.33105,0.42432-4.35938,1.27295c-1.0293,0.84863-1.54297,1.92871-1.54297,3.24023
			c0,1.23438,0.58496,2.23145,1.75488,2.98975c1.16992,0.75879,3.14355,1.41455,5.9209,1.9668
			c2.77734,0.55371,5.11719,1.17676,7.02148,1.87109c5.8877,2.16016,8.83301,5.90186,8.83301,11.2251
			c0,3.80615-1.63379,6.88525-4.89941,9.23877c-3.26562,2.35254-7.48242,3.5293-12.65234,3.5293
			c-3.49707,0-6.60254-0.62402-9.31543-1.87109c-2.71289-1.24658-4.84082-2.95654-6.38379-5.12988
			c-1.54297-2.17285-2.31445-4.51953-2.31445-7.04004h10.56934c0.10254,1.98047,0.83496,3.49756,2.19824,4.55176
			c1.36328,1.05469,3.18848,1.58154,5.47852,1.58154c2.13379,0,3.74707-0.40479,4.84082-1.21533
			C510.71094,1734.62671,511.25781,1733.56567,511.25781,1732.25415z"/>
		<path style="&st0;" d="M578.80176,1729.05249c0-2.18555-0.77148-3.86328-2.31445-5.03418
			c-1.54297-1.16943-4.32031-2.40381-8.33203-3.70312c-4.01172-1.29785-7.18848-2.57764-9.52832-3.83789
			c-6.37793-3.4458-9.56641-8.0874-9.56641-13.92529c0-3.03418,0.85449-5.74072,2.56543-8.11963
			c1.70996-2.37842,4.16602-4.23682,7.36719-5.57422c3.20215-1.33691,6.79492-2.00586,10.78125-2.00586
			c4.01172,0,7.58594,0.72705,10.72461,2.17969c3.13672,1.45312,5.57324,3.50391,7.30957,6.15234
			c1.73535,2.64893,2.60352,5.65771,2.60352,9.02637h-11.57227c0-2.57129-0.80957-4.57129-2.43066-5.99805
			c-1.61914-1.42773-3.89551-2.14111-6.82715-2.14111c-2.8291,0-5.02832,0.59814-6.59668,1.79346
			c-1.56836,1.19629-2.35254,2.77148-2.35254,4.72559c0,1.82617,0.91895,3.35596,2.75781,4.59033s4.54492,2.3916,8.12012,3.47168
			c6.58301,1.98047,11.37891,4.43604,14.38867,7.36768c3.00781,2.93164,4.5127,6.5835,4.5127,10.95508
			c0,4.86035-1.83887,8.67334-5.5166,11.4375c-3.67773,2.76465-8.62793,4.14648-14.85059,4.14648
			c-4.32031,0-8.25488-0.79102-11.80371-2.37207c-3.54883-1.58203-6.25586-3.74805-8.12012-6.5
			c-1.86426-2.75146-2.7959-5.94043-2.7959-9.56641h11.61035c0,6.19775,3.70312,9.29639,11.10938,9.29639
			c2.75098,0,4.89941-0.55908,6.44238-1.67822C578.03027,1732.62085,578.80176,1731.05835,578.80176,1729.05249z"/>
		<path style="&st0;" d="M596.2793,1691.24976c0-1.67139,0.55859-3.04736,1.67773-4.12744
			c1.11816-1.08008,2.64258-1.62012,4.57031-1.62012c1.90332,0,3.41992,0.54004,4.55273,1.62012
			c1.13086,1.08008,1.69727,2.45605,1.69727,4.12744c0,1.69727-0.57324,3.08594-1.7168,4.16602
			c-1.14453,1.08008-2.65625,1.62012-4.5332,1.62012s-3.3877-0.54004-4.53223-1.62012S596.2793,1692.94702,596.2793,1691.24976z
			 M608.12109,1743.78784h-11.18652v-41.7373h11.18652V1743.78784z"/>
		<path style="&st0;" d="M626.34668,1702.05054l0.34668,4.82178c2.98242-3.72852,6.98145-5.59326,11.99707-5.59326
			c4.42188,0,7.71484,1.29883,9.875,3.896c2.16016,2.59766,3.26465,6.48047,3.31641,11.64941v26.96338h-11.14746v-26.75488
			c0-2.37109-0.51465-4.0918-1.54297-5.16162c-1.0293-1.06934-2.73926-1.60449-5.12988-1.60449
			c-3.13867,0-5.49121,1.34033-7.05957,4.021v29.5h-11.14746v-41.7373H626.34668z"/>
		<path style="&st0;" d="M693.04102,1743.78784h-11.57227v-56.16406h11.57227V1743.78784z"/>
		<path style="&st0;" d="M712.19336,1702.05054l0.34668,4.82178c2.98242-3.72852,6.98145-5.59326,11.99707-5.59326
			c4.42188,0,7.71484,1.29883,9.875,3.896c2.16016,2.59766,3.26465,6.48047,3.31641,11.64941v26.96338h-11.14746v-26.75488
			c0-2.37109-0.51465-4.0918-1.54297-5.16162c-1.0293-1.06934-2.73926-1.60449-5.12988-1.60449
			c-3.13867,0-5.49121,1.34033-7.05957,4.021v29.5h-11.14746v-41.7373H712.19336z"/>
		<path style="&st0;" d="M758.27539,1691.78979v10.26074h7.13574v8.17773h-7.13574v20.83008
			c0,1.54297,0.29492,2.64893,0.88672,3.31738c0.59082,0.66895,1.72266,1.00293,3.39453,1.00293
			c1.23438,0,2.32715-0.08984,3.2793-0.27002v8.44775c-2.18652,0.66846-4.43652,1.00293-6.75098,1.00293
			c-7.81836,0-11.80371-3.94727-11.95801-11.84229v-22.48877h-6.09473v-8.17773h6.09473v-10.26074H758.27539z"/>
		<path style="&st0;" d="M788.72266,1744.55933c-6.12109,0-11.10352-1.87695-14.94824-5.63184
			c-3.84473-3.75439-5.7666-8.75635-5.7666-15.00537v-1.08008c0-4.19141,0.81055-7.93945,2.42969-11.24463
			c1.62109-3.30371,3.91602-5.84961,6.88574-7.6377c2.9707-1.78662,6.3584-2.68066,10.16504-2.68066
			c5.70898,0,10.20215,1.80029,13.48145,5.40039c3.27832,3.60059,4.91797,8.70508,4.91797,15.31396v4.55176h-26.57715
			c0.35938,2.72607,1.44629,4.91211,3.25879,6.55762c1.81348,1.646,4.1084,2.46875,6.88574,2.46875
			c4.29395,0,7.65039-1.55566,10.06836-4.66748l5.47656,6.1333c-1.67188,2.36621-3.93359,4.21143-6.78906,5.53564
			C795.35742,1743.89673,792.19336,1744.55933,788.72266,1744.55933z M787.44922,1710.26685
			c-2.21191,0-4.00586,0.74902-5.38086,2.24756c-1.37598,1.49854-2.25684,3.64209-2.64258,6.43164h15.50684v-0.8916
			c-0.05176-2.47949-0.7207-4.39746-2.00586-5.75342C791.64062,1710.94507,789.81445,1710.26685,787.44922,1710.26685z"/>
		<path style="&st0;" d="M834.93945,1712.50415c-1.51758-0.20557-2.85352-0.30859-4.01172-0.30859
			c-4.21777,0-6.98145,1.42725-8.29297,4.28174v27.31055h-11.14844v-41.7373h10.53125l0.30859,4.97607
			c2.2373-3.83154,5.33594-5.74756,9.29688-5.74756c1.23438,0,2.39062,0.16748,3.4707,0.50146L834.93945,1712.50415z"/>
		<path style="&st0;" d="M858.09766,1744.55933c-6.12109,0-11.10352-1.87695-14.94824-5.63184
			c-3.84473-3.75439-5.7666-8.75635-5.7666-15.00537v-1.08008c0-4.19141,0.81055-7.93945,2.42969-11.24463
			c1.62109-3.30371,3.91602-5.84961,6.88574-7.6377c2.9707-1.78662,6.3584-2.68066,10.16504-2.68066
			c5.70898,0,10.20215,1.80029,13.48145,5.40039c3.27832,3.60059,4.91797,8.70508,4.91797,15.31396v4.55176h-26.57715
			c0.35938,2.72607,1.44629,4.91211,3.25879,6.55762c1.81348,1.646,4.1084,2.46875,6.88574,2.46875
			c4.29395,0,7.65039-1.55566,10.06836-4.66748l5.47656,6.1333c-1.67188,2.36621-3.93359,4.21143-6.78906,5.53564
			C864.73242,1743.89673,861.56836,1744.55933,858.09766,1744.55933z M856.82422,1710.26685
			c-2.21191,0-4.00586,0.74902-5.38086,2.24756c-1.37598,1.49854-2.25684,3.64209-2.64258,6.43164h15.50684v-0.8916
			c-0.05176-2.47949-0.7207-4.39746-2.00586-5.75342C861.01562,1710.94507,859.18945,1710.26685,856.82422,1710.26685z"/>
		<path style="&st0;" d="M902.7793,1732.25415c0-1.36279-0.67578-2.43604-2.02539-3.22119
			c-1.35059-0.78369-3.51758-1.48486-6.5-2.10205c-9.92676-2.08301-14.88965-6.30029-14.88965-12.65234
			c0-3.70312,1.53613-6.79492,4.60938-9.27686c3.07324-2.48145,7.09082-3.72266,12.05469-3.72266
			c5.29688,0,9.53418,1.24756,12.70996,3.7417c3.17578,2.49463,4.76367,5.73486,4.76367,9.7207h-11.14746
			c0-1.59424-0.51465-2.9126-1.54297-3.95361c-1.0293-1.04199-2.63672-1.5625-4.82129-1.5625
			c-1.87793,0-3.33105,0.42432-4.35938,1.27295c-1.0293,0.84863-1.54297,1.92871-1.54297,3.24023
			c0,1.23438,0.58496,2.23145,1.75488,2.98975c1.16992,0.75879,3.14355,1.41455,5.9209,1.9668
			c2.77734,0.55371,5.11719,1.17676,7.02148,1.87109c5.8877,2.16016,8.83301,5.90186,8.83301,11.2251
			c0,3.80615-1.63379,6.88525-4.89941,9.23877c-3.26562,2.35254-7.48242,3.5293-12.65234,3.5293
			c-3.49707,0-6.60254-0.62402-9.31543-1.87109c-2.71289-1.24658-4.84082-2.95654-6.38379-5.12988
			c-1.54297-2.17285-2.31445-4.51953-2.31445-7.04004h10.56934c0.10254,1.98047,0.83496,3.49756,2.19824,4.55176
			c1.36328,1.05469,3.18848,1.58154,5.47852,1.58154c2.13379,0,3.74707-0.40479,4.84082-1.21533
			C902.23242,1734.62671,902.7793,1733.56567,902.7793,1732.25415z"/>
		<path style="&st0;" d="M938.19434,1744.55933c-6.12109,0-11.10352-1.87695-14.94824-5.63184
			c-3.84473-3.75439-5.7666-8.75635-5.7666-15.00537v-1.08008c0-4.19141,0.81055-7.93945,2.42969-11.24463
			c1.62109-3.30371,3.91602-5.84961,6.88574-7.6377c2.9707-1.78662,6.3584-2.68066,10.16504-2.68066
			c5.70898,0,10.20215,1.80029,13.48145,5.40039c3.27832,3.60059,4.91797,8.70508,4.91797,15.31396v4.55176h-26.57715
			c0.35938,2.72607,1.44629,4.91211,3.25879,6.55762c1.81348,1.646,4.1084,2.46875,6.88574,2.46875
			c4.29395,0,7.65039-1.55566,10.06836-4.66748l5.47656,6.1333c-1.67188,2.36621-3.93359,4.21143-6.78906,5.53564
			C944.8291,1743.89673,941.66504,1744.55933,938.19434,1744.55933z M936.9209,1710.26685
			c-2.21191,0-4.00586,0.74902-5.38086,2.24756c-1.37598,1.49854-2.25684,3.64209-2.64258,6.43164h15.50684v-0.8916
			c-0.05176-2.47949-0.7207-4.39746-2.00586-5.75342C941.1123,1710.94507,939.28613,1710.26685,936.9209,1710.26685z"/>
		<path style="&st0;" d="M982.87598,1732.25415c0-1.36279-0.67578-2.43604-2.02539-3.22119
			c-1.35059-0.78369-3.51758-1.48486-6.5-2.10205c-9.92676-2.08301-14.88965-6.30029-14.88965-12.65234
			c0-3.70312,1.53613-6.79492,4.60938-9.27686c3.07324-2.48145,7.09082-3.72266,12.05469-3.72266
			c5.29688,0,9.53418,1.24756,12.70996,3.7417c3.17578,2.49463,4.76367,5.73486,4.76367,9.7207h-11.14746
			c0-1.59424-0.51465-2.9126-1.54297-3.95361c-1.0293-1.04199-2.63672-1.5625-4.82129-1.5625
			c-1.87793,0-3.33105,0.42432-4.35938,1.27295c-1.0293,0.84863-1.54297,1.92871-1.54297,3.24023
			c0,1.23438,0.58496,2.23145,1.75488,2.98975c1.16992,0.75879,3.14355,1.41455,5.9209,1.9668
			c2.77734,0.55371,5.11719,1.17676,7.02148,1.87109c5.8877,2.16016,8.83301,5.90186,8.83301,11.2251
			c0,3.80615-1.63379,6.88525-4.89941,9.23877c-3.26562,2.35254-7.48242,3.5293-12.65234,3.5293
			c-3.49707,0-6.60254-0.62402-9.31543-1.87109c-2.71289-1.24658-4.84082-2.95654-6.38379-5.12988
			c-1.54297-2.17285-2.31445-4.51953-2.31445-7.04004h10.56934c0.10254,1.98047,0.83496,3.49756,2.19824,4.55176
			c1.36328,1.05469,3.18848,1.58154,5.47852,1.58154c2.13379,0,3.74707-0.40479,4.84082-1.21533
			C982.3291,1734.62671,982.87598,1733.56567,982.87598,1732.25415z"/>
	</g>
	<rect x="266.69769" y="1595.28003" style="&st1;" width="33.30228" height="195.83539"/>
	<path style="&st0;" d="M642.02539,1646.81226l7.8125-26.28906h12.10938l-16.99219,48.82812l-0.9375,2.22656
		c-2.52637,5.52051-6.69336,8.28125-12.5,8.28125c-1.64062,0-3.30762-0.24805-5-0.74219v-8.55469l1.71875,0.03906
		c2.13477,0,3.73047-0.32617,4.78516-0.97656c1.05469-0.65137,1.88086-1.73242,2.48047-3.24219l1.32812-3.47656l-14.80469-42.38281
		h12.14844L642.02539,1646.81226z"/>
</g>
<g>
	<g id="XMLID_7_">
		<path id="XMLID_130_" style="&st3;" d="M256.36545,1754.41882H74.44861c-6.27252,0-11.34903-5.08008-11.34903-11.349v-125.47131
			c0-6.26892,5.07651-11.349,11.34903-11.349h181.91684c6.26898,0,11.34903,5.08008,11.34903,11.349v125.47131
			C267.71448,1749.33875,262.63443,1754.41882,256.36545,1754.41882"/>
		<path id="XMLID_125_" style="&st4;" d="M132.75685,1669.75049H85.1662c-2.44128,0-4.42747-1.98254-4.42747-4.42737v-33.47925
			c0-2.4447,1.9862-4.42737,4.42747-4.42737h47.59065c2.44484,0,4.42749,1.98267,4.42749,4.42737v33.47925
			C137.18422,1667.76794,135.20158,1669.75049,132.75685,1669.75049"/>
		<path id="XMLID_122_" style="&st5;" d="M132.75685,1673.27856H85.1662c-4.38507,0-7.95528-3.57031-7.95528-7.95544v-33.47925
			c0-4.38501,3.57021-7.9552,7.95528-7.9552h47.59065c4.38509,0,7.95529,3.57019,7.95529,7.9552v33.47925
			C140.71214,1669.70813,137.14194,1673.27856,132.75685,1673.27856 M85.1662,1630.94434
			c-0.50092,0-0.89954,0.40222-0.89954,0.89954v33.47913c0,0.49744,0.39863,0.89978,0.89954,0.89978h47.59065
			c0.49738,0,0.89955-0.40222,0.89955-0.89978v-33.47913c0-0.49731-0.40218-0.89954-0.89955-0.89954H85.1662z"/>
		<path id="XMLID_121_" style="&st4;" d="M137.18422,1631.84387c0-2.44824-1.98267-4.42737-4.42749-4.42737h-16.7396h-9.68398
			c-2.44836,0-4.42747,1.97925-4.42747,4.42737v9.68408v23.79529c0,2.44482,1.97911,4.42749,4.42747,4.42749h5.25652
			c2.44482,0,4.42747-1.98267,4.42747-4.42749v-19.36792c0-2.4447,1.9791-4.42737,4.42747-4.42737h12.31213
			c2.44482,0,4.42749-1.98267,4.42749-4.42749V1631.84387z"/>
		<path id="XMLID_118_" style="&st5;" d="M111.58978,1673.27856h-5.25651c-4.38508,0-7.95528-3.57031-7.95528-7.95544v-33.47925
			c0-4.38501,3.57021-7.9552,7.95528-7.9552h26.42358c4.38509,0,7.95529,3.57019,7.95529,7.9552v5.25659
			c0,4.38501-3.57021,7.95532-7.95529,7.95532h-12.31211c-0.50092,0-0.89967,0.40222-0.89967,0.89954v19.36792
			C119.54507,1669.70813,115.97486,1673.27856,111.58978,1673.27856 M106.33327,1630.94434
			c-0.50092,0-0.89955,0.40222-0.89955,0.89954v33.47913c0,0.49744,0.39864,0.89978,0.89955,0.89978h5.25651
			c0.49738,0,0.89955-0.40222,0.89955-0.89978v-19.3678c0-4.38513,3.57021-7.95532,7.95528-7.95532h12.31212
			c0.49738,0,0.89955-0.40222,0.89955-0.89966v-5.25647c0-0.49744-0.40218-0.89954-0.89955-0.89954h-26.42345V1630.94434z"/>
		<path id="XMLID_116_" style="&st5;" d="M137.18422,1659.16711h-21.16708c-1.95088,0-3.52781-1.58044-3.52781-3.52795
			c0-1.94727,1.57693-3.52783,3.52781-3.52783h21.16708c1.95087,0,3.5278,1.58044,3.5278,3.52783
			C140.71214,1657.58655,139.13509,1659.16711,137.18422,1659.16711"/>
		<path id="XMLID_114_" style="&st5;" d="M101.9058,1645.05566H80.73872c-1.95087,0-3.5278-1.58044-3.5278-3.52783
			S78.78785,1638,80.73872,1638h21.16708c1.95088,0,3.52781,1.58044,3.52781,3.52783S103.85668,1645.05566,101.9058,1645.05566"/>
		<path id="XMLID_112_" style="&st5;" d="M101.9058,1659.16711H80.73872c-1.95087,0-3.5278-1.58044-3.5278-3.52795
			c0-1.94727,1.57693-3.52783,3.5278-3.52783h21.16708c1.95088,0,3.52781,1.58044,3.52781,3.52783
			S103.85668,1659.16711,101.9058,1659.16711"/>
		<path id="XMLID_111_" style="&st6;" d="M204.21338,1623.88855h-31.75063c-1.95087,0-3.5278,1.58044-3.5278,3.52783
			s1.57693,3.52795,3.5278,3.52795h31.75063c1.95088,0,3.5278-1.58044,3.5278-3.52795
			C207.74118,1625.46899,206.16426,1623.88855,204.21338,1623.88855"/>
		<path id="XMLID_110_" style="&st6;" d="M253.60313,1627.41638c0-1.94727-1.57692-3.52783-3.5278-3.52783h-31.75063
			c-1.95087,0-3.5278,1.58044-3.5278,3.52783s1.57693,3.52795,3.5278,3.52795h31.75063
			C252.02621,1630.94434,253.60313,1629.36377,253.60313,1627.41638"/>
		<path id="XMLID_109_" style="&st6;" d="M175.99057,1641.52783h-3.52782c-1.95087,0-3.5278,1.58044-3.5278,3.52783
			s1.57693,3.52783,3.5278,3.52783h3.52782c1.95088,0,3.5278-1.58044,3.5278-3.52783
			C179.51837,1643.1084,177.94145,1641.52783,175.99057,1641.52783"/>
		<path id="XMLID_108_" style="&st6;" d="M197.15764,1641.52783h-7.05573c-1.95088,0-3.52782,1.58044-3.52782,3.52783
			s1.57693,3.52783,3.52782,3.52783h7.05573c1.95087,0,3.5278-1.58044,3.5278-3.52783
			C200.68544,1643.1084,199.10851,1641.52783,197.15764,1641.52783"/>
		<path id="XMLID_107_" style="&st6;" d="M214.79691,1641.52783h-3.5278c-1.95088,0-3.52782,1.58044-3.52782,3.52783
			s1.57693,3.52783,3.52782,3.52783h3.5278c1.95088,0,3.5278-1.58044,3.5278-3.52783
			C218.32471,1643.1084,216.74779,1641.52783,214.79691,1641.52783"/>
		<path id="XMLID_106_" style="&st6;" d="M235.96387,1641.52783h-7.05573c-1.95088,0-3.52782,1.58044-3.52782,3.52783
			s1.57693,3.52783,3.52782,3.52783h7.05573c1.95088,0,3.5278-1.58044,3.5278-3.52783
			C239.49179,1643.1084,237.91487,1641.52783,235.96387,1641.52783"/>
		<path id="XMLID_105_" style="&st6;" d="M247.57051,1642.55078c-0.63853,0.67029-1.0231,1.58765-1.0231,2.50488
			c0,0.91736,0.38458,1.83447,1.0231,2.50476c0.66675,0.63513,1.54869,1.02307,2.50482,1.02307
			c0.91725,0,1.83099-0.38806,2.50482-1.02307c0.63498-0.67029,1.02309-1.58765,1.02309-2.50476
			c0-0.91724-0.38811-1.83459-1.02309-2.50488C251.23944,1641.24561,248.87578,1641.24561,247.57051,1642.55078"/>
	</g>
	<g>
		<circle style="&st7;" cx="229.58728" cy="1721.88403" r="18.06129"/>
		<circle style="&st2;" cx="207.06204" cy="1721.88403" r="18.06129"/>
		<path style="&st5;" d="M211.52553,1721.88208c0,5.71472,2.65648,10.80542,6.79918,14.11523
			c4.14224-3.30969,6.79919-8.401,6.79919-14.11523s-2.65648-10.80542-6.79919-14.11523
			C214.18248,1711.07666,211.52553,1716.16785,211.52553,1721.88208z"/>
	</g>
</g>
</svg>
