<?xml version="1.0" encoding="iso-8859-1"?>
<!-- Generator: Adobe Illustrator 17.0.0, SVG Export Plug-In . SVG Version: 6.00 Build 0)  -->
<!DOCTYPE svg PUBLIC "-//W3C//DTD SVG 1.1//EN" "http://www.w3.org/Graphics/SVG/1.1/DTD/svg11.dtd" [
	<!ENTITY st0 "fill:#1A4162;">
	<!ENTITY st1 "fill:none;">
	<!ENTITY st2 "fill:#F2709E;">
	<!ENTITY st3 "fill:#E3E5E5;">
	<!ENTITY st4 "fill:#F0C41B;">
	<!ENTITY st5 "fill:#FAE196;">
	<!ENTITY st6 "fill:#FFFFFF;">
	<!ENTITY st7 "fill:#E6AA46;">
	<!ENTITY st8 "fill:#D1D1D1;">
]>
<svg version="1.1" id="Capa_1" xmlns="http://www.w3.org/2000/svg" xmlns:xlink="http://www.w3.org/1999/xlink" x="0px" y="0px"
	 width="999.09991px" height="264.0264px" viewBox="39.80198 962.4895 999.09991 264.0264"
	 style="enable-background:new 39.80198 962.4895 999.09991 264.0264;" xml:space="preserve">
<g>
	<g>
		<path style="&st0;" d="M311.62402,1045.07104v20.03906h-11.71875v-56.87506h22.1875c4.27051,0,8.02734,0.78125,11.26953,2.34375
			s5.73535,3.7832,7.48047,6.66016c1.74414,2.87793,2.61719,6.15234,2.61719,9.82428c0,5.57324-1.9082,9.96777-5.72266,13.18359
			c-3.81543,3.2168-9.0957,4.82422-15.83984,4.82422H311.62402z M311.62402,1035.57886h10.46875
			c3.09863,0,5.46191-0.72852,7.08984-2.1875c1.62695-1.45801,2.44141-3.54102,2.44141-6.25
			c0-2.78613-0.82031-5.03912-2.46094-6.75787s-3.90625-2.60352-6.79688-2.65625h-10.74219V1035.57886z"/>
		<path style="&st0;" d="M373.14453,1065.11011c-0.52148-1.01562-0.89844-2.27832-1.13281-3.78906
			c-2.73438,3.04688-6.28906,4.57031-10.66406,4.57031c-4.14062,0-7.57227-1.19727-10.29297-3.59375
			c-2.72168-2.39551-4.08203-5.41602-4.08203-9.0625c0-4.47852,1.66016-7.91602,4.98047-10.3125
			c3.32031-2.39551,8.11816-3.60645,14.39453-3.63281h5.19531v-2.42188c0-1.95312-0.50195-3.51562-1.50391-4.6875
			c-1.00293-1.17188-2.58496-1.75781-4.74609-1.75781c-1.90137,0-3.39258,0.45605-4.47266,1.36719
			c-1.08105,0.91211-1.62109,2.16211-1.62109,3.75h-11.28906c0-2.44727,0.75488-4.71289,2.26562-6.79688
			c1.50977-2.08301,3.64551-3.7168,6.40625-4.9024c2.75977-1.18457,5.85938-1.77734,9.29688-1.77734
			c5.20801,0,9.3418,1.30859,12.40234,3.92584c3.05957,2.61719,4.58984,6.2959,4.58984,11.03516v18.32031
			c0.02539,4.01074,0.58594,7.04492,1.67969,9.10156v0.66406H373.14453z M363.80859,1057.25854
			c1.66602,0,3.20312-0.37109,4.60938-1.11328s2.44727-1.73828,3.125-2.98828v-7.26562h-4.21875
			c-5.65137,0-8.65918,1.95312-9.02344,5.85938l-0.03906,0.66406c0,1.40625,0.49414,2.56543,1.48438,3.47656
			C360.73535,1056.80347,362.08984,1057.25854,363.80859,1057.25854z"/>
		<path style="&st0;" d="M388.29492,1043.66479c0-6.48438,1.54297-11.70508,4.62891-15.66406
			c3.08594-3.95801,7.24609-5.93756,12.48047-5.93756c4.63477,0,8.24219,1.58887,10.82031,4.76569l0.46875-3.98444h10.23438
			v40.85944c0,3.69727-0.83984,6.91406-2.51953,9.64844s-4.04297,4.81738-7.08984,6.25
			c-3.04688,1.43164-6.61523,2.14844-10.70312,2.14844c-3.09961,0-6.12012-0.61914-9.0625-1.85547
			c-2.94336-1.2373-5.16992-2.83203-6.67969-4.78516l5-6.875c2.8125,3.15039,6.22363,4.72656,10.23438,4.72656
			c2.99414,0,5.3252-0.80078,6.99219-2.40234c1.66602-1.60156,2.5-3.87402,2.5-6.81641v-2.26562
			c-2.60449,2.94336-6.0293,4.41406-10.27344,4.41406c-5.07812,0-9.18652-1.98535-12.32422-5.95703
			c-3.13867-3.9707-4.70703-9.23828-4.70703-15.80078V1043.66479z M399.58398,1044.46851c0,3.8457,0.76758,6.86035,2.30469,9.04492
			c1.53613,2.18457,3.64551,3.27637,6.32812,3.27637c3.4375,0,5.89844-1.29395,7.38281-3.88477v-17.85547
			c-1.51074-2.58984-3.94531-3.88477-7.30469-3.88477c-2.70898,0-4.83789,1.1123-6.38672,3.33594
			C400.3584,1036.72437,399.58398,1040.04663,399.58398,1044.46851z"/>
		<path style="&st0;" d="M458.90723,1065.11011c-0.52148-1.01562-0.89844-2.27832-1.13281-3.78906
			c-2.73438,3.04688-6.28906,4.57031-10.66406,4.57031c-4.14062,0-7.57227-1.19727-10.29297-3.59375
			c-2.72168-2.39551-4.08203-5.41602-4.08203-9.0625c0-4.47852,1.66016-7.91602,4.98047-10.3125
			c3.32031-2.39551,8.11816-3.60645,14.39453-3.63281h5.19531v-2.42188c0-1.95312-0.50195-3.51562-1.50391-4.6875
			c-1.00293-1.17188-2.58496-1.75781-4.74609-1.75781c-1.90137,0-3.39258,0.45605-4.47266,1.36719
			c-1.08105,0.91211-1.62109,2.16211-1.62109,3.75h-11.28906c0-2.44727,0.75488-4.71289,2.26562-6.79688
			c1.50977-2.08301,3.64551-3.7168,6.40625-4.9024c2.75977-1.18457,5.85938-1.77734,9.29688-1.77734
			c5.20801,0,9.3418,1.30859,12.40234,3.92584c3.05957,2.61719,4.58984,6.2959,4.58984,11.03516v18.32031
			c0.02539,4.01074,0.58594,7.04492,1.67969,9.10156v0.66406H458.90723z M449.57129,1057.25854
			c1.66602,0,3.20312-0.37109,4.60938-1.11328s2.44727-1.73828,3.125-2.98828v-7.26562h-4.21875
			c-5.65137,0-8.65918,1.95312-9.02344,5.85938l-0.03906,0.66406c0,1.40625,0.49414,2.56543,1.48438,3.47656
			C446.49805,1056.80347,447.85254,1057.25854,449.57129,1057.25854z"/>
		<path style="&st0;" d="M521.71973,1065.11011c-0.52148-1.01562-0.89844-2.27832-1.13281-3.78906
			c-2.73438,3.04688-6.28906,4.57031-10.66406,4.57031c-4.14062,0-7.57227-1.19727-10.29297-3.59375
			c-2.72168-2.39551-4.08203-5.41602-4.08203-9.0625c0-4.47852,1.66016-7.91602,4.98047-10.3125
			c3.32031-2.39551,8.11816-3.60645,14.39453-3.63281h5.19531v-2.42188c0-1.95312-0.50195-3.51562-1.50391-4.6875
			c-1.00293-1.17188-2.58496-1.75781-4.74609-1.75781c-1.90137,0-3.39258,0.45605-4.47266,1.36719
			c-1.08105,0.91211-1.62109,2.16211-1.62109,3.75h-11.28906c0-2.44727,0.75488-4.71289,2.26562-6.79688
			c1.50977-2.08301,3.64551-3.7168,6.40625-4.9024c2.75977-1.18457,5.85938-1.77734,9.29688-1.77734
			c5.20801,0,9.3418,1.30859,12.40234,3.92584c3.05957,2.61719,4.58984,6.2959,4.58984,11.03516v18.32031
			c0.02539,4.01074,0.58594,7.04492,1.67969,9.10156v0.66406H521.71973z M512.38379,1057.25854
			c1.66602,0,3.20312-0.37109,4.60938-1.11328s2.44727-1.73828,3.125-2.98828v-7.26562h-4.21875
			c-5.65137,0-8.65918,1.95312-9.02344,5.85938l-0.03906,0.66406c0,1.40625,0.49414,2.56543,1.48438,3.47656
			C509.31055,1056.80347,510.66504,1057.25854,512.38379,1057.25854z"/>
		<path style="&st0;" d="M571.05566,1031.67261h6.01562c2.86426,0,4.98633-0.71582,6.36719-2.14844
			c1.37988-1.43164,2.07031-3.33301,2.07031-5.70319c0-2.29102-0.68359-4.0752-2.05078-5.35156
			c-1.36719-1.27539-3.24902-1.91406-5.64453-1.91406c-2.16211,0-3.97168,0.59277-5.42969,1.77734
			c-1.45898,1.18555-2.1875,2.72852-2.1875,4.62891h-11.28906c0-2.96875,0.80078-5.63086,2.40234-7.98828
			c1.60156-2.35645,3.84082-4.19922,6.71875-5.52734c2.87695-1.32812,6.04785-1.99219,9.51172-1.99219
			c6.01562,0,10.72852,1.43945,14.14062,4.31641c3.41113,2.87793,5.11719,6.84277,5.11719,11.89453
			c0,2.60455-0.79492,5.00006-2.38281,7.18756c-1.58887,2.1875-3.67188,3.86719-6.25,5.03906
			c3.20312,1.14648,5.5918,2.86523,7.16797,5.15625c1.5752,2.29199,2.36328,5,2.36328,8.125
			c0,5.05273-1.84277,9.10156-5.52734,12.14844c-3.68555,3.04688-8.56152,4.57031-14.62891,4.57031
			c-5.67773,0-10.31934-1.49707-13.92578-4.49219c-3.60742-2.99414-5.41016-6.95312-5.41016-11.875h11.28906
			c0,2.13574,0.80078,3.88086,2.40234,5.23438c1.60156,1.35449,3.57422,2.03125,5.91797,2.03125
			c2.68164,0,4.78516-0.70898,6.30859-2.12891c1.52344-1.41895,2.28516-3.30078,2.28516-5.64453
			c0-5.67676-3.125-8.51562-9.375-8.51562h-5.97656V1031.67261z"/>
		<path style="&st0;" d="M641.6416,1049.13354l7.8125-26.28912h12.10938l-16.99219,48.82819l-0.9375,2.22656
			c-2.52637,5.52051-6.69336,8.28125-12.5,8.28125c-1.64062,0-3.30762-0.24805-5-0.74219v-8.55469l1.71875,0.03906
			c2.13477,0,3.73047-0.32617,4.78516-0.97656c1.05469-0.65137,1.88086-1.73242,2.48047-3.24219l1.32812-3.47656l-14.80469-42.38287
			h12.14844L641.6416,1049.13354z"/>
		<path style="&st0;" d="M711.87598,1042.37573c-2.94336,2.89062-6.38086,4.33594-10.3125,4.33594
			c-5.02637,0-9.0498-1.72461-12.07031-5.17578c-3.02148-3.4502-4.53125-8.10547-4.53125-13.96484
			c0-3.72369,0.81348-7.14166,2.44141-10.25397c1.62695-3.11133,3.89941-5.5332,6.81641-7.26562
			c2.91602-1.73145,6.19727-2.59766,9.84375-2.59766c3.75,0,7.08301,0.9375,10,2.8125
			c2.91602,1.875,5.18164,4.57031,6.79688,8.08594c1.61426,3.51562,2.43457,7.53912,2.46094,12.07037v4.17969
			c0,9.47949-2.35742,16.92773-7.07031,22.34375c-4.71387,5.41699-11.39355,8.30664-20.03906,8.67188l-2.77344,0.03906v-9.41406
			l2.5-0.03906C705.75586,1055.76147,711.06836,1051.1521,711.87598,1042.37573z M704.33691,1038.07886
			c1.82227,0,3.3916-0.46875,4.70703-1.40625c1.31445-0.9375,2.31055-2.07031,2.98828-3.39844v-4.64844
			c0-3.82812-0.72949-6.79694-2.1875-8.90631c-1.45898-2.10938-3.41211-3.16406-5.85938-3.16406
			c-2.26562,0-4.12793,1.03516-5.58594,3.10547c-1.45898,2.07031-2.1875,4.66803-2.1875,7.79303
			c0,3.09961,0.70898,5.64453,2.12891,7.63672C699.75977,1037.08276,701.75879,1038.07886,704.33691,1038.07886z"/>
		<path style="&st0;" d="M314.96289,1089.94604l14.42676,40.73438l14.34961-40.73438h15.19824v56.16406h-11.61035v-15.35254
			l1.15625-26.5l-15.15918,41.85254h-7.94629l-15.12109-41.81445l1.15723,26.46191v15.35254H299.8418v-56.16406H314.96289z"/>
		<path style="&st0;" d="M386.47852,1146.88159c-6.12109,0-11.10352-1.87695-14.94824-5.63184
			c-3.84473-3.75391-5.7666-8.75586-5.7666-15.00488v-1.08008c0-4.19141,0.81055-7.93945,2.42969-11.24512
			c1.62109-3.30371,3.91602-5.84961,6.88574-7.6377c2.9707-1.78613,6.3584-2.68066,10.16504-2.68066
			c5.70898,0,10.20215,1.80078,13.48145,5.40039c3.27832,3.60059,4.91797,8.70508,4.91797,15.31445v4.55176h-26.57715
			c0.35938,2.72559,1.44629,4.91211,3.25879,6.55762c1.81348,1.64551,4.1084,2.46875,6.88574,2.46875
			c4.29395,0,7.65039-1.55566,10.06836-4.66797l5.47656,6.13379c-1.67188,2.36621-3.93359,4.21094-6.78906,5.53516
			C393.11328,1146.21948,389.94922,1146.88159,386.47852,1146.88159z M385.20508,1112.5896
			c-2.21191,0-4.00586,0.74902-5.38086,2.24707c-1.37598,1.49902-2.25684,3.64258-2.64258,6.43164h15.50684v-0.8916
			c-0.05176-2.47949-0.7207-4.39746-2.00586-5.75293C389.39648,1113.26733,387.57031,1112.5896,385.20508,1112.5896z"/>
		<path style="&st0;" d="M431.16016,1134.5769c0-1.36328-0.67578-2.43652-2.02539-3.22168
			c-1.35059-0.7832-3.51758-1.48438-6.5-2.10156c-9.92676-2.08301-14.88965-6.30078-14.88965-12.65234
			c0-3.70312,1.53613-6.79492,4.60938-9.27734c3.07324-2.48145,7.09082-3.72266,12.05469-3.72266
			c5.29688,0,9.53418,1.24805,12.70996,3.74219s4.76367,5.73438,4.76367,9.7207h-11.14746c0-1.59473-0.51465-2.91309-1.54297-3.9541
			c-1.0293-1.04199-2.63672-1.5625-4.82129-1.5625c-1.87793,0-3.33105,0.4248-4.35938,1.27344
			c-1.0293,0.84863-1.54297,1.92871-1.54297,3.24023c0,1.23438,0.58496,2.23145,1.75488,2.98926
			c1.16992,0.75879,3.14355,1.41504,5.9209,1.9668c2.77734,0.55371,5.11719,1.17676,7.02148,1.87109
			c5.8877,2.16016,8.83301,5.90234,8.83301,11.22559c0,3.80566-1.63379,6.88477-4.89941,9.23828
			c-3.26562,2.35254-7.48242,3.5293-12.65234,3.5293c-3.49707,0-6.60254-0.62402-9.31543-1.87109
			c-2.71289-1.24609-4.84082-2.95605-6.38379-5.12988c-1.54297-2.17285-2.31445-4.51953-2.31445-7.04004h10.56934
			c0.10254,1.98047,0.83496,3.49805,2.19824,4.55176c1.36328,1.05469,3.18848,1.58203,5.47852,1.58203
			c2.13379,0,3.74707-0.40527,4.84082-1.21582C430.61328,1136.94897,431.16016,1135.88843,431.16016,1134.5769z"/>
		<path style="&st0;" d="M466.57617,1146.88159c-6.12109,0-11.10352-1.87695-14.94824-5.63184
			c-3.84473-3.75391-5.7666-8.75586-5.7666-15.00488v-1.08008c0-4.19141,0.81055-7.93945,2.42969-11.24512
			c1.62109-3.30371,3.91602-5.84961,6.88574-7.6377c2.9707-1.78613,6.3584-2.68066,10.16504-2.68066
			c5.70898,0,10.20215,1.80078,13.48145,5.40039c3.27832,3.60059,4.91797,8.70508,4.91797,15.31445v4.55176h-26.57715
			c0.35938,2.72559,1.44629,4.91211,3.25879,6.55762c1.81348,1.64551,4.1084,2.46875,6.88574,2.46875
			c4.29395,0,7.65039-1.55566,10.06836-4.66797l5.47656,6.13379c-1.67188,2.36621-3.93359,4.21094-6.78906,5.53516
			C473.21094,1146.21948,470.04688,1146.88159,466.57617,1146.88159z M465.30273,1112.5896
			c-2.21191,0-4.00586,0.74902-5.38086,2.24707c-1.37598,1.49902-2.25684,3.64258-2.64258,6.43164h15.50684v-0.8916
			c-0.05176-2.47949-0.7207-4.39746-2.00586-5.75293C469.49414,1113.26733,467.66797,1112.5896,465.30273,1112.5896z"/>
		<path style="&st0;" d="M511.25781,1134.5769c0-1.36328-0.67578-2.43652-2.02539-3.22168
			c-1.35059-0.7832-3.51758-1.48438-6.5-2.10156c-9.92676-2.08301-14.88965-6.30078-14.88965-12.65234
			c0-3.70312,1.53613-6.79492,4.60938-9.27734c3.07324-2.48145,7.09082-3.72266,12.05469-3.72266
			c5.29688,0,9.53418,1.24805,12.70996,3.74219s4.76367,5.73438,4.76367,9.7207h-11.14746c0-1.59473-0.51465-2.91309-1.54297-3.9541
			c-1.0293-1.04199-2.63672-1.5625-4.82129-1.5625c-1.87793,0-3.33105,0.4248-4.35938,1.27344
			c-1.0293,0.84863-1.54297,1.92871-1.54297,3.24023c0,1.23438,0.58496,2.23145,1.75488,2.98926
			c1.16992,0.75879,3.14355,1.41504,5.9209,1.9668c2.77734,0.55371,5.11719,1.17676,7.02148,1.87109
			c5.8877,2.16016,8.83301,5.90234,8.83301,11.22559c0,3.80566-1.63379,6.88477-4.89941,9.23828
			c-3.26562,2.35254-7.48242,3.5293-12.65234,3.5293c-3.49707,0-6.60254-0.62402-9.31543-1.87109
			c-2.71289-1.24609-4.84082-2.95605-6.38379-5.12988c-1.54297-2.17285-2.31445-4.51953-2.31445-7.04004h10.56934
			c0.10254,1.98047,0.83496,3.49805,2.19824,4.55176c1.36328,1.05469,3.18848,1.58203,5.47852,1.58203
			c2.13379,0,3.74707-0.40527,4.84082-1.21582C510.71094,1136.94897,511.25781,1135.88843,511.25781,1134.5769z"/>
		<path style="&st0;" d="M578.80176,1131.37476c0-2.18555-0.77148-3.86328-2.31445-5.03418
			c-1.54297-1.16895-4.32031-2.40332-8.33203-3.70312c-4.01172-1.29785-7.18848-2.57715-9.52832-3.83789
			c-6.37793-3.44531-9.56641-8.08691-9.56641-13.9248c0-3.03418,0.85449-5.74121,2.56543-8.12012
			c1.70996-2.37793,4.16602-4.23633,7.36719-5.57422c3.20215-1.33691,6.79492-2.00586,10.78125-2.00586
			c4.01172,0,7.58594,0.72754,10.72461,2.17969c3.13672,1.45312,5.57324,3.50391,7.30957,6.15234
			c1.73535,2.64941,2.60352,5.6582,2.60352,9.02637h-11.57227c0-2.57129-0.80957-4.57129-2.43066-5.99805
			c-1.61914-1.42773-3.89551-2.14062-6.82715-2.14062c-2.8291,0-5.02832,0.59766-6.59668,1.79297
			c-1.56836,1.19629-2.35254,2.77148-2.35254,4.72559c0,1.82617,0.91895,3.35645,2.75781,4.59082s4.54492,2.3916,8.12012,3.47168
			c6.58301,1.98047,11.37891,4.43555,14.38867,7.36719c3.00781,2.93164,4.5127,6.58398,4.5127,10.95508
			c0,4.86035-1.83887,8.67383-5.5166,11.4375c-3.67773,2.76465-8.62793,4.14648-14.85059,4.14648
			c-4.32031,0-8.25488-0.79102-11.80371-2.37207c-3.54883-1.58203-6.25586-3.74805-8.12012-6.5
			c-1.86426-2.75098-2.7959-5.94043-2.7959-9.56641h11.61035c0,6.19824,3.70312,9.29688,11.10938,9.29688
			c2.75098,0,4.89941-0.55957,6.44238-1.67871C578.03027,1134.94312,578.80176,1133.38062,578.80176,1131.37476z"/>
		<path style="&st0;" d="M596.2793,1093.57202c0-1.6709,0.55859-3.04688,1.67773-4.12695
			c1.11816-1.08008,2.64258-1.62012,4.57031-1.62012c1.90332,0,3.41992,0.54004,4.55273,1.62012
			c1.13086,1.08008,1.69727,2.45605,1.69727,4.12695c0,1.69727-0.57324,3.08594-1.7168,4.16602
			c-1.14453,1.08008-2.65625,1.62012-4.5332,1.62012s-3.3877-0.54004-4.53223-1.62012S596.2793,1095.26929,596.2793,1093.57202z
			 M608.12109,1146.11011h-11.18652v-41.7373h11.18652V1146.11011z"/>
		<path style="&st0;" d="M626.34668,1104.3728l0.34668,4.82227c2.98242-3.72852,6.98145-5.59375,11.99707-5.59375
			c4.42188,0,7.71484,1.29883,9.875,3.89648s3.26465,6.48047,3.31641,11.64941v26.96289h-11.14746v-26.75488
			c0-2.37109-0.51465-4.0918-1.54297-5.16113c-1.0293-1.06934-2.73926-1.60449-5.12988-1.60449
			c-3.13867,0-5.49121,1.33984-7.05957,4.02051v29.5h-11.14746v-41.7373H626.34668z"/>
		<path style="&st0;" d="M693.04102,1146.11011h-11.57227v-56.16406h11.57227V1146.11011z"/>
		<path style="&st0;" d="M712.19336,1104.3728l0.34668,4.82227c2.98242-3.72852,6.98145-5.59375,11.99707-5.59375
			c4.42188,0,7.71484,1.29883,9.875,3.89648s3.26465,6.48047,3.31641,11.64941v26.96289h-11.14746v-26.75488
			c0-2.37109-0.51465-4.0918-1.54297-5.16113c-1.0293-1.06934-2.73926-1.60449-5.12988-1.60449
			c-3.13867,0-5.49121,1.33984-7.05957,4.02051v29.5h-11.14746v-41.7373H712.19336z"/>
		<path style="&st0;" d="M758.27539,1094.11206v10.26074h7.13574v8.17773h-7.13574v20.83008
			c0,1.54297,0.29492,2.64941,0.88672,3.31738c0.59082,0.66895,1.72266,1.00293,3.39453,1.00293
			c1.23438,0,2.32715-0.08984,3.2793-0.26953v8.44727c-2.18652,0.66895-4.43652,1.00293-6.75098,1.00293
			c-7.81836,0-11.80371-3.94727-11.95801-11.8418v-22.48926h-6.09473v-8.17773h6.09473v-10.26074H758.27539z"/>
		<path style="&st0;" d="M788.72266,1146.88159c-6.12109,0-11.10352-1.87695-14.94824-5.63184
			c-3.84473-3.75391-5.7666-8.75586-5.7666-15.00488v-1.08008c0-4.19141,0.81055-7.93945,2.42969-11.24512
			c1.62109-3.30371,3.91602-5.84961,6.88574-7.6377c2.9707-1.78613,6.3584-2.68066,10.16504-2.68066
			c5.70898,0,10.20215,1.80078,13.48145,5.40039c3.27832,3.60059,4.91797,8.70508,4.91797,15.31445v4.55176h-26.57715
			c0.35938,2.72559,1.44629,4.91211,3.25879,6.55762c1.81348,1.64551,4.1084,2.46875,6.88574,2.46875
			c4.29395,0,7.65039-1.55566,10.06836-4.66797L805,1139.36011c-1.67188,2.36621-3.93359,4.21094-6.78906,5.53516
			C795.35742,1146.21948,792.19336,1146.88159,788.72266,1146.88159z M787.44922,1112.5896
			c-2.21191,0-4.00586,0.74902-5.38086,2.24707c-1.37598,1.49902-2.25684,3.64258-2.64258,6.43164h15.50684v-0.8916
			c-0.05176-2.47949-0.7207-4.39746-2.00586-5.75293C791.64062,1113.26733,789.81445,1112.5896,787.44922,1112.5896z"/>
		<path style="&st0;" d="M834.93945,1114.8269c-1.51758-0.20605-2.85352-0.30859-4.01172-0.30859
			c-4.21777,0-6.98145,1.42676-8.29297,4.28125v27.31055h-11.14844v-41.7373h10.53125l0.30859,4.97656
			c2.2373-3.83203,5.33594-5.74805,9.29688-5.74805c1.23438,0,2.39062,0.16797,3.4707,0.50195L834.93945,1114.8269z"/>
		<path style="&st0;" d="M858.09766,1146.88159c-6.12109,0-11.10352-1.87695-14.94824-5.63184
			c-3.84473-3.75391-5.7666-8.75586-5.7666-15.00488v-1.08008c0-4.19141,0.81055-7.93945,2.42969-11.24512
			c1.62109-3.30371,3.91602-5.84961,6.88574-7.6377c2.9707-1.78613,6.3584-2.68066,10.16504-2.68066
			c5.70898,0,10.20215,1.80078,13.48145,5.40039c3.27832,3.60059,4.91797,8.70508,4.91797,15.31445v4.55176h-26.57715
			c0.35938,2.72559,1.44629,4.91211,3.25879,6.55762c1.81348,1.64551,4.1084,2.46875,6.88574,2.46875
			c4.29395,0,7.65039-1.55566,10.06836-4.66797l5.47656,6.13379c-1.67188,2.36621-3.93359,4.21094-6.78906,5.53516
			C864.73242,1146.21948,861.56836,1146.88159,858.09766,1146.88159z M856.82422,1112.5896
			c-2.21191,0-4.00586,0.74902-5.38086,2.24707c-1.37598,1.49902-2.25684,3.64258-2.64258,6.43164h15.50684v-0.8916
			c-0.05176-2.47949-0.7207-4.39746-2.00586-5.75293C861.01562,1113.26733,859.18945,1112.5896,856.82422,1112.5896z"/>
		<path style="&st0;" d="M902.7793,1134.5769c0-1.36328-0.67578-2.43652-2.02539-3.22168
			c-1.35059-0.7832-3.51758-1.48438-6.5-2.10156c-9.92676-2.08301-14.88965-6.30078-14.88965-12.65234
			c0-3.70312,1.53613-6.79492,4.60938-9.27734c3.07324-2.48145,7.09082-3.72266,12.05469-3.72266
			c5.29688,0,9.53418,1.24805,12.70996,3.74219s4.76367,5.73438,4.76367,9.7207h-11.14746c0-1.59473-0.51465-2.91309-1.54297-3.9541
			c-1.0293-1.04199-2.63672-1.5625-4.82129-1.5625c-1.87793,0-3.33105,0.4248-4.35938,1.27344
			c-1.0293,0.84863-1.54297,1.92871-1.54297,3.24023c0,1.23438,0.58496,2.23145,1.75488,2.98926
			c1.16992,0.75879,3.14355,1.41504,5.9209,1.9668c2.77734,0.55371,5.11719,1.17676,7.02148,1.87109
			c5.8877,2.16016,8.83301,5.90234,8.83301,11.22559c0,3.80566-1.63379,6.88477-4.89941,9.23828
			c-3.26562,2.35254-7.48242,3.5293-12.65234,3.5293c-3.49707,0-6.60254-0.62402-9.31543-1.87109
			c-2.71289-1.24609-4.84082-2.95605-6.38379-5.12988c-1.54297-2.17285-2.31445-4.51953-2.31445-7.04004h10.56934
			c0.10254,1.98047,0.83496,3.49805,2.19824,4.55176c1.36328,1.05469,3.18848,1.58203,5.47852,1.58203
			c2.13379,0,3.74707-0.40527,4.84082-1.21582C902.23242,1136.94897,902.7793,1135.88843,902.7793,1134.5769z"/>
		<path style="&st0;" d="M938.19434,1146.88159c-6.12109,0-11.10352-1.87695-14.94824-5.63184
			c-3.84473-3.75391-5.7666-8.75586-5.7666-15.00488v-1.08008c0-4.19141,0.81055-7.93945,2.42969-11.24512
			c1.62109-3.30371,3.91602-5.84961,6.88574-7.6377c2.9707-1.78613,6.3584-2.68066,10.16504-2.68066
			c5.70898,0,10.20215,1.80078,13.48145,5.40039c3.27832,3.60059,4.91797,8.70508,4.91797,15.31445v4.55176h-26.57715
			c0.35938,2.72559,1.44629,4.91211,3.25879,6.55762c1.81348,1.64551,4.1084,2.46875,6.88574,2.46875
			c4.29395,0,7.65039-1.55566,10.06836-4.66797l5.47656,6.13379c-1.67188,2.36621-3.93359,4.21094-6.78906,5.53516
			C944.8291,1146.21948,941.66504,1146.88159,938.19434,1146.88159z M936.9209,1112.5896
			c-2.21191,0-4.00586,0.74902-5.38086,2.24707c-1.37598,1.49902-2.25684,3.64258-2.64258,6.43164h15.50684v-0.8916
			c-0.05176-2.47949-0.7207-4.39746-2.00586-5.75293C941.1123,1113.26733,939.28613,1112.5896,936.9209,1112.5896z"/>
		<path style="&st0;" d="M982.87598,1134.5769c0-1.36328-0.67578-2.43652-2.02539-3.22168
			c-1.35059-0.7832-3.51758-1.48438-6.5-2.10156c-9.92676-2.08301-14.88965-6.30078-14.88965-12.65234
			c0-3.70312,1.53613-6.79492,4.60938-9.27734c3.07324-2.48145,7.09082-3.72266,12.05469-3.72266
			c5.29688,0,9.53418,1.24805,12.70996,3.74219s4.76367,5.73438,4.76367,9.7207h-11.14746c0-1.59473-0.51465-2.91309-1.54297-3.9541
			c-1.0293-1.04199-2.63672-1.5625-4.82129-1.5625c-1.87793,0-3.33105,0.4248-4.35938,1.27344
			c-1.0293,0.84863-1.54297,1.92871-1.54297,3.24023c0,1.23438,0.58496,2.23145,1.75488,2.98926
			c1.16992,0.75879,3.14355,1.41504,5.9209,1.9668c2.77734,0.55371,5.11719,1.17676,7.02148,1.87109
			c5.8877,2.16016,8.83301,5.90234,8.83301,11.22559c0,3.80566-1.63379,6.88477-4.89941,9.23828
			c-3.26562,2.35254-7.48242,3.5293-12.65234,3.5293c-3.49707,0-6.60254-0.62402-9.31543-1.87109
			c-2.71289-1.24609-4.84082-2.95605-6.38379-5.12988c-1.54297-2.17285-2.31445-4.51953-2.31445-7.04004h10.56934
			c0.10254,1.98047,0.83496,3.49805,2.19824,4.55176c1.36328,1.05469,3.18848,1.58203,5.47852,1.58203
			c2.13379,0,3.74707-0.40527,4.84082-1.21582C982.3291,1136.94897,982.87598,1135.88843,982.87598,1134.5769z"/>
	</g>
</g>
<g>
	<g id="XMLID_82_">
		<path id="XMLID_97_" style="&st3;" d="M256.36545,1155.83533H74.44861c-6.27252,0-11.34903-5.08008-11.34903-11.349v-125.47131
			c0-6.26898,5.07651-11.349,11.34903-11.349h181.91684c6.26898,0,11.34903,5.08008,11.34903,11.349v125.47131
			C267.71448,1150.75525,262.63443,1155.83533,256.36545,1155.83533"/>
		<path id="XMLID_96_" style="&st4;" d="M132.75685,1071.16699H85.1662c-2.44128,0-4.42747-1.98267-4.42747-4.42737v-33.47925
			c0-2.44482,1.9862-4.42737,4.42747-4.42737h47.59065c2.44484,0,4.42749,1.98254,4.42749,4.42737v33.47925
			C137.18422,1069.18433,135.20158,1071.16699,132.75685,1071.16699"/>
		<path id="XMLID_95_" style="&st5;" d="M132.75685,1074.69495H85.1662c-4.38507,0-7.95528-3.57019-7.95528-7.95532v-33.47925
			c0-4.38501,3.57021-7.9552,7.95528-7.9552h47.59065c4.38509,0,7.95529,3.57019,7.95529,7.9552v33.47925
			C140.71214,1071.12463,137.14194,1074.69495,132.75685,1074.69495 M85.1662,1032.36084c-0.50092,0-0.89954,0.4021-0.89954,0.89954
			v33.47913c0,0.49731,0.39863,0.89966,0.89954,0.89966h47.59065c0.49738,0,0.89955-0.4021,0.89955-0.89966v-33.47913
			c0-0.49744-0.40218-0.89954-0.89955-0.89954H85.1662z"/>
		<path id="XMLID_94_" style="&st4;" d="M137.18422,1033.26038c0-2.44824-1.98267-4.42737-4.42749-4.42737h-16.7396h-9.68398
			c-2.44836,0-4.42747,1.97925-4.42747,4.42737v9.68408v23.79529c0,2.44482,1.97911,4.42737,4.42747,4.42737h5.25652
			c2.44482,0,4.42747-1.98254,4.42747-4.42737v-19.36792c0-2.4447,1.9791-4.42737,4.42747-4.42737h12.31213
			c2.44482,0,4.42749-1.98267,4.42749-4.42749V1033.26038z"/>
		<path id="XMLID_93_" style="&st5;" d="M111.58978,1074.69495h-5.25651c-4.38508,0-7.95528-3.57019-7.95528-7.95532v-33.47925
			c0-4.38501,3.57021-7.9552,7.95528-7.9552h26.42358c4.38509,0,7.95529,3.57019,7.95529,7.9552v5.25647
			c0,4.38513-3.57021,7.95544-7.95529,7.95544h-12.31211c-0.50092,0-0.89967,0.40222-0.89967,0.89954v19.36792
			C119.54507,1071.12463,115.97486,1074.69495,111.58978,1074.69495 M106.33327,1032.36084
			c-0.50092,0-0.89955,0.4021-0.89955,0.89954v33.47913c0,0.49731,0.39864,0.89966,0.89955,0.89966h5.25651
			c0.49738,0,0.89955-0.4021,0.89955-0.89966v-19.3678c0-4.38513,3.57021-7.95532,7.95528-7.95532h12.31212
			c0.49738,0,0.89955-0.40222,0.89955-0.89966v-5.25647c0-0.49744-0.40218-0.89966-0.89955-0.89966h-26.42345V1032.36084z"/>
		<path id="XMLID_92_" style="&st5;" d="M137.18422,1060.5835h-21.16708c-1.95088,0-3.52781-1.58044-3.52781-3.52783
			s1.57693-3.52783,3.52781-3.52783h21.16708c1.95087,0,3.5278,1.58044,3.5278,3.52783
			C140.71214,1059.00305,139.13509,1060.5835,137.18422,1060.5835"/>
		<path id="XMLID_91_" style="&st5;" d="M101.9058,1046.47217H80.73872c-1.95087,0-3.5278-1.58044-3.5278-3.52795
			c0-1.94727,1.57693-3.52771,3.5278-3.52771h21.16708c1.95088,0,3.52781,1.58044,3.52781,3.52771
			C105.43361,1044.89172,103.85668,1046.47217,101.9058,1046.47217"/>
		<path id="XMLID_90_" style="&st5;" d="M101.9058,1060.5835H80.73872c-1.95087,0-3.5278-1.58044-3.5278-3.52783
			s1.57693-3.52783,3.5278-3.52783h21.16708c1.95088,0,3.52781,1.58044,3.52781,3.52783S103.85668,1060.5835,101.9058,1060.5835"/>
		<path id="XMLID_89_" style="&st6;" d="M204.21338,1025.30505h-31.75063c-1.95087,0-3.5278,1.58044-3.5278,3.52783
			s1.57693,3.52795,3.5278,3.52795h31.75063c1.95088,0,3.5278-1.58044,3.5278-3.52795
			C207.74118,1026.8855,206.16426,1025.30505,204.21338,1025.30505"/>
		<path id="XMLID_88_" style="&st6;" d="M253.60313,1028.83289c0-1.94727-1.57692-3.52783-3.5278-3.52783h-31.75063
			c-1.95087,0-3.5278,1.58044-3.5278,3.52783s1.57693,3.52795,3.5278,3.52795h31.75063
			C252.02621,1032.36084,253.60313,1030.78015,253.60313,1028.83289"/>
		<path id="XMLID_87_" style="&st6;" d="M175.99057,1042.94421h-3.52782c-1.95087,0-3.5278,1.58044-3.5278,3.52795
			c0,1.94727,1.57693,3.52783,3.5278,3.52783h3.52782c1.95088,0,3.5278-1.58044,3.5278-3.52783
			C179.51837,1044.5249,177.94145,1042.94421,175.99057,1042.94421"/>
		<path id="XMLID_86_" style="&st6;" d="M197.15764,1042.94421h-7.05573c-1.95088,0-3.52782,1.58044-3.52782,3.52795
			c0,1.94727,1.57693,3.52783,3.52782,3.52783h7.05573c1.95087,0,3.5278-1.58044,3.5278-3.52783
			C200.68544,1044.5249,199.10851,1042.94421,197.15764,1042.94421"/>
		<path id="XMLID_85_" style="&st6;" d="M214.79691,1042.94421h-3.5278c-1.95088,0-3.52782,1.58044-3.52782,3.52795
			c0,1.94727,1.57693,3.52783,3.52782,3.52783h3.5278c1.95088,0,3.5278-1.58044,3.5278-3.52783
			C218.32471,1044.5249,216.74779,1042.94421,214.79691,1042.94421"/>
		<path id="XMLID_84_" style="&st6;" d="M235.96387,1042.94421h-7.05573c-1.95088,0-3.52782,1.58044-3.52782,3.52795
			c0,1.94727,1.57693,3.52783,3.52782,3.52783h7.05573c1.95088,0,3.5278-1.58044,3.5278-3.52783
			C239.49179,1044.5249,237.91487,1042.94421,235.96387,1042.94421"/>
		<path id="XMLID_83_" style="&st6;" d="M247.57051,1043.96729c-0.63853,0.67029-1.0231,1.58765-1.0231,2.50488
			s0.38458,1.83447,1.0231,2.50476c0.66675,0.63513,1.54869,1.02307,2.50482,1.02307c0.91725,0,1.83099-0.38818,2.50482-1.02307
			c0.63498-0.67029,1.02309-1.58765,1.02309-2.50476c0-0.91724-0.38811-1.83459-1.02309-2.50488
			C251.23944,1042.66211,248.87578,1042.66211,247.57051,1043.96729"/>
	</g>
	<g>
		<circle style="&st7;" cx="229.58728" cy="1123.30054" r="18.06129"/>
		<circle style="&st2;" cx="207.06204" cy="1123.30054" r="18.06129"/>
		<path style="&st5;" d="M211.52553,1123.29858c0,5.71472,2.65648,10.80542,6.79918,14.11523
			c4.14224-3.30969,6.79919-8.401,6.79919-14.11523s-2.65648-10.80542-6.79919-14.11536
			C214.18248,1112.49316,211.52553,1117.58435,211.52553,1123.29858z"/>
	</g>
</g>
</svg>
