<?xml version="1.0" encoding="utf-8"?>
<!-- Generator: Adobe Illustrator 17.0.0, SVG Export Plug-In . SVG Version: 6.00 Build 0)  -->
<!DOCTYPE svg PUBLIC "-//W3C//DTD SVG 1.1//EN" "http://www.w3.org/Graphics/SVG/1.1/DTD/svg11.dtd">
<svg version="1.1" id="Capa_1" xmlns="http://www.w3.org/2000/svg" xmlns:xlink="http://www.w3.org/1999/xlink" x="0px" y="0px"
	 width="612px" height="792px" viewBox="0 0 612 792" enable-background="new 0 0 612 792" xml:space="preserve">
<linearGradient id="SVGID_1_" gradientUnits="userSpaceOnUse" x1="528.1201" y1="210.5622" x2="674.8915" y2="210.5622" gradientTransform="matrix(1 0 0 -1 -156 546)">
	<stop  offset="0" style="stop-color:#FF1C3D"/>
	<stop  offset="1" style="stop-color:#D41128"/>
</linearGradient>
<circle fill="url(#SVGID_1_)" cx="445.506" cy="335.438" r="73.386"/>
<path opacity="0.13" fill="#020202" enable-background="new    " d="M484,492.93H127.2c-3.69,0-6.69-2.99-6.69-6.69l0,0
	c0-3.69,2.99-6.69,6.69-6.69H484c3.69,0,6.69,2.99,6.69,6.69l0,0C490.68,489.94,487.69,492.93,484,492.93z"/>
<g id="XMLID_6_">
	<g>
		
			<line fill="none" stroke="#294968" stroke-linecap="round" stroke-linejoin="round" stroke-miterlimit="10" x1="202.74" y1="461.794" x2="190.79" y2="448.154"/>
	</g>
</g>
<g id="XMLID_22_">
	<g>
		<path fill="#FFFFFF" d="M469.209,435.117c2.891,0,5.239,2.349,5.239,5.239c0,2.891-2.349,5.239-5.239,5.239
			s-5.239-2.349-5.239-5.239C463.97,437.465,466.318,435.117,469.209,435.117z"/>
		<path fill="#E5EDF0" d="M476.501,412.747c-0.115-0.378-0.246-0.739-0.411-1.117c0,0-21.762,0-29.367-7.916
			c-4.664-4.862,5.568-9.247,5.568-9.247c-23.289-8.935-54.627-12.515-54.627-12.515s-60.983-42.095-127.501-42.095
			c-27.856,0-49.634,0.986-66.124,2.25c-30.089,2.299-42.687,5.551-42.687,5.551c-0.411,2.464,5.962,5.551,5.962,5.551
			c5.124,2.464,2.25,7.801,2.25,7.801l-11.908,20.12c0,0,2.677,9.855,1.642,14.371c-1.018,4.517-23.733,10.298-23.733,10.298
			l-2.135,16.178v27.1c4.73,10.676,17.081,11.743,17.081,11.743c-0.066-0.887-0.098-1.774-0.098-2.661
			c0-5.568,1.264-10.84,3.498-15.554c5.831-12.187,18.264-20.629,32.684-20.629c17.607,0,32.274,12.597,35.493,29.268
			c0.443,2.234,0.674,4.55,0.674,6.915c0,1.248-0.05,2.48-0.181,3.695h165.556c-0.132-1.216-0.181-2.447-0.181-3.695
			c0-2.332,0.213-4.615,0.657-6.816c3.17-16.72,17.87-29.367,35.509-29.367c17.081,0,31.387,11.826,35.181,27.741
			c0.657,2.71,1.002,5.535,1.002,8.442c0,0.887-0.033,1.774-0.098,2.661c12.86-1.413,16.293-13.172,16.293-13.172
			c0.312-0.756,0.575-1.528,0.821-2.332C481.445,431.782,476.501,412.747,476.501,412.747z M169.565,409.659
			c-4.188,0-7.588-3.4-7.588-7.588c0-4.188,3.4-7.604,7.588-7.604c4.205,0,7.604,3.416,7.604,7.604
			C177.169,406.259,173.77,409.659,169.565,409.659z M216.374,398.983H197.7c-1.248,0-2.267-1.002-2.267-2.25
			c0-1.248,1.018-2.267,2.267-2.267h18.674c1.248,0,2.267,1.018,2.267,2.267C218.641,397.981,217.622,398.983,216.374,398.983z
			 M288.444,400.346c0-1.248,1.018-2.267,2.267-2.267h18.674c1.248,0,2.267,1.018,2.267,2.267c0,1.232-1.018,2.25-2.267,2.25H290.71
			C289.462,402.597,288.444,401.578,288.444,400.346z M389.042,394.467l-100.599-7.588l-9.427-0.706l-10.643-0.805l-61.525-4.648
			c0,0-18.182-3.498-19.003-21.155c-0.575-12.318,41.455-13.813,72.891-13.123c0,0,0.033,0,0.098,0.016
			c3.926,0.082,7.686,0.197,11.185,0.328c4.32,0.181,8.245,0.378,11.53,0.558c3.252,0.197,5.896,0.378,7.769,0.526
			C322.524,350.335,390.274,377.632,389.042,394.467z M469.209,435.117c2.891,0,5.239,2.349,5.239,5.239
			c0,2.891-2.349,5.239-5.239,5.239c-2.891,0-5.239-2.349-5.239-5.239C463.97,437.465,466.318,435.117,469.209,435.117z"/>
		<path fill="#F473A5" d="M476.262,411.474c0,0-21.762,0-29.367-7.916c-4.664-4.862,5.568-9.247,5.568-9.247
			c-23.289-8.935-54.627-12.515-54.627-12.515S336.853,339.7,270.335,339.7c-27.856,0-49.634,0.986-66.124,2.25
			c-30.089,2.299-42.687,5.551-42.687,5.551c-0.411,2.464,5.962,5.551,5.962,5.551c5.124,2.464,2.25,7.801,2.25,7.801l-11.908,20.12
			c0,0,2.677,9.855,1.642,14.371c-1.018,4.517-23.733,10.298-23.733,10.298S476.426,411.852,476.262,411.474z M169.736,409.503
			c-4.188,0-7.588-3.4-7.588-7.588c0-4.188,3.4-7.604,7.588-7.604c4.205,0,7.604,3.416,7.604,7.604
			C177.341,406.103,173.941,409.503,169.736,409.503z M216.545,398.827h-18.674c-1.248,0-2.267-1.002-2.267-2.25
			c0-1.248,1.018-2.267,2.267-2.267h18.674c1.248,0,2.267,1.018,2.267,2.267C218.812,397.826,217.794,398.827,216.545,398.827z
			 M288.615,400.191c0-1.248,1.018-2.267,2.267-2.267h18.674c1.248,0,2.267,1.018,2.267,2.267c0,1.232-1.018,2.25-2.267,2.25
			h-18.674C289.633,402.441,288.615,401.422,288.615,400.191z M389.213,394.311l-100.599-7.588l-9.427-0.706l-10.643-0.805
			l-61.525-4.648c0,0-18.182-3.498-19.003-21.155c-0.575-12.318,41.455-13.813,72.891-13.123c0,0,0.033,0,0.098,0.016
			c3.926,0.082,7.686,0.197,11.185,0.328c4.32,0.181,8.245,0.378,11.53,0.558c3.252,0.197,5.896,0.378,7.768,0.526
			C322.695,350.179,390.445,377.476,389.213,394.311z"/>
		<path fill="#D4D4D4" d="M153.913,442.606c-2.234,4.714-3.498,9.986-3.498,15.554c0,0.887,0.033,1.774,0.098,2.661
			c0,0-12.351-1.068-17.081-11.743v-12.285C137.62,438.204,144.584,440.372,153.913,442.606z"/>
		<path fill="#D4D4D4" d="M388.615,451.344c-0.443,2.201-0.657,4.484-0.657,6.816c0,1.248,0.049,2.48,0.181,3.695H222.583
			c0.131-1.216,0.181-2.447,0.181-3.695c0-2.365-0.23-4.681-0.674-6.915c2.628,0.066,5.305,0.099,8.015,0.099H388.615z"/>
		<path fill="#D4D4D4" d="M477.323,445.316c-0.246,0.805-0.509,1.577-0.821,2.332c0,0-3.433,11.76-16.293,13.172
			c0.065-0.887,0.098-1.774,0.098-2.661c0-2.907-0.345-5.732-1.002-8.442C465.809,448.683,471.952,447.238,477.323,445.316z"/>
		<path fill="#FFFFFF" d="M476.091,411.63c0,0-21.762,0-29.367-7.916c-4.664-4.862,5.568-9.247,5.568-9.247
			C463.69,398.852,473.151,404.502,476.091,411.63z"/>
		<path fill="#1E3444" d="M460.307,458.16c0,0.887-0.033,1.774-0.099,2.661h-7.145l-0.131-0.016
			c0.099-0.871,0.131-1.758,0.131-2.644c0-15.981-12.959-28.923-28.939-28.923c-15.981,0-28.923,12.942-28.923,28.923
			c0,1.248,0.082,2.48,0.246,3.695h-7.309c-0.131-1.216-0.181-2.447-0.181-3.695c0-19.972,16.194-36.183,36.166-36.183
			C444.113,421.977,460.307,438.188,460.307,458.16z"/>
		<path fill="#2C4263" d="M424.125,429.237c-15.981,0-28.923,12.942-28.923,28.923c0,1.248,0.082,2.48,0.246,3.695
			c1.807,14.24,13.944,25.244,28.677,25.244c15.094,0,27.478-11.546,28.808-26.295c0.099-0.87,0.131-1.757,0.131-2.644
			C453.064,442.179,440.105,429.237,424.125,429.237z M424.125,469.673c-6.356,0-11.513-5.157-11.513-11.513
			c0-6.356,5.157-11.513,11.513-11.513c6.356,0,11.513,5.157,11.513,11.513C435.638,464.516,430.481,469.673,424.125,469.673z"/>
		<circle fill="#7A7E80" cx="424.125" cy="458.16" r="11.513"/>
		<path fill="#C6EAF7" d="M291.318,347.871c12.491-0.526,43.212,10.742,45.627,11.628c27.116,10.068,52.853,24.538,52.098,34.967
			l-62.971-4.747l-7.999-0.608l-29.629-2.234c-13.961-36.741-4.894-39.533-4.894-39.533
			C286.801,347.542,289.446,347.723,291.318,347.871"/>
		<path fill="#CCCCCC" d="M309.385,398.08c1.248,0,2.267,1.018,2.267,2.267c0,1.232-1.018,2.25-2.267,2.25H290.71
			c-1.248,0-2.267-1.018-2.267-2.25c0-1.248,1.018-2.267,2.267-2.267H309.385z"/>
		<path fill="#1E3444" d="M288.444,386.878l-9.427-0.706c-3.071-24.062-6.997-39.385-6.997-39.385
			c4.32,0.181,8.245,0.378,11.53,0.558C283.549,347.345,274.483,350.138,288.444,386.878z"/>
		<path fill="#1E3444" d="M279.016,386.172l-10.643-0.805c2.973-35.788-6.504-38.696-7.539-38.909
			c3.925,0.082,7.686,0.197,11.185,0.328C272.019,346.787,275.945,362.111,279.016,386.172z"/>
		<path fill="#C6EAF7" d="M268.373,385.367l-34.195-2.579l-3.991-0.312l-9.723-0.723l-7.998-0.608l-5.617-0.427
			c0,0-18.182-3.498-19.003-21.155c-0.361-7.834,16.506-11.3,36.938-12.581c2.743-0.181,5.535-0.312,8.36-0.411
			c3.334-0.131,6.701-0.197,10.068-0.23c1.38-0.016,2.759-0.033,4.122-0.033c4.583-0.017,9.083,0.033,13.402,0.131
			c0,0,0.033,0,0.098,0.016C261.869,346.672,271.346,349.579,268.373,385.367z"/>
		<path fill="#1E3444" d="M222.763,458.16c0,1.248-0.049,2.48-0.181,3.695h-7.309c0.164-1.216,0.246-2.447,0.246-3.695
			c0-15.981-12.942-28.923-28.923-28.923c-15.981,0-28.939,12.942-28.939,28.923c0,0.887,0.033,1.774,0.131,2.644l-0.131,0.016
			h-7.145c-0.066-0.887-0.098-1.774-0.098-2.661c0-19.972,16.194-36.183,36.183-36.183
			C206.569,421.977,222.763,438.188,222.763,458.16z"/>
		<path fill="#CCCCCC" d="M216.374,394.467c1.248,0,2.267,1.018,2.267,2.267c0,1.248-1.018,2.25-2.267,2.25H197.7
			c-1.248,0-2.267-1.002-2.267-2.25c0-1.248,1.018-2.267,2.267-2.267H216.374z"/>
		<path fill="#2C4263" d="M186.597,429.237c-15.981,0-28.94,12.942-28.94,28.923c0,0.887,0.033,1.774,0.131,2.644
			c1.331,14.749,13.714,26.295,28.808,26.295c14.733,0,26.87-11.004,28.677-25.244c0.164-1.215,0.247-2.447,0.247-3.695
			C215.52,442.179,202.578,429.237,186.597,429.237z M175.067,458.16c0-6.356,5.158-11.513,11.514-11.513
			c6.356,0,11.513,5.157,11.513,11.513c0,6.356-5.157,11.513-11.513,11.513C180.224,469.673,175.067,464.516,175.067,458.16z"/>
		<circle fill="#7A7E80" cx="186.597" cy="458.16" r="11.513"/>
		<path fill="#CCCCCC" d="M169.565,394.467c4.205,0,7.604,3.416,7.604,7.604c0,4.188-3.4,7.588-7.604,7.588
			c-4.188,0-7.588-3.4-7.588-7.588C161.977,397.883,165.377,394.467,169.565,394.467z"/>
		<path fill="#B54266" d="M167.315,353.209c5.124,2.464,2.25,7.801,2.25,7.801l-11.908,20.12c0,0,2.677,9.855,1.642,14.371
			c-1.018,4.517-23.733,10.298-23.733,10.298l1.363-10.298C136.93,395.501,141.644,380.095,167.315,353.209z"/>
	</g>
	<g>
		<g>
			<circle fill="none" cx="186.597" cy="458.16" r="11.513"/>
		</g>
		<circle fill="none" cx="424.124" cy="458.16" r="11.513"/>
		<path fill="none" stroke="#294968" stroke-linecap="round" stroke-linejoin="round" stroke-miterlimit="10" d="M282.482,451.344"
			/>
		<path fill="none" stroke="#294968" stroke-linecap="round" stroke-linejoin="round" stroke-miterlimit="10" d="M272.019,346.787
			c0,0,3.925,15.324,6.997,39.385"/>
		<path fill="none" stroke="#294968" stroke-linecap="round" stroke-linejoin="round" stroke-miterlimit="10" d="M379.795,451.344"
			/>
		<path fill="none" stroke="#294968" stroke-linecap="round" stroke-linejoin="round" stroke-miterlimit="10" d="M282.482,451.344"
			/>
		<path fill="none" stroke="#294968" stroke-linecap="round" stroke-linejoin="round" stroke-miterlimit="10" d="M236.083,451.344"
			/>
		
			<line fill="none" stroke="#294968" stroke-linecap="round" stroke-linejoin="round" stroke-miterlimit="10" x1="204.039" y1="342.106" x2="192.362" y2="328.769"/>
	</g>
</g>
<g>
	<g>
		<g>
			<g>
				<path fill="#FFFFFF" d="M484.741,290.644l-7.976,7.976c-0.418,0-1.262-0.418-1.68-0.418l-25.182-6.296
					c-2.935-0.837-5.877,0-7.976,2.099l-44.906,44.906c-3.36,3.36-3.36,8.394,0,11.754l31.478,31.478c3.36,3.36,8.394,3.36,11.754,0
					l44.906-44.906c2.099-2.099,2.935-5.034,2.099-7.976l-6.296-25.182c0-0.837,0-1.262-0.418-1.68l7.976-7.976
					c1.262-0.837,1.262-2.517,0-3.779C487.258,289.807,485.578,289.807,484.741,290.644z M472.15,303.236l-6.714,6.714
					c-3.36-1.262-7.132-0.837-9.656,1.68c-1.68,1.68-2.517,3.779-2.517,5.877c0,2.099,0.837,4.197,2.517,5.877
					c3.36,3.36,8.394,3.36,11.754,0c2.517-2.935,3.36-6.714,1.68-9.656l6.714-6.714l5.877,23.502c0,0.418,0,0.418,0,0.837
					c0,0.837-0.418,1.68-0.837,2.099l-44.906,44.906c-0.837,0.837-2.935,0.837-3.779,0l-31.478-31.478
					c-1.262-0.837-1.262-2.517,0-3.779l44.906-44.906c0.418-0.837,1.68-1.262,2.517-0.837L472.15,303.236z M463.337,314.983
					L463.337,314.983L463.337,314.983c0.418,0.837,0.837,1.262,0.837,2.099s-0.418,1.68-0.837,2.099
					c-0.837,1.262-2.517,1.262-3.779,0c-1.262-0.837-1.262-2.517,0-3.779C460.82,314.565,462.5,314.565,463.337,314.983z"/>
			</g>
		</g>
		<g>
			<g>
				<path fill="#FFFFFF" d="M444.032,338.91c-3.36,3.36-3.36,8.394,0,11.754c3.36,3.36,8.394,3.36,11.754,0s3.36-8.394,0-11.754
					C452.426,335.969,447.386,335.969,444.032,338.91z M451.583,343.107c1.262,0.837,0.837,2.517,0,3.779
					c-0.837,1.262-2.517,1.262-3.779,0c-1.262-0.837-1.262-2.517,0-3.779C449.066,341.846,450.746,341.846,451.583,343.107z"/>
			</g>
		</g>
		<g>
			<g>
				<path fill="#FFFFFF" d="M416.751,335.132c-3.36,3.36-3.36,8.394,0,11.754c3.36,3.36,8.394,3.36,11.754,0
					c3.36-3.36,3.36-8.394,0-11.754C425.145,331.772,419.687,331.772,416.751,335.132z M424.302,338.91
					c1.262,0.837,1.262,2.517,0,3.779c-0.837,1.262-2.517,1.262-3.779,0c-1.262-0.837-1.262-2.517,0-3.779
					C421.367,338.067,423.465,338.067,424.302,338.91z"/>
			</g>
		</g>
		<g>
			<g>
				<path fill="#FFFFFF" d="M435.638,324.639l-3.779,35.256c0,0.418,0,0.418,0,0.418c0,1.68,1.262,2.935,2.517,2.935
					c1.255,0,2.935-0.837,2.935-2.517l3.779-35.256c0-1.262-0.837-2.935-2.517-2.935
					C436.893,322.541,435.638,323.378,435.638,324.639z"/>
			</g>
		</g>
	</g>
</g>
</svg>
