<?xml version="1.0" encoding="utf-8"?>
<!-- Generator: Adobe Illustrator 23.0.1, SVG Export Plug-In . SVG Version: 6.00 Build 0)  -->
<svg version="1.1" id="Capa_1" xmlns="http://www.w3.org/2000/svg" xmlns:xlink="http://www.w3.org/1999/xlink" x="0px" y="0px"
	 viewBox="0 0 612 792" style="enable-background:new 0 0 612 792;" xml:space="preserve">
<style type="text/css">
	.st0{opacity:0.13;fill:#020202;enable-background:new    ;}
	.st1{fill:none;stroke:#294968;stroke-linecap:round;stroke-linejoin:round;stroke-miterlimit:10;}
	.st2{fill:#FFFFFF;}
	.st3{fill:#E5EDF0;}
	.st4{fill:#F473A5;}
	.st5{fill:#D4D4D4;}
	.st6{fill:#1E3444;}
	.st7{fill:#2C4263;}
	.st8{fill:#7A7E80;}
	.st9{fill:#C6EAF7;}
	.st10{fill:#CCCCCC;}
	.st11{fill:#B54266;}
	.st12{fill:none;}
	.st13{fill:#014F98;}
	.st14{fill:#686868;}
	.st15{fill:#D84557;}
	.st16{opacity:0.4;fill:#FFFFFF;enable-background:new    ;}
	.st17{fill:#FFB125;}
</style>
<path class="st0" d="M484,492.9H127.2c-3.7,0-6.7-3-6.7-6.7l0,0c0-3.7,3-6.7,6.7-6.7H484c3.7,0,6.7,3,6.7,6.7l0,0
	C490.7,489.9,487.7,492.9,484,492.9z"/>
<g id="XMLID_6_">
	<g>
		<line class="st1" x1="202.7" y1="461.8" x2="190.8" y2="448.2"/>
	</g>
</g>
<g id="XMLID_22_">
	<g>
		<path class="st2" d="M469.2,435.1c2.9,0,5.2,2.3,5.2,5.2c0,2.9-2.3,5.2-5.2,5.2s-5.2-2.3-5.2-5.2
			C464,437.5,466.3,435.1,469.2,435.1z"/>
		<path class="st3" d="M476.5,412.7c-0.1-0.4-0.2-0.7-0.4-1.1c0,0-21.8,0-29.4-7.9c-4.7-4.9,5.6-9.2,5.6-9.2
			c-23.3-8.9-54.6-12.5-54.6-12.5s-61-42.1-127.5-42.1c-27.9,0-49.6,1-66.1,2.2c-30.1,2.3-42.7,5.6-42.7,5.6c-0.4,2.5,6,5.6,6,5.6
			c5.1,2.5,2.2,7.8,2.2,7.8l-11.9,20.1c0,0,2.7,9.9,1.6,14.4c-1,4.5-23.7,10.3-23.7,10.3l-2.1,16.2v27.1
			c4.7,10.7,17.1,11.7,17.1,11.7c-0.1-0.9-0.1-1.8-0.1-2.7c0-5.6,1.3-10.8,3.5-15.6c5.8-12.2,18.3-20.6,32.7-20.6
			c17.6,0,32.3,12.6,35.5,29.3c0.4,2.2,0.7,4.5,0.7,6.9c0,1.2-0.1,2.5-0.2,3.7h165.6c-0.1-1.2-0.2-2.4-0.2-3.7
			c0-2.3,0.2-4.6,0.7-6.8c3.2-16.7,17.9-29.4,35.5-29.4c17.1,0,31.4,11.8,35.2,27.7c0.7,2.7,1,5.5,1,8.4c0,0.9,0,1.8-0.1,2.7
			c12.9-1.4,16.3-13.2,16.3-13.2c0.3-0.8,0.6-1.5,0.8-2.3C481.4,431.8,476.5,412.7,476.5,412.7z M169.6,409.7
			c-4.2,0-7.6-3.4-7.6-7.6s3.4-7.6,7.6-7.6c4.2,0,7.6,3.4,7.6,7.6S173.8,409.7,169.6,409.7z M216.4,399h-18.7c-1.2,0-2.3-1-2.3-2.2
			s1-2.3,2.3-2.3h18.7c1.2,0,2.3,1,2.3,2.3C218.6,398,217.6,399,216.4,399z M288.4,400.3c0-1.2,1-2.3,2.3-2.3h18.7
			c1.2,0,2.3,1,2.3,2.3c0,1.2-1,2.2-2.3,2.2h-18.7C289.5,402.6,288.4,401.6,288.4,400.3z M389,394.5l-100.6-7.6l-9.4-0.7l-10.6-0.8
			l-61.5-4.6c0,0-18.2-3.5-19-21.2c-0.6-12.3,41.5-13.8,72.9-13.1c0,0,0,0,0.1,0c3.9,0.1,7.7,0.2,11.2,0.3c4.3,0.2,8.2,0.4,11.5,0.6
			s5.9,0.4,7.8,0.5C322.5,350.3,390.3,377.6,389,394.5z M469.2,435.1c2.9,0,5.2,2.3,5.2,5.2c0,2.9-2.3,5.2-5.2,5.2
			c-2.9,0-5.2-2.3-5.2-5.2C464,437.5,466.3,435.1,469.2,435.1z"/>
		<path class="st4" d="M476.3,411.5c0,0-21.8,0-29.4-7.9c-4.7-4.9,5.6-9.2,5.6-9.2c-23.3-8.9-54.6-12.5-54.6-12.5
			s-61-42.1-127.5-42.1c-27.9,0-49.6,1-66.1,2.2c-30.1,2.3-42.7,5.6-42.7,5.6c-0.4,2.5,6,5.6,6,5.6c5.1,2.5,2.2,7.8,2.2,7.8l-12,20
			c0,0,2.7,9.9,1.6,14.4c-1,4.5-23.7,10.3-23.7,10.3S476.4,411.9,476.3,411.5z M169.7,409.5c-4.2,0-7.6-3.4-7.6-7.6s3.4-7.6,7.6-7.6
			c4.2,0,7.6,3.4,7.6,7.6S173.9,409.5,169.7,409.5z M216.5,398.8h-18.7c-1.2,0-2.3-1-2.3-2.2s1-2.3,2.3-2.3h18.7
			c1.2,0,2.3,1,2.3,2.3S217.8,398.8,216.5,398.8z M288.6,400.2c0-1.2,1-2.3,2.3-2.3h18.7c1.2,0,2.3,1,2.3,2.3c0,1.2-1,2.2-2.3,2.2
			h-18.7C289.6,402.4,288.6,401.4,288.6,400.2z M389.2,394.3l-100.6-7.6l-9.4-0.7l-10.6-0.8l-61.5-4.6c0,0-18.2-3.5-19-21.2
			c-0.6-12.3,41.5-13.8,72.9-13.1c0,0,0,0,0.1,0c3.9,0.1,7.7,0.2,11.2,0.3c4.3,0.2,8.2,0.4,11.5,0.6s5.9,0.4,7.8,0.5
			C322.7,350.2,390.4,377.5,389.2,394.3z"/>
		<path class="st5" d="M153.9,442.6c-2.2,4.7-3.5,10-3.5,15.6c0,0.9,0,1.8,0.1,2.7c0,0-12.4-1.1-17.1-11.7v-12.3
			C137.6,438.2,144.6,440.4,153.9,442.6z"/>
		<path class="st5" d="M388.6,451.3c-0.4,2.2-0.7,4.5-0.7,6.8c0,1.2,0,2.5,0.2,3.7H222.6c0.1-1.2,0.2-2.4,0.2-3.7
			c0-2.4-0.2-4.7-0.7-6.9c2.6,0.1,5.3,0.1,8,0.1H388.6z"/>
		<path class="st5" d="M477.3,445.3c-0.2,0.8-0.5,1.6-0.8,2.3c0,0-3.4,11.8-16.3,13.2c0.1-0.9,0.1-1.8,0.1-2.7c0-2.9-0.3-5.7-1-8.4
			C465.8,448.7,472,447.2,477.3,445.3z"/>
		<path class="st2" d="M476.1,411.6c0,0-21.8,0-29.4-7.9c-4.7-4.9,5.6-9.2,5.6-9.2C463.7,398.9,473.2,404.5,476.1,411.6z"/>
		<path class="st6" d="M460.3,458.2c0,0.9,0,1.8-0.1,2.7h-7.1H453c0.1-0.9,0.1-1.8,0.1-2.6c0-16-13-28.9-28.9-28.9
			c-16,0-28.9,12.9-28.9,28.9c0,1.2,0.1,2.5,0.2,3.7h-7.3c-0.1-1.2-0.2-2.4-0.2-3.7c0-20,16.2-36.2,36.2-36.2
			C444.1,422,460.3,438.2,460.3,458.2z"/>
		<path class="st7" d="M424.1,429.2c-16,0-28.9,12.9-28.9,28.9c0,1.2,0.1,2.5,0.2,3.7c1.8,14.2,13.9,25.2,28.7,25.2
			c15.1,0,27.5-11.5,28.8-26.3c0.1-0.9,0.1-1.8,0.1-2.6C453.1,442.2,440.1,429.2,424.1,429.2z M424.1,469.7
			c-6.4,0-11.5-5.2-11.5-11.5s5.2-11.5,11.5-11.5s11.5,5.2,11.5,11.5S430.5,469.7,424.1,469.7z"/>
		<circle class="st8" cx="424.1" cy="458.2" r="11.5"/>
		<path class="st9" d="M291.3,347.9c12.5-0.5,43.2,10.7,45.6,11.6c27.1,10.1,52.9,24.5,52.1,35l-63-4.7l-8-0.6l-29.6-2.2
			c-14-36.7-4.9-39.5-4.9-39.5C286.8,347.5,289.4,347.7,291.3,347.9"/>
		<path class="st10" d="M309.4,398.1c1.2,0,2.3,1,2.3,2.3c0,1.2-1,2.2-2.3,2.2h-18.7c-1.2,0-2.3-1-2.3-2.2s1-2.3,2.3-2.3H309.4z"/>
		<path class="st6" d="M288.4,386.9l-9.4-0.7c-3.1-24.1-7-39.4-7-39.4c4.3,0.2,8.2,0.4,11.5,0.6
			C283.5,347.3,274.5,350.1,288.4,386.9z"/>
		<path class="st6" d="M279,386.2l-10.6-0.8c3-35.8-6.5-38.7-7.5-38.9c3.9,0.1,7.7,0.2,11.2,0.3C272,346.8,275.9,362.1,279,386.2z"
			/>
		<path class="st9" d="M268.4,385.4l-34.2-2.6l-4-0.3l-9.7-0.7l-8-0.6l-5.6-0.4c0,0-18.2-3.5-19-21.2c-0.4-7.8,16.5-11.3,36.9-12.6
			c2.7-0.2,5.5-0.3,8.4-0.4c3.3-0.1,6.7-0.2,10.1-0.2c1.4,0,2.8,0,4.1,0c4.6,0,9.1,0,13.4,0.1c0,0,0,0,0.1,0
			C261.9,346.7,271.3,349.6,268.4,385.4z"/>
		<path class="st6" d="M222.8,458.2c0,1.2,0,2.5-0.2,3.7h-7.3c0.2-1.2,0.2-2.4,0.2-3.7c0-16-12.9-28.9-28.9-28.9
			s-28.9,12.9-28.9,28.9c0,0.9,0,1.8,0.1,2.6h-0.1h-7.1c-0.1-0.9-0.1-1.8-0.1-2.7c0-20,16.2-36.2,36.2-36.2
			C206.6,422,222.8,438.2,222.8,458.2z"/>
		<path class="st10" d="M216.4,394.5c1.2,0,2.3,1,2.3,2.3c0,1.2-1,2.2-2.3,2.2h-18.7c-1.2,0-2.3-1-2.3-2.2s1-2.3,2.3-2.3H216.4z"/>
		<path class="st7" d="M186.6,429.2c-16,0-28.9,12.9-28.9,28.9c0,0.9,0,1.8,0.1,2.6c1.3,14.7,13.7,26.3,28.8,26.3
			c14.7,0,26.9-11,28.7-25.2c0.2-1.2,0.2-2.4,0.2-3.7C215.5,442.2,202.6,429.2,186.6,429.2z M175.1,458.2c0-6.4,5.2-11.5,11.5-11.5
			c6.4,0,11.5,5.2,11.5,11.5s-5.2,11.5-11.5,11.5C180.2,469.7,175.1,464.5,175.1,458.2z"/>
		<circle class="st8" cx="186.6" cy="458.2" r="11.5"/>
		<path class="st10" d="M169.6,394.5c4.2,0,7.6,3.4,7.6,7.6s-3.4,7.6-7.6,7.6c-4.2,0-7.6-3.4-7.6-7.6S165.4,394.5,169.6,394.5z"/>
		<path class="st11" d="M167.3,353.2c5.1,2.5,2.2,7.8,2.2,7.8l-11.9,20.1c0,0,2.7,9.9,1.6,14.4c-1,4.5-23.7,10.3-23.7,10.3l1.4-10.3
			C136.9,395.5,141.6,380.1,167.3,353.2z"/>
	</g>
	<g>
		<g>
			<circle class="st12" cx="186.6" cy="458.2" r="11.5"/>
		</g>
		<circle class="st12" cx="424.1" cy="458.2" r="11.5"/>
		<path class="st1" d="M272,346.8c0,0,3.9,15.3,7,39.4"/>
		<line class="st1" x1="204" y1="342.1" x2="192.4" y2="328.8"/>
	</g>
</g>
<polygon class="st13" points="513.7064,340.2642 443.3184,349.7706 411.4238,332.3127 514.8315,319.5953 "/>
<path class="st13" d="M504.693,350.2004l-8.5078-1.2515c-0.2781-0.0379-0.5309,0.1643-0.5436,0.4425l-0.0758,1.0366
	c-0.0253,0.2528,0.1643,0.4677,0.4045,0.5057l2.2375,0.3287l-18.4819,3.9694c-0.316,0.0759-0.6068-0.1896-0.5815-0.5056
	l0.5562-6.523c0.0253-0.316-0.2528-0.5815-0.5815-0.5056l-23.1466,4.9681c-0.2528,0.0632-0.4171,0.3034-0.3666,0.5689l0.2149,1.0113
	c0.0632,0.2528,0.3034,0.4172,0.5689,0.3666l20.5172-4.4119c0.316-0.0759,0.6068,0.1896,0.5815,0.5056l-0.5562,6.523
	c-0.0253,0.316,0.2528,0.5815,0.5815,0.5056l21.2378-4.5509l-1.8583,1.3906c-0.2022,0.1517-0.2528,0.4298-0.1138,0.6321
	l0.5562,0.8723c0.1517,0.2276,0.4677,0.2908,0.6826,0.1264l6.9023-5.1451C505.2492,350.8072,505.1101,350.2636,504.693,350.2004z"/>
<g>
	<path class="st2" d="M450.8022,344.8152l0.67-14.8412l9.4938-1.2389l-0.177,4.0453l-5.0187,0.6573l-0.0632,1.4285l4.7911-0.6321
		l-0.177,3.7798l-4.7911,0.6321l-0.0759,1.5549l5.6129-0.7332l-0.177,4.0453L450.8022,344.8152z"/>
	<path class="st2" d="M463.0897,333.3746c0.0126-0.4172,0-0.7964-0.0126-1.1251l4.4245-0.5815
		c0.0126,0.2149,0.0253,0.4424,0.0253,0.7206c0.0126,0.2655,0.0126,0.493,0.0126,0.6953l0.0759-0.0127
		c0.2528-0.4804,0.6447-0.9228,1.1757-1.3147c0.5309-0.4045,1.1251-0.6447,1.8077-0.7332c0.5941-0.0759,1.1251-0.0632,1.5675,0.0758
		c0.4424,0.1138,0.8217,0.316,1.1125,0.5815c0.3034,0.2528,0.5436,0.5689,0.7079,0.9355s0.2781,0.7585,0.3287,1.163
		c0.0253,0.2149,0.0506,0.4424,0.0632,0.6826c0.0127,0.2402,0.0127,0.4804,0,0.6953l-0.2781,6.6241l-4.6142,0.5941l0.2528-5.853
		c0.0126-0.1264,0.0126-0.2528,0-0.3919c-0.0126-0.1264-0.0253-0.2402-0.0253-0.316c-0.0379-0.2655-0.1391-0.493-0.3034-0.6321
		c-0.1643-0.1517-0.4172-0.2149-0.7458-0.1643c-0.316,0.0379-0.5689,0.2149-0.7711,0.5309
		c-0.2022,0.3034-0.316,0.7332-0.3413,1.2894l-0.2781,5.8278l-4.5889,0.5941l0.3919-8.8744
		C463.0771,334.1331,463.0897,333.7917,463.0897,333.3746z"/>
	<path class="st2" d="M480.1811,336.5855c-0.0126,0.0379-0.0126,0.0885,0,0.1517c0.0253,0.2275,0.1138,0.4045,0.2528,0.5436
		c0.1391,0.1264,0.3034,0.2149,0.493,0.2908c0.1896,0.0758,0.3919,0.1011,0.5941,0.1138c0.2149,0.0126,0.4045,0,0.5562-0.0253
		c0.3413-0.0379,0.67-0.1517,0.9734-0.3034c0.3034-0.1517,0.5815-0.3793,0.8091-0.6574l3.3626,1.7192
		c-0.6194,0.8217-1.3653,1.4285-2.2375,1.833c-0.8723,0.4045-1.8077,0.6826-2.7938,0.7964
		c-0.7711,0.1011-1.5044,0.0885-2.2249-0.0253c-0.7206-0.1138-1.3526-0.3539-1.9215-0.6826
		c-0.5689-0.3413-1.0366-0.7964-1.4159-1.3653s-0.632-1.2642-0.7332-2.0858c-0.1138-0.9229-0.0759-1.7951,0.1643-2.6421
		c0.2149-0.8344,0.5941-1.5928,1.1125-2.2628c0.5183-0.67,1.163-1.2136,1.9594-1.6687c0.7838-0.4424,1.6687-0.7332,2.6674-0.8596
		c0.7838-0.1011,1.517-0.0758,2.1743,0.0632c0.6574,0.1391,1.2389,0.4045,1.7192,0.7585c0.493,0.3539,0.8976,0.8217,1.2136,1.3906
		c0.316,0.5688,0.5183,1.2136,0.6194,1.9594c0.0379,0.3034,0.0632,0.632,0.0632,0.9987c0,0.354-0.0253,0.6953-0.0885,1.0113
		L480.1811,336.5855z M483.4805,333.6653c0.0126-0.0379,0.0126-0.0885,0-0.139s-0.0126-0.0885-0.0126-0.1138
		c-0.0506-0.354-0.2149-0.6068-0.493-0.7838c-0.2781-0.177-0.6447-0.2275-1.0998-0.177c-0.2908,0.0379-0.5436,0.1138-0.7458,0.2528
		c-0.2149,0.1264-0.3919,0.2655-0.5436,0.4298s-0.2528,0.3287-0.3413,0.493c-0.0758,0.1643-0.1264,0.3287-0.1643,0.4804
		L483.4805,333.6653z"/>
	<path class="st2" d="M489.4094,329.9361c0.0126-0.4171,0-0.7964-0.0126-1.1251l4.3992-0.5815
		c0.0127,0.0759,0.0127,0.1643,0.0127,0.2655c0,0.1138,0,0.2276,0,0.3666c0,0.1264-0.0127,0.2528-0.0127,0.3919
		c0,0.1264-0.0126,0.2275-0.0126,0.316l0.0632-0.0127c0.2528-0.4804,0.5942-0.8976,1.0113-1.2515
		c0.4045-0.354,0.9229-0.5689,1.5423-0.6447c0.3666-0.0506,0.6574-0.0506,0.8723-0.0127l-0.354,4.0074
		c-0.139-0.0253-0.3034-0.0253-0.4804-0.0253c-0.177,0.0126-0.3539,0.0253-0.493,0.0379c-0.7079,0.0885-1.2389,0.3539-1.5802,0.7711
		c-0.3539,0.4298-0.5436,0.8976-0.5688,1.4159l-0.2402,5.3474l-4.5889,0.5941l0.4045-8.8743
		C489.3841,330.7072,489.4094,330.3532,489.4094,329.9361z"/>
	<path class="st2" d="M503.9471,338.2163c-0.8217,0.1138-1.5928,0.1011-2.326-0.0126c-0.7332-0.1138-1.3906-0.3413-1.9847-0.6826
		c-0.5941-0.3413-1.0619-0.7838-1.4411-1.3527c-0.3792-0.5562-0.6194-1.2389-0.7206-2.01
		c-0.1138-0.8976-0.0758-1.7698,0.1138-2.6168c0.2022-0.847,0.5436-1.6055,1.024-2.2881c0.493-0.6826,1.1251-1.2389,1.9089-1.694
		c0.7838-0.4551,1.7066-0.7585,2.7685-0.8976c0.8343-0.1138,1.6181-0.1138,2.3766,0c0.7459,0.1138,1.4159,0.3413,1.9974,0.6826
		c0.5941,0.3413,1.0745,0.7838,1.4538,1.3526c0.3919,0.5562,0.6321,1.2389,0.7332,2.01c0.1138,0.8976,0.0759,1.7698-0.1138,2.6168
		c-0.2023,0.847-0.5436,1.6055-1.0366,2.2881s-1.1377,1.2515-1.9342,1.7066C505.9698,337.7738,505.0216,338.0772,503.9471,338.2163z
		 M505.4388,331.7817c-0.0632-0.4424-0.2402-0.7838-0.5562-1.0619c-0.3034-0.2655-0.7332-0.354-1.2641-0.2907
		c-0.316,0.0379-0.5941,0.139-0.8217,0.3034c-0.2402,0.1643-0.4298,0.354-0.5941,0.5942c-0.1643,0.2402-0.2655,0.5056-0.316,0.8091
		c-0.0632,0.3034-0.0758,0.6068-0.0253,0.9228c0.0632,0.4424,0.2402,0.8091,0.5562,1.0619c0.3034,0.2528,0.7332,0.354,1.2515,0.2907
		c0.3287-0.0379,0.6194-0.139,0.8596-0.3034c0.2402-0.1643,0.4424-0.354,0.5941-0.5942c0.1517-0.2402,0.2528-0.5056,0.3034-0.7964
		C505.4767,332.4265,505.4767,332.123,505.4388,331.7817z"/>
</g>
<g>
	<path class="st13" d="M457.9825,322.6798c-0.1643,0.2528-0.354,0.493-0.5689,0.7332c-0.2149,0.2402-0.4804,0.4424-0.7585,0.6321
		c-0.2907,0.1896-0.6068,0.3413-0.9608,0.4677c-0.3539,0.1264-0.7585,0.2149-1.1883,0.2528
		c-0.6194,0.0632-1.1883,0.0253-1.7192-0.1138c-0.531-0.139-0.9861-0.3539-1.3906-0.67c-0.4045-0.3034-0.7206-0.6953-0.9608-1.1504
		c-0.2528-0.4677-0.4045-0.9861-0.4677-1.5802c-0.0759-0.7964-0.0253-1.5549,0.1896-2.2881
		c0.2149-0.7206,0.5309-1.3653,0.9608-1.9341c0.4424-0.5689,0.9734-1.0366,1.6055-1.4032s1.3274-0.5942,2.0985-0.67
		c0.3413-0.0379,0.67-0.0379,0.986,0s0.6321,0.1011,0.9102,0.2023c0.2781,0.1011,0.5436,0.2149,0.7711,0.3666
		c0.2402,0.1517,0.4298,0.3287,0.5815,0.5309l-0.9608,0.8723c-0.0758-0.1138-0.1896-0.2402-0.3287-0.354
		c-0.139-0.1138-0.3034-0.2149-0.493-0.3034c-0.1896-0.0885-0.4045-0.1643-0.6321-0.2023s-0.493-0.0506-0.7711-0.0253
		c-0.5941,0.0632-1.1378,0.2528-1.6055,0.5562c-0.4804,0.3034-0.8723,0.6826-1.201,1.1377
		c-0.3287,0.4551-0.5436,0.9608-0.6953,1.517c-0.139,0.5562-0.1896,1.1125-0.1264,1.6687c0.0379,0.4172,0.1517,0.7964,0.3034,1.1504
		c0.1643,0.3539,0.3793,0.6447,0.6574,0.8975c0.2781,0.2528,0.5941,0.4298,0.986,0.5436c0.3792,0.1138,0.8091,0.1517,1.2768,0.1011
		c0.5057-0.0506,0.9861-0.2149,1.4285-0.4677s0.8217-0.6321,1.1251-1.1125L457.9825,322.6798z"/>
	<path class="st13" d="M462.8116,323.6406c0-0.1138,0.0126-0.2907,0.0126-0.493c0-0.2149,0.0126-0.3792,0.0126-0.5183h-0.0253
		c-0.1896,0.3792-0.4424,0.6826-0.7711,0.9355c-0.3287,0.2528-0.7206,0.4045-1.1504,0.4424
		c-0.6826,0.0758-1.201-0.0506-1.5928-0.3792c-0.3919-0.316-0.6068-0.7585-0.67-1.3147c-0.0126-0.1011-0.0126-0.2023-0.0126-0.3034
		c0-0.1138,0.0126-0.2149,0.0126-0.316l0.2781-3.881l1.2009-0.1264l-0.2402,3.4511c0,0.1138-0.0126,0.2402-0.0126,0.354
		s0,0.2275,0.0253,0.354c0.0379,0.3539,0.1517,0.632,0.3539,0.847c0.2023,0.2149,0.5183,0.2908,0.9608,0.2402
		c0.493-0.0506,0.8849-0.2781,1.201-0.6826c0.316-0.4045,0.493-0.9228,0.5436-1.5423l0.2402-3.3247l1.2009-0.1264l-0.3413,4.9049
		c-0.0253,0.1644-0.0253,0.3919-0.0379,0.6447c-0.0126,0.2528-0.0253,0.493-0.0126,0.7079L462.8116,323.6406z"/>
	<path class="st13" d="M466.5535,320.5055c0,0.0379,0,0.0759,0,0.1138c0,0.0253,0.0126,0.0632,0.0126,0.1011
		c0.0253,0.2402,0.0885,0.4551,0.2149,0.6574c0.1138,0.1896,0.2528,0.3539,0.4298,0.493c0.177,0.1391,0.3792,0.2275,0.6068,0.2907
		c0.2275,0.0632,0.4677,0.0759,0.7206,0.0506c0.4425-0.0506,0.8091-0.177,1.1125-0.3919s0.5436-0.4551,0.7332-0.7585l0.7838,0.5941
		c-0.316,0.4551-0.6953,0.8091-1.1504,1.0745c-0.4424,0.2528-0.9355,0.4172-1.4791,0.4804
		c-0.4045,0.0379-0.7838,0.0253-1.1504-0.0632c-0.354-0.0759-0.6826-0.2275-0.9608-0.4424
		c-0.2781-0.2149-0.5057-0.4677-0.6826-0.7964c-0.177-0.316-0.2908-0.6953-0.3413-1.1378
		c-0.0506-0.5056-0.0126-1.0113,0.1138-1.4791c0.1264-0.4804,0.3413-0.9102,0.632-1.2768c0.2908-0.3792,0.6321-0.6826,1.0619-0.9228
		c0.4171-0.2528,0.8849-0.4045,1.3906-0.4424c0.7838-0.0759,1.4411,0.0758,1.9341,0.4424c0.5056,0.3792,0.7964,0.9608,0.8723,1.7192
		c0.0127,0.1138,0.0253,0.3034,0.0253,0.5309c0,0.2276-0.0126,0.4425-0.0253,0.6574L466.5535,320.5055z M470.2701,319.2161
		c0-0.0632,0-0.1264,0-0.2023c0-0.0758-0.0126-0.139-0.0126-0.2023c-0.0379-0.4045-0.2149-0.7206-0.493-0.9608
		c-0.2907-0.2402-0.6826-0.3287-1.1757-0.2781c-0.3034,0.0253-0.5562,0.1138-0.7838,0.2402
		c-0.2275,0.1264-0.4298,0.2907-0.5941,0.4677c-0.1643,0.177-0.3034,0.3919-0.4045,0.6194
		c-0.1011,0.2275-0.1643,0.4551-0.2023,0.6826L470.2701,319.2161z"/>
	<path class="st13" d="M476.0852,317.5221c-0.1391-0.1896-0.316-0.3287-0.5436-0.4424c-0.2149-0.1138-0.493-0.1517-0.8217-0.1138
		c-0.1517,0.0253-0.2907,0.0506-0.4424,0.0885c-0.139,0.0505-0.2781,0.1138-0.4045,0.1896
		c-0.1138,0.0759-0.2149,0.177-0.2781,0.3034c-0.0758,0.1138-0.0885,0.2528-0.0758,0.4172c0.0253,0.2528,0.139,0.4424,0.3539,0.5309
		c0.2023,0.0885,0.493,0.1643,0.847,0.2275c0.6068,0.1138,1.0872,0.2907,1.4285,0.5309c0.354,0.2402,0.5436,0.6068,0.5941,1.1125
		c0.0379,0.3413-0.0126,0.6321-0.1264,0.9102c-0.1138,0.2655-0.2907,0.493-0.5057,0.6826
		c-0.2149,0.1896-0.4803,0.3413-0.7711,0.4551c-0.3034,0.1138-0.5941,0.1896-0.9102,0.2149
		c-0.5941,0.0632-1.1125,0.0126-1.5676-0.1643c-0.4424-0.1643-0.8217-0.4298-1.0872-0.7711l0.9102-0.7332
		c0.1643,0.2402,0.3919,0.4172,0.6826,0.5436c0.2908,0.1264,0.6068,0.1643,0.9608,0.1391c0.354-0.0379,0.67-0.1517,0.9228-0.3287
		c0.2528-0.177,0.354-0.4171,0.3287-0.7332c-0.0253-0.2655-0.1643-0.4551-0.3792-0.5815c-0.2275-0.1138-0.5562-0.2149-0.9987-0.316
		c-0.2528-0.0506-0.4803-0.1138-0.6826-0.177c-0.2149-0.0758-0.3919-0.1643-0.5562-0.2655
		c-0.1643-0.1138-0.2907-0.2528-0.3919-0.4171s-0.1643-0.3666-0.1896-0.6321c-0.0253-0.3034,0.0126-0.5815,0.1138-0.8344
		c0.1138-0.2528,0.2781-0.4677,0.493-0.6573c0.2149-0.1896,0.4804-0.3413,0.7711-0.4551c0.3034-0.1138,0.6068-0.2023,0.9355-0.2275
		c0.4804-0.0506,0.9228,0,1.3147,0.139c0.4045,0.1391,0.7079,0.3666,0.9355,0.6826L476.0852,317.5221z"/>
	<path class="st13" d="M480.8637,316.5234l-1.517,0.1643l-0.2528,3.2994c-0.0126,0.1517-0.0126,0.2781,0,0.3919
		c0.0253,0.2528,0.1138,0.4298,0.2528,0.5057c0.1391,0.0758,0.3287,0.1011,0.5562,0.0758c0.1138-0.0126,0.2402-0.0379,0.3539-0.0758
		c0.1138-0.0379,0.2149-0.0759,0.2908-0.1391l0.0126,0.9608c-0.1138,0.0632-0.2528,0.1138-0.4424,0.1643
		c-0.1643,0.0506-0.354,0.0758-0.5183,0.1011c-0.4804,0.0506-0.8723-0.0253-1.163-0.2023c-0.3034-0.177-0.4804-0.493-0.5309-0.9608
		c-0.0126-0.1011-0.0253-0.2023-0.0253-0.3034c0-0.1138,0-0.2149,0.0127-0.316l0.2528-3.4005l-1.163,0.1138l0.0759-1.0113
		l1.1504-0.1138l0.1138-1.7951l1.2009-0.1264l-0.1264,1.7951l1.5423-0.1643L480.8637,316.5234z"/>
	<path class="st13" d="M485.4146,317.3831c0-0.1138,0.0126-0.2149,0.0126-0.2908c0-0.0758,0-0.139-0.0126-0.2023
		c-0.0379-0.3539-0.177-0.6194-0.4172-0.7458c-0.2402-0.139-0.5688-0.177-0.986-0.139c-0.3287,0.0253-0.6447,0.1264-0.9608,0.3034
		c-0.316,0.1643-0.5941,0.354-0.8091,0.5689l-0.5815-0.7585c0.3034-0.3034,0.67-0.5436,1.0872-0.7332
		c0.4298-0.2023,0.8723-0.316,1.3274-0.3666c0.3034-0.0253,0.5815-0.0253,0.8596,0.0126c0.2781,0.0379,0.5309,0.1138,0.7585,0.2402
		c0.2276,0.1138,0.4172,0.2907,0.5689,0.5056s0.2528,0.493,0.2781,0.8217c0.0126,0.0758,0.0126,0.177,0.0253,0.3034
		c0,0.1264,0,0.2275-0.0126,0.316l-0.1896,2.541c-0.0253,0.2528-0.0253,0.493-0.0253,0.7585c0,0.2528,0.0126,0.4804,0.0253,0.6447
		l-1.1125,0.1138c-0.0126-0.1264-0.0253-0.2655-0.0253-0.4172s0-0.3034,0.0126-0.4424h-0.0253
		c-0.2528,0.3792-0.5436,0.6573-0.8723,0.8596c-0.3287,0.1896-0.7332,0.3034-1.201,0.3539
		c-0.2149,0.0253-0.4298,0.0253-0.6573-0.0126c-0.2275-0.0253-0.4424-0.1011-0.6447-0.2023
		c-0.2023-0.1138-0.3666-0.2528-0.5183-0.4424c-0.139-0.2023-0.2275-0.4424-0.2528-0.7585
		c-0.0506-0.493,0.0379-0.9229,0.2907-1.2515c0.2528-0.3413,0.5815-0.6068,0.9987-0.8217s0.8976-0.3792,1.4411-0.493
		C484.3275,317.5221,484.8711,317.4336,485.4146,317.3831z M485.1744,318.2932c-0.3413,0.0379-0.6826,0.0885-1.0492,0.1643
		c-0.3666,0.0758-0.6826,0.1643-0.9734,0.2907c-0.2908,0.1138-0.5183,0.2781-0.6826,0.4677
		c-0.1644,0.1896-0.2402,0.4298-0.2149,0.7079c0.0253,0.1644,0.0758,0.3034,0.139,0.4045c0.0758,0.1011,0.1643,0.177,0.2907,0.2402
		c0.1138,0.0632,0.2402,0.0885,0.3793,0.1011c0.139,0.0127,0.2781,0.0127,0.4045,0c0.2655-0.0253,0.5183-0.1011,0.7332-0.2149
		c0.2149-0.1138,0.4172-0.2528,0.5689-0.4424c0.1643-0.1643,0.2781-0.3666,0.3792-0.5941c0.1011-0.2149,0.1517-0.4424,0.1643-0.6826
		l0.0379-0.4677L485.1744,318.2932z"/>
	<path class="st13" d="M490.3069,318.2174c-0.0632-0.5309-0.0253-1.0366,0.1011-1.517c0.1138-0.4804,0.3287-0.9102,0.5941-1.2894
		c0.2781-0.3792,0.6194-0.6826,1.024-0.9355c0.4045-0.2402,0.8723-0.3919,1.3779-0.4424c0.493-0.0506,0.9481,0.0126,1.34,0.1643
		c0.3919,0.1643,0.6953,0.4298,0.9229,0.7711h0.0253l0.3287-4.7658l1.201-0.1264l-0.6953,10.0121l-1.163,0.1138l0.0758-1.0113
		h-0.0253c-0.1896,0.3539-0.4677,0.67-0.847,0.9228c-0.3793,0.2528-0.7964,0.4045-1.2768,0.4551
		c-0.4045,0.0379-0.7711,0.0253-1.1251-0.0759c-0.3413-0.1011-0.6447-0.2528-0.8975-0.4551
		c-0.2528-0.2149-0.4677-0.4677-0.6321-0.7711C490.4586,318.9759,490.3575,318.6093,490.3069,318.2174z M491.5458,317.9646
		c0.0506,0.493,0.2528,0.9102,0.5815,1.2136c0.3287,0.3034,0.7711,0.4425,1.3274,0.3793c0.3413-0.0379,0.6447-0.1391,0.9228-0.316
		c0.2781-0.1644,0.5183-0.4045,0.7206-0.67s0.3413-0.5815,0.4298-0.9228c0.0885-0.3413,0.1138-0.6953,0.0758-1.0619
		c-0.0253-0.2528-0.0885-0.493-0.2022-0.7079c-0.1138-0.2149-0.2528-0.3919-0.4172-0.5309
		c-0.1643-0.139-0.3666-0.2402-0.5941-0.3034c-0.2276-0.0759-0.4677-0.0885-0.7332-0.0632c-0.354,0.0379-0.6826,0.139-0.9608,0.316
		c-0.2781,0.1643-0.5057,0.3919-0.6826,0.6573s-0.3034,0.5689-0.3919,0.9228C491.5331,317.244,491.5079,317.598,491.5458,317.9646z"
		/>
	<path class="st13" d="M499.118,317.0797c0,0.0379,0,0.0758,0,0.1138c0,0.0253,0.0126,0.0632,0.0126,0.1011
		c0.0253,0.2402,0.0885,0.4551,0.2149,0.6573c0.1138,0.1896,0.2528,0.354,0.4298,0.493c0.177,0.139,0.3792,0.2275,0.6068,0.2907
		s0.4677,0.0758,0.7206,0.0506c0.4424-0.0506,0.8091-0.177,1.1124-0.3919c0.3034-0.2149,0.5436-0.4551,0.7332-0.7585l0.7838,0.5941
		c-0.316,0.4551-0.6953,0.8091-1.1504,1.0746c-0.4424,0.2528-0.9355,0.4171-1.479,0.4804
		c-0.4045,0.0379-0.7838,0.0253-1.1504-0.0632c-0.354-0.0758-0.6826-0.2275-0.9608-0.4424s-0.5056-0.4677-0.6826-0.7964
		c-0.177-0.316-0.2907-0.6953-0.3413-1.1377c-0.0506-0.5057-0.0126-1.0113,0.1138-1.4791c0.1264-0.4804,0.3413-0.9102,0.6321-1.2768
		c0.2907-0.3792,0.6321-0.6826,1.0619-0.9228c0.4172-0.2528,0.8849-0.4045,1.3906-0.4425c0.7838-0.0758,1.4411,0.0759,1.9342,0.4425
		c0.5056,0.3792,0.7964,0.9608,0.8723,1.7192c0.0126,0.1138,0.0253,0.3034,0.0253,0.5309s-0.0126,0.4424-0.0253,0.6573
		L499.118,317.0797z M502.8347,315.7902c0-0.0632,0-0.1264,0-0.2023c0-0.0759-0.0126-0.1391-0.0126-0.2023
		c-0.0379-0.4045-0.2149-0.7206-0.493-0.9608c-0.2908-0.2402-0.6826-0.3287-1.1757-0.2781
		c-0.3034,0.0253-0.5562,0.1138-0.7838,0.2402c-0.2275,0.1264-0.4298,0.2908-0.5941,0.4677s-0.3034,0.3919-0.4045,0.6194
		c-0.1011,0.2275-0.1643,0.4551-0.2023,0.6826L502.8347,315.7902z"/>
</g>
<g id="XMLID_1_">
	<g id="XMLID_2_">
		<circle id="XMLID_14_" class="st14" cx="436.2138" cy="350.6935" r="6.8264"/>
		<path id="XMLID_13_" class="st15" d="M377.3676,350.1751c0.1391-0.6068,0.4804-0.7585,0.9861-0.8217
			c0-5.183,1.2515-13.893,2.1364-14.4366c7.1045-4.3993,28.1274-7.0034,33.0323-5.6129c5.0566,1.4285,11.1119,5.2589,14.2343,7.4459
			c0,0,11.9083,0.2908,15.6249,1.4159c1.1883,0.3539,3.7924,5.2589,3.7924,5.2589l0.3792-0.0506
			c0.3034-0.0379,0.6068,0.0506,0.8344,0.2528c0.2275,0.2023,0.3666,0.4804,0.3666,0.7838
			c0.0126,0.6826-0.0379,1.6181-0.2908,2.7432c-0.5183,2.3513-1.656,4.0959-4.0327,4.374l-1.0619,0.1264
			c0,0-0.1517-1.2389-0.2402-1.8962c-0.4425-3.7545-3.9062-6.4472-7.6228-5.9921c-3.7545,0.4425-6.4472,3.8683-5.9921,7.6228
			c0.0759,0.6574,0.2149,1.8709,0.2149,1.8709l-33.0576,3.9821c0,0-0.1391-1.2389-0.2149-1.9089
			c-0.4425-3.7545-3.8683-6.4472-7.6229-5.9921c-3.7419,0.4424-6.4472,3.881-5.9921,7.6228
			c0.0758,0.6573,0.2528,1.8962,0.2528,1.8962l-1.4159,0.1643C377.8732,359.4919,377.2285,350.8325,377.3676,350.1751z"/>
		<ellipse id="XMLID_12_" class="st14" cx="389.5779" cy="356.0135" rx="6.8261" ry="6.8261"/>
		<path id="XMLID_11_" class="st2" d="M435.8852,346.8125c2.0732-0.2528,3.9694,1.2389,4.2096,3.3121
			c0.2528,2.0732-1.2389,3.9694-3.3121,4.2096c-2.0732,0.2402-3.9695-1.2389-4.2096-3.3121
			C432.3329,348.9489,433.812,347.0653,435.8852,346.8125z M435.4174,347.6974c0.0506,0.3919,0.3792,1.0113,0.6826,0.9734
			c0.316-0.0379,0.493-0.7079,0.4424-1.1125c-0.0506-0.3919-0.3034-0.3666-0.6068-0.3287
			C435.6197,347.2676,435.3669,347.3055,435.4174,347.6974z M437.2884,347.7101c-0.1896,0.354-0.2907,1.0366-0.0126,1.1883
			c0.2781,0.1517,0.8091-0.2907,1.0113-0.632c0.1896-0.354-0.0253-0.4677-0.3034-0.6194
			C437.7055,347.4825,437.478,347.3561,437.2884,347.7101z M438.7927,348.8225c-0.3666,0.1643-0.847,0.67-0.7079,0.9608
			c0.1264,0.2908,0.8217,0.2402,1.1883,0.0759s0.2528-0.4045,0.1264-0.6826C439.2604,348.8857,439.1593,348.6455,438.7927,348.8225z
			 M439.3616,350.605c-0.3919-0.0759-1.0745,0.0505-1.1377,0.3539s0.5309,0.6826,0.9228,0.7585
			c0.3919,0.0759,0.4425-0.177,0.5057-0.4804C439.7029,350.921,439.7535,350.6808,439.3616,350.605z M438.7674,352.3748
			c-0.2655-0.2908-0.8976-0.5941-1.1251-0.3792s0.0253,0.8596,0.2907,1.1504c0.2655,0.2908,0.4551,0.1138,0.6826-0.0885
			C438.8559,352.8425,439.0455,352.6655,438.7674,352.3748z M437.2505,353.4619c-0.0506-0.3919-0.3792-1.0113-0.6826-0.9734
			c-0.316,0.0379-0.493,0.7079-0.4424,1.1125c0.0505,0.3919,0.3034,0.3666,0.6068,0.3287
			C437.0482,353.8918,437.301,353.8538,437.2505,353.4619z M435.3795,353.4493c0.1896-0.354,0.2908-1.0366,0.0127-1.1883
			c-0.2781-0.1517-0.8091,0.2907-1.0113,0.6321c-0.1896,0.3539,0.0253,0.4677,0.3034,0.6194
			C434.9623,353.6768,435.1899,353.8033,435.3795,353.4493z M433.8752,352.3369c0.3666-0.1643,0.847-0.67,0.7079-0.9608
			c-0.1264-0.2907-0.8217-0.2402-1.1883-0.0759c-0.3666,0.1644-0.2528,0.3919-0.1264,0.6826
			C433.4074,352.2737,433.5212,352.5138,433.8752,352.3369z M433.3063,350.567c0.3919,0.0758,1.0745-0.0506,1.1377-0.354
			c0.0632-0.3034-0.5309-0.6826-0.9228-0.7585c-0.3919-0.0759-0.4425,0.177-0.5057,0.4804
			C432.965,350.2384,432.9144,350.4785,433.3063,350.567z M433.9005,348.7846c0.2655,0.2908,0.8976,0.5941,1.1251,0.3792
			s-0.0253-0.8596-0.2908-1.1504c-0.2655-0.2908-0.4551-0.1138-0.6826,0.0885C433.812,348.3169,433.635,348.4938,433.9005,348.7846z
			 M434.9876,350.744c0.0885,0.7458,0.7585,1.2768,1.5043,1.1883c0.7458-0.0885,1.2768-0.7585,1.1883-1.5043
			c-0.0885-0.7458-0.7585-1.2768-1.5044-1.1883S434.8991,349.9982,434.9876,350.744z"/>
		<path id="XMLID_10_" class="st2" d="M389.2127,352.4001c2.0732-0.2528,3.9694,1.2389,4.2096,3.3121
			c0.2528,2.0732-1.2389,3.9695-3.3121,4.2096c-2.0732,0.2402-3.9694-1.2389-4.2096-3.3121
			C385.6604,354.5365,387.1268,352.6403,389.2127,352.4001z M388.7449,353.2723c0.0506,0.3919,0.3792,1.0113,0.6826,0.9734
			c0.316-0.0379,0.493-0.7079,0.4424-1.1125c-0.0506-0.3919-0.3034-0.3666-0.6068-0.3287
			C388.9472,352.8425,388.6944,352.8804,388.7449,353.2723z M390.6032,353.285c-0.1896,0.3539-0.2908,1.0366-0.0127,1.1883
			c0.2781,0.1517,0.8091-0.2907,1.0113-0.6321c0.1896-0.3539-0.0253-0.4677-0.3034-0.6194
			C391.0204,353.0574,390.8055,352.9436,390.6032,353.285z M392.1076,354.3974c-0.3666,0.1643-0.847,0.67-0.7079,0.9608
			c0.1264,0.2907,0.8217,0.2402,1.1883,0.0758s0.2528-0.4045,0.1264-0.6826C392.588,354.4606,392.4742,354.2331,392.1076,354.3974z
			 M392.6765,356.1799c-0.3919-0.0758-1.0746,0.0506-1.1378,0.354c-0.0632,0.3034,0.5309,0.6826,0.9229,0.7585
			c0.3919,0.0758,0.4424-0.177,0.5056-0.4804C393.0178,356.4959,393.0683,356.2557,392.6765,356.1799z M392.0949,357.9497
			c-0.2655-0.2907-0.8976-0.5941-1.1251-0.3792c-0.2276,0.2149,0.0253,0.8596,0.2907,1.1504
			c0.2655,0.2907,0.4551,0.1138,0.6826-0.0885C392.1708,358.4174,392.3604,358.2404,392.0949,357.9497z M390.5779,359.0369
			c-0.0506-0.3919-0.3792-1.0113-0.6826-0.9734c-0.316,0.0379-0.493,0.7079-0.4424,1.1125
			c0.0506,0.3919,0.3034,0.3666,0.6068,0.3287C390.363,359.4667,390.6159,359.4287,390.5779,359.0369z M388.707,359.0242
			c0.1896-0.354,0.2908-1.0366,0.0126-1.1883c-0.2781-0.1517-0.8091,0.2908-1.0113,0.6321
			c-0.1896,0.354,0.0253,0.4677,0.3034,0.6194C388.2898,359.2518,388.5047,359.3782,388.707,359.0242z M387.2027,357.9118
			c0.3666-0.1643,0.847-0.67,0.7079-0.9608c-0.1264-0.2908-0.8217-0.2402-1.1883-0.0759s-0.2528,0.3919-0.1264,0.6826
			C386.7349,357.8486,386.8361,358.0887,387.2027,357.9118z M386.6338,356.1419c0.3919,0.0759,1.0745-0.0505,1.1378-0.3539
			c0.0632-0.3034-0.5309-0.6826-0.9229-0.7585c-0.3919-0.0759-0.4424,0.177-0.5056,0.4804
			C386.2925,355.8133,386.2419,356.0661,386.6338,356.1419z M387.2279,354.3595c0.2655,0.2907,0.8976,0.5941,1.1251,0.3792
			c0.2276-0.2149-0.0253-0.8596-0.2907-1.1504c-0.2655-0.2907-0.4551-0.1138-0.6826,0.0885
			C387.1395,353.9044,386.9498,354.0688,387.2279,354.3595z M388.3151,356.3189c0.0885,0.7458,0.7585,1.2768,1.5043,1.1883
			s1.2768-0.7585,1.1883-1.5043c-0.0885-0.7458-0.7585-1.2768-1.5043-1.1883C388.7576,354.9031,388.2266,355.5731,388.3151,356.3189
			z"/>
		<path id="XMLID_9_" class="st2" d="M413.4212,329.8097c2.0353,0.5815,7.9389,3.7924,11.4659,5.9036
			c0.2907,0.177,0.4424,0.5309,0.3792,0.8596c-0.0759,0.3413-0.354,0.5941-0.6953,0.6321l-15.094,1.8077
			c-0.3792,0.0506-0.7332-0.177-0.8596-0.5309l-3.1983-8.8491C408.9208,329.3925,412.0432,329.4178,413.4212,329.8097z"/>
		<path id="XMLID_8_" class="st2" d="M384.1055,342.0467c-0.1138,0.0126-0.2149-0.0253-0.2908-0.1011
			c-0.0758-0.0758-0.1138-0.1896-0.1011-0.2907c0.2781-2.3134,0.6447-4.8291,0.9481-6.2449
			c0.1391-0.6321,0.5689-1.1757,1.1757-1.4285c0.7964-0.354,1.6687-0.6826,2.6295-0.9861c0.0632-0.0126,0.1264-0.0126,0.177,0.0253
			c0.0506,0.0379,0.0885,0.0885,0.0885,0.1517l0.9481,7.9768c0.0127,0.1391-0.0885,0.2655-0.2275,0.2908L384.1055,342.0467z"/>
		<path id="XMLID_7_" class="st2" d="M403.8263,329.8223l0.1264,0.5057l1.8583,8.217c0.0506,0.2275,0,0.4551-0.1264,0.6447
			c-0.1264,0.1896-0.3413,0.316-0.5689,0.3413l-14.3734,1.7192c-0.0379,0-0.0758-0.0253-0.0758-0.0632l-1.0998-8.6847l0.2781-0.5309
			C393.5993,330.9853,400.6912,330.1257,403.8263,329.8223z"/>
		<path id="XMLID_5_" class="st14" d="M407.9221,341.1112l-3.5396-11.5417l1.0493-0.0759c3.6534-0.2655,6.5609-0.1896,7.9894,0.2149
			c3.2236,0.9102,14.7021,6.6621,15.0308,9.4053l1.0366,8.6468c0.0506,0.4677,0,0.9481-0.1643,1.3906l-0.1643,0.4551
			c-0.3919,1.0745-1.34,1.8204-2.4651,1.9594l-17.281,2.0606L407.9221,341.1112z M408.2002,341.0606l1.4664,12.2496l16.9775-2.0226
			c1.024-0.1264,1.8836-0.7964,2.2375-1.7698l0.1644-0.4551c0.1517-0.4045,0.2022-0.8344,0.1517-1.2642l-1.0366-8.6468
			c-0.2908-2.4145-11.3647-8.1917-14.8285-9.1651c-1.3906-0.3919-4.2728-0.4677-7.8883-0.2149l-0.7079,0.0506L408.2002,341.0606z"/>
		<path id="XMLID_4_" class="st14" d="M396.7596,354.0055l-5.36-10.4672c-0.5689-1.0998-0.9229-2.2881-1.0746-3.527l-0.8849-7.4459
			c-0.0379-0.354,0.1896-0.6826,0.5309-0.7711c2.6168-0.6953,5.8404-1.2515,10.1385-1.7572
			c0.6826-0.0758,3.0845-0.3539,3.7798-0.4298l0.7711-0.0758l3.527,11.5164l1.4917,12.5277l-11.2004,1.34
			C397.7836,355.0168,397.0883,354.6376,396.7596,354.0055z M407.9221,341.1112l-3.4764-11.2636l-0.5309,0.0506
			c-0.7079,0.0632-3.0972,0.3413-3.7798,0.4171c-4.2855,0.5057-7.4964,1.0746-10.1006,1.7572l0,0
			c-0.2023,0.0506-0.3413,0.2528-0.316,0.4677l0.8849,7.4459c0.139,1.201,0.493,2.3513,1.0492,3.4258l5.36,10.4672
			c0.2781,0.5309,0.8596,0.847,1.4538,0.7711l10.9223-1.3021L407.9221,341.1112z"/>
		<path id="XMLID_3_" class="st2" d="M442.6104,339.1265c0.316-0.0379,1.0872-0.1264,1.0872-0.1264
			c0.9861,1.0872,2.2123,3.2236,2.7432,4.1717l0,0c0,0-2.326-0.67-3.0087-1.8204
			C442.7495,340.1884,442.2944,339.1644,442.6104,339.1265z"/>
	</g>
</g>
<path class="st16" d="M399.9579,317.1934c0-0.0506,0.0127-0.1138,0.0253-0.1643c-0.0253-3.0719-0.0253-5.4232,0-8.6468
	c-0.0632-0.2655,0.0379-0.5562,0.2275-0.6447c0.1896-0.0885,0.4677,0.0379,0.4551,0.3287c-0.0885,3.0719,0.0758,6.207,0,9.2915
	c-0.0127,0.2908-0.2655,0.4045-0.4551,0.3287C400.0464,317.6106,399.9579,317.4083,399.9579,317.1934z"/>
<path class="st16" d="M418.1744,319.7217c0-0.0506,0-0.0885,0.0127-0.1391c-0.0127-2.5915-0.0127-4.5889,0-7.3068
	c-0.0506-0.2276,0.0379-0.4677,0.1896-0.5436c0.1643-0.0758,0.3919,0.0379,0.3792,0.2781c-0.0758,2.5915,0.0632,5.2462,0,7.8504
	c0,0.2402-0.2275,0.3413-0.3792,0.2781C418.2629,320.063,418.1744,319.8987,418.1744,319.7217z"/>
<path class="st16" d="M412.511,309.697c0-0.0506,0.0126-0.1138,0.0253-0.1643c-0.0253-3.0719-0.0253-5.4232,0-8.6468
	c-0.0632-0.2655,0.0379-0.5562,0.2275-0.6447c0.1896-0.0885,0.4677,0.0379,0.4551,0.3287c-0.0885,3.0719,0.0759,6.207,0,9.2915
	c-0.0126,0.2908-0.2655,0.4045-0.4551,0.3287C412.6121,310.1015,412.511,309.9119,412.511,309.697z"/>
<path class="st16" d="M405.8742,310.86c0-0.0506,0.0127-0.1138,0.0253-0.1643c-0.0253-3.0719-0.0253-5.4232,0-8.6468
	c-0.0632-0.2655,0.0379-0.5562,0.2275-0.6447c0.1896-0.0885,0.4677,0.0379,0.4551,0.3287c-0.0885,3.0719,0.0758,6.207,0,9.2915
	c-0.0127,0.2908-0.2655,0.4045-0.4551,0.3287C405.9753,311.2646,405.8742,311.0749,405.8742,310.86z"/>
<circle class="st17" cx="408.9081" cy="319.5953" r="7.6102"/>
<path class="st2" d="M408.7438,323.274c-1.2894-0.0253-2.187-0.7332-2.187-1.2262c0-0.2402,0.2276-0.5941,0.4804-0.5941
	c0.3413,0,0.6321,0.7332,1.694,0.8091v-2.4525c-0.9355-0.3287-1.9847-0.7206-1.9847-2.0479c0-1.3147,0.9987-1.833,1.9847-1.9468
	v-0.3034c0-0.1264,0.1264-0.2402,0.3034-0.2402c0.1643,0,0.316,0.1138,0.316,0.2402v0.2781
	c0.7206,0.0253,1.7066,0.2402,1.7066,0.7458c0,0.2023-0.1517,0.5941-0.4551,0.5941c-0.2402,0-0.5183-0.3287-1.2515-0.3792v2.1238
	c0.9102,0.3287,1.9089,0.7964,1.9089,2.2122c0,1.2768-0.7711,1.9974-1.9089,2.1617v0.354c0,0.1264-0.1643,0.2402-0.316,0.2402
	c-0.177,0-0.3034-0.1138-0.3034-0.2402v-0.3287H408.7438z M408.807,318.6725v-1.9089c-0.5942,0.0758-0.9987,0.3287-0.9987,0.8723
	C407.7957,318.2427,408.2508,318.4702,408.807,318.6725z M409.3,320.0378v2.1996c0.5688-0.1011,0.9228-0.4425,0.9228-1.0366
	C410.2102,320.5561,409.8057,320.2527,409.3,320.0378z"/>
</svg>
