<?xml version="1.0" encoding="utf-8"?>
<!-- Generator: Adobe Illustrator 23.0.2, SVG Export Plug-In . SVG Version: 6.00 Build 0)  -->
<svg version="1.1" id="Capa_1" xmlns="http://www.w3.org/2000/svg" xmlns:xlink="http://www.w3.org/1999/xlink" x="0px" y="0px"
	 viewBox="0 0 600 100" style="enable-background:new 0 0 600 100;" xml:space="preserve">
<path style="opacity:0.1;enable-background:new    ;" d="M599.961,81.1882l-0.943-17.229l-0.409-13.073h-1.987v-2.491l-4.942-0.071
	l-0.502,30.262l-10.811-0.071v-20.787h-1.831v-1.572l-4.085-0.071l-1.242,1.352h-1.477v18.369H568.7v3.951l-2.719,0.071v-17.747
	l-2.609-0.071v-1.831l-3.119-0.071v-2.2l-2.333,0.11v4.863h-1.87v16.357h-3.575v-36.146h-3.692v-4.133l-11.942,0.071v4.101
	l-2.215,0.071v7.024l-1.163-0.071v28.9109h-5.759v-18.777l-2.059,0.071v-8.704l-1.941-0.071v9.145h-2.719v18.2271l-4.942-0.071
	v-31.953l-23.914-0.071v32.572l-4.353-0.071v-8.312l-11.589-0.11v8.886l-4.274-0.071v-13.283l-12.052,0.11v4.133l-2.215,0.11v-2.671
	l-2.333,0.071v2.271h-2.687v-12.368h-2.097v-2.302h-4.942v2.522h-2.059v17.637l-9.019,0.071v-19.209h-1.477v-4.022h-1.555v-3.951
	h-0.856v4.101h-2.797v4.212h-3.111v23.348h-2.059v-16.877l-1.359-0.259v-1.209l-24.613-11.6984v13.0175l-1.477-0.039v16.616
	l-1.831-0.11v-16.467h-4.548v-1.941h-7v1.941l-3.142,0.11v16.475l-3.229-0.157v-1.572h-1.831v-12.075h-2.609v-1.831h-4.007v3.771
	h-1.281v-1.572l-3.504-0.259v1.209l-3.111,0.11v10.245h-4.282v2.451l-3.386-0.055v-2.027l-2.727-0.11v-1.8311h-5.326v-2.09h-3.229
	l-0.047,5.869l-5.492-0.094l-0.4365-29.9845l-5.2031,5.4041l-0.5965,24.4694l-6.458-0.11v-1.12h-2.797v-14.652l-4.588,0.197v13.482
	l-1.359,0.385v1.579l-4.203-0.071v-9.797l-5.13-0.307v2.246l-1.092-0.079v-10.385l-12.908,0.079v3.024h-3.889v-1.744l-4.471,0.079
	v2.711l-3.692,0.307v6.199l-5.908-0.079v-5.735l-4.282-0.385v-6.199l-3.19-3.795l-3.032,3.2921v13.631l-4.203,0.464v-6.898
	l-5.249-0.079v2.907l-4.203-0.197v2.325l-2.412,0.079v-3.874l-4.471,0.079v6.662l-8.634-0.307l-3.7922-0.1667l-0.4493-30.8645
	l1.838-2.616v-5.956l-1.838,1.783c0,0,0.118-7.5031-1.783-8.697l0.063-2.325l1.485-0.063c0,0,1.422-2.443-1.124-4.706l0.299-0.479
	c0,0,2.373,1.249,2.02-0.299c0,0-2.609-0.299-2.02-3.04l2.255-2.679c0,0,2.255-2.443,0-1.547l-4.274,2.742v1.665l-0.652-0.236
	c0,0,0.652-2.978-1.902-1.783c0,0-4.801-4.706-4.683-2.742c0,0,3.857,5.004,6.529,8.037l-1.539,2.922l2.318,2.86v1.728
	c0,0-2.02,0.353-2.428,9.05l-1.783-1.783v5.1219l2.31,3.575l-0.7328,30.0638l-4.6763-0.2056l-3.0624-1.4431v-21.721l-10.189,0.079
	v24.5439l-4.243,0.197v-26.383l-3.15-4.258v-5.5l-0.699-0.197v5.421l-2.569,4.651v18.557l-4.243,0.197v-2.483l-7.542-0.039v9.372
	l-4.627,0.079v-7.204h-2.3329v-2.129l-4.824,0.039v2.632h-2.333v-2.246h-1.941v2.75l-1.98,0.039v2.286h-8.988v6.623l-6.058-0.102
	l0.11-35.495l0.856-0.848l-0.738-1.783l0.236-3.174l-1.634-1.053c0,0,0.896-1.823-0.778-2.365l-0.118-1.941l-1.242-0.157l-0.896-5.5
	l-2.491-2.514l-0.581-7.377l-0.62,7.487l-2.53,2.514l-0.856,4.996l-1.319,0.699l-0.118,1.783l-0.699,0.464v1.862l-1.163,1.469
	c0,0,0.039,2.325-0.856,4.651l0.856,0.778v16.577l0.071,18.682l-12.043-0.197v-4.447l-1.132-0.039v-6.993l-3.072-0.071v-5.122
	l-17.3459-0.071v10.394l-0.1492,4.3087H89.5351l0.0127-18.8986l-1.359-0.259v-1.209l-0.502,0.11v-1.7209l-0.699-0.291v-1.17
	l-0.974-0.73c0,0,0-6.332-7.118-9.333v-0.99l-1.437-0.62v-1.721c0,0-1.673-2.491-3.19,0.11v2.011h-1.831v1.209
	c0,0-5.562,2.192-6.725,9.405l-0.778,0.259v1.209c0,0-1.359,0.62-0.699,2.302l-0.66,0.071v1.209l-1.477-0.039v18.9438
	l-9.6105,0.1428L52.2,66.6223v-18.958l-9.695-0.071v13.725v2.711h-2.648v-8.713l-1.555-1.54v-4.431l-5.759,0.039v5.122l-1.398,0.039
	v23.97h-3.646v-11.642l-6.576-0.149v4.321h-3.921v-18.258h-1.713v-15.226l-10.654,2.632v12.445H1.918v15.335L0,85.3913h600
	L599.961,81.1882z M83.1934,74.519H69.0034V62.945h0.0613c0.4373-2.8538,3.4163-5.0636,7.0338-5.0636s6.5964,2.2098,7.0338,5.0636
	h0.0613V74.519z M509.55,78.5163h-10.967v-26.02h10.967V78.5163z"/>
</svg>
