<?xml version="1.0" encoding="utf-8"?>
<!-- Generator: Adobe Illustrator 23.0.1, SVG Export Plug-In . SVG Version: 6.00 Build 0)  -->
<svg version="1.1" id="Capa_1" xmlns="http://www.w3.org/2000/svg" xmlns:xlink="http://www.w3.org/1999/xlink" x="0px" y="0px"
	 viewBox="0 0 67.3 44.3" style="enable-background:new 0 0 67.3 44.3;" xml:space="preserve">
<style type="text/css">
	.st0{display:none;fill:url(#SVGID_1_);}
	.st1{opacity:0.13;fill:#020202;enable-background:new    ;}
	.st2{fill:#2E5268;}
	.st3{fill:#FFFFFF;}
	.st4{fill:#8C8C8C;}
	.st5{fill:#CCCCCC;}
	.st6{fill:#1E3444;}
	.st7{fill:#2C4263;}
	.st8{fill:#7A7E80;}
	.st9{fill:#B54266;}
	.st10{fill:none;}
	.st11{fill:none;stroke:#294968;stroke-linecap:round;stroke-linejoin:round;stroke-miterlimit:10;}
	.st12{display:none;}
	.st13{display:inline;}
</style>
<linearGradient id="SVGID_1_" gradientUnits="userSpaceOnUse" x1="37.797" y1="2560.7" x2="61.297" y2="2560.7" gradientTransform="matrix(1 0 0 1 0 -2544)">
	<stop  offset="0" style="stop-color:#FF1C3D"/>
	<stop  offset="1" style="stop-color:#D41128"/>
</linearGradient>
<circle class="st0" cx="49.5" cy="16.7" r="11.8"/>
<g>
	<path class="st1" d="M58.1,44.3h-57c-0.6,0-1.1-0.5-1.1-1.1l0,0c0-0.6,0.5-1.1,1.1-1.1h57c0.6,0,1.1,0.5,1.1,1.1l0,0
		C59.2,43.8,58.7,44.3,58.1,44.3z"/>
	<g id="XMLID_6_">
		<g>
			<path class="st2" d="M33.9,21.9c0.4,0.1,0.6,0.5,1,0.7c4.4,1.6,8.6,4,8.5,5.7l-10.3-0.8l-1.3-0.1L27,27c-2.3-6-0.8-6.5-0.8-6.5
				c0.5,0,1.6-0.2,1.9-0.1"/>
			<path class="st3" d="M56.5,34.9c0.5,0,0.9,0.4,0.9,0.9s-0.4,0.9-0.9,0.9s-0.9-0.4-0.9-0.9S56,34.9,56.5,34.9z"/>
			<path class="st4" d="M57.7,31.3c0-0.1,0-0.1-0.1-0.2c0,0-3.6,0-4.8-1.3c-0.8-0.8,0.9-1.5,0.9-1.5c-3.8-1.5-8.9-2-8.9-2
				s-10-6.9-20.8-6.9c-4.6,0-8.1,0.2-10.8,0.4c-4.9,0.4-7,0.9-7,0.9c-0.1,0.4,1,0.9,1,0.9C8,22,7.5,22.8,7.5,22.8l-1.9,3.3
				c0,0,0.4,1.6,0.3,2.3C5.7,29.1,2,30.1,2,30.1l-0.3,2.6v4.4C2.5,38.8,4.5,39,4.5,39c0-0.1,0-0.3,0-0.4c0-0.9,0.2-1.8,0.6-2.5
				c1-2,3-3.4,5.3-3.4c2.9,0,5.3,2.1,5.8,4.8c0.1,0.4,0.1,0.7,0.1,1.1c0,0.2,0,0.4,0,0.6h27.1c0-0.2,0-0.4,0-0.6
				c0-0.4,0-0.8,0.1-1.1c0.5-2.7,2.9-4.8,5.8-4.8c2.8,0,5.1,1.9,5.8,4.5c0.1,0.4,0.2,0.9,0.2,1.4c0,0.1,0,0.3,0,0.4
				c2.1-0.2,2.7-2.2,2.7-2.2c0.1-0.1,0.1-0.2,0.1-0.4C58.5,34.4,57.7,31.3,57.7,31.3z M7.5,30.8c-0.7,0-1.2-0.6-1.2-1.2
				s0.6-1.2,1.2-1.2c0.7,0,1.2,0.6,1.2,1.2S8.2,30.8,7.5,30.8z M15.2,29h-3.1c-0.2,0-0.4-0.2-0.4-0.4s0.2-0.4,0.4-0.4h3.1
				c0.2,0,0.4,0.2,0.4,0.4C15.5,28.9,15.4,29,15.2,29z M26.9,29.3c0-0.2,0.2-0.4,0.4-0.4h3.1c0.2,0,0.4,0.2,0.4,0.4
				c0,0.2-0.2,0.4-0.4,0.4h-3.1C27.1,29.6,26.9,29.5,26.9,29.3z M43.4,28.3L27,27.1L25.5,27l-1.7-0.1l-10.1-0.8c0,0-3-0.6-3.1-3.5
				c-0.1-2,6.8-2.3,11.9-2.1l0,0c0.6,0,1.3,0,1.8,0.1c0.7,0,1.3,0.1,1.9,0.1c0.5,0,1,0.1,1.3,0.1C32.5,21.1,43.6,25.5,43.4,28.3z
				 M56.5,34.9c0.5,0,0.9,0.4,0.9,0.9s-0.4,0.9-0.9,0.9s-0.9-0.4-0.9-0.9S56,34.9,56.5,34.9z"/>
			<path class="st5" d="M4.9,36.2c-0.4,0.8-0.6,1.6-0.6,2.5c0,0.1,0,0.3,0,0.4c0,0-2-0.2-2.8-1.9v-2C2.3,35.5,3.4,35.8,4.9,36.2z"/>
			<path class="st5" d="M43.3,37.6c-0.1,0.4-0.1,0.7-0.1,1.1c0,0.2,0,0.4,0,0.6h-27c0-0.2,0-0.4,0-0.6c0-0.4,0-0.8-0.1-1.1
				c0.4,0,0.9,0,1.3,0H43.3z"/>
			<path class="st5" d="M57.8,36.6c0,0.1-0.1,0.3-0.1,0.4c0,0-0.6,1.9-2.7,2.2c0-0.1,0-0.3,0-0.4c0-0.5-0.1-0.9-0.2-1.4
				C55.9,37.2,56.9,36.9,57.8,36.6z"/>
			<path class="st3" d="M57.6,31.1c0,0-3.6,0-4.8-1.3c-0.8-0.8,0.9-1.5,0.9-1.5C55.6,29,57.1,29.9,57.6,31.1z"/>
			<path class="st6" d="M55,38.7c0,0.1,0,0.3,0,0.4h-1.2l0,0c0-0.1,0-0.3,0-0.4c0-2.6-2.1-4.7-4.7-4.7s-4.7,2.1-4.7,4.7
				c0,0.2,0,0.4,0,0.6h-1.2c0-0.2,0-0.4,0-0.6c0-3.3,2.6-5.9,5.9-5.9S55,35.4,55,38.7z"/>
			<path class="st7" d="M49.1,34c-2.6,0-4.7,2.1-4.7,4.7c0,0.2,0,0.4,0,0.6c0.3,2.3,2.3,4.1,4.7,4.1c2.5,0,4.5-1.9,4.7-4.3
				c0-0.1,0-0.3,0-0.4C53.9,36.1,51.7,34,49.1,34z M49.1,40.6c-1,0-1.9-0.8-1.9-1.9c0-1,0.8-1.9,1.9-1.9s1.9,0.8,1.9,1.9
				S50.2,40.6,49.1,40.6z"/>
			<circle class="st8" cx="49.1" cy="38.7" r="1.9"/>
			<path class="st5" d="M30.4,28.9c0.2,0,0.4,0.2,0.4,0.4c0,0.2-0.2,0.4-0.4,0.4h-3.1c-0.2,0-0.4-0.2-0.4-0.4c0-0.2,0.2-0.4,0.4-0.4
				H30.4z"/>
			<path class="st6" d="M26.9,27.1L25.4,27c-0.5-3.9-1.1-6.4-1.1-6.4c0.7,0,1.3,0.1,1.9,0.1C26.1,20.6,24.7,21.1,26.9,27.1z"/>
			<path class="st6" d="M25.4,26.9l-1.7-0.1c0.5-5.9-1.1-6.3-1.2-6.4c0.6,0,1.3,0,1.8,0.1C24.3,20.5,24.9,23,25.4,26.9z"/>
			<path class="st2" d="M23.7,26.8l-5.6-0.4l-0.7-0.1l-1.6-0.1l-1.3-0.1L13.6,26c0,0-3-0.6-3.1-3.5c-0.1-1.3,2.7-1.8,6-2.1
				c0.4,0,0.9-0.1,1.4-0.1s1.1,0,1.6,0c0.2,0,0.5,0,0.7,0c0.8,0,1.5,0,2.2,0l0,0C22.6,20.5,24.1,21,23.7,26.8z"/>
			<path class="st6" d="M16.2,38.7c0,0.2,0,0.4,0,0.6H15c0-0.2,0-0.4,0-0.6c0-2.6-2.1-4.7-4.7-4.7s-4.7,2.1-4.7,4.7
				c0,0.1,0,0.3,0,0.4l0,0H4.4c0-0.1,0-0.3,0-0.4c0-3.3,2.6-5.9,5.9-5.9S16.2,35.4,16.2,38.7z"/>
			<path class="st5" d="M15.2,28.3c0.2,0,0.4,0.2,0.4,0.4S15.4,29,15.2,29h-3.1c-0.2,0-0.4-0.2-0.4-0.4s0.2-0.4,0.4-0.4L15.2,28.3
				L15.2,28.3z"/>
			<path class="st7" d="M10.3,34c-2.6,0-4.7,2.1-4.7,4.7c0,0.1,0,0.3,0,0.4c0.2,2.4,2.2,4.3,4.7,4.3c2.4,0,4.4-1.8,4.7-4.1
				c0-0.2,0-0.4,0-0.6C15,36.1,12.9,34,10.3,34z M8.4,38.7c0-1,0.8-1.9,1.9-1.9s1.9,0.8,1.9,1.9c0,1-0.8,1.9-1.9,1.9
				C9.2,40.6,8.4,39.8,8.4,38.7z"/>
			<circle class="st8" cx="10.3" cy="38.7" r="1.9"/>
			<path class="st5" d="M7.5,28.3c0.7,0,1.2,0.6,1.2,1.2s-0.6,1.2-1.2,1.2c-0.7,0-1.2-0.6-1.2-1.2S6.8,28.3,7.5,28.3z"/>
			<path class="st9" d="M7.1,21.6C8,22,7.5,22.8,7.5,22.8l-1.9,3.3c0,0,0.4,1.6,0.3,2.3C5.7,29.1,2,30.1,2,30.1l0.2-1.7
				C2.2,28.5,2.9,26,7.1,21.6z"/>
		</g>
		<g>
			<g>
				<circle class="st10" cx="10.3" cy="38.7" r="1.9"/>
			</g>
			<circle class="st10" cx="49.1" cy="38.7" r="1.9"/>
			<path class="st11" d="M24.3,20.5c0,0,0.6,2.5,1.1,6.4"/>
			<line class="st11" x1="13.1" y1="19.7" x2="11.2" y2="17.6"/>
		</g>
	</g>
</g>
<g class="st12">
	<g class="st13">
		<g>
			<g>
				<path class="st3" d="M55.8,9.5l-1.3,1.3c-0.1,0-0.2-0.1-0.3-0.1l-4-1c-0.5-0.1-0.9,0-1.3,0.3l-7.2,7.2c-0.5,0.5-0.5,1.3,0,1.9
					l5,5c0.5,0.5,1.3,0.5,1.9,0l7.2-7.2c0.3-0.3,0.5-0.8,0.3-1.3l-1-4c0-0.1,0-0.2-0.1-0.3l1.3-1.3c0.2-0.1,0.2-0.4,0-0.6
					C56.2,9.4,56,9.4,55.8,9.5z M53.8,11.5l-1.1,1.1c-0.5-0.2-1.1-0.1-1.5,0.3c-0.3,0.3-0.4,0.6-0.4,0.9s0.1,0.7,0.4,0.9
					c0.5,0.5,1.3,0.5,1.9,0c0.4-0.5,0.5-1.1,0.3-1.5l1.1-1.1l0.9,3.8c0,0.1,0,0.1,0,0.1c0,0.1-0.1,0.3-0.1,0.3L48,23.6
					c-0.1,0.1-0.5,0.1-0.6,0l-5-5c-0.2-0.1-0.2-0.4,0-0.6l7.2-7.2c0.1-0.1,0.3-0.2,0.4-0.1L53.8,11.5z M52.4,13.4L52.4,13.4
					L52.4,13.4c0.1,0.1,0.1,0.2,0.1,0.3S52.4,14,52.4,14c-0.1,0.2-0.4,0.2-0.6,0c-0.2-0.1-0.2-0.4,0-0.6
					C52,13.4,52.3,13.4,52.4,13.4z"/>
			</g>
		</g>
		<g>
			<g>
				<path class="st3" d="M49.3,17.3c-0.5,0.5-0.5,1.3,0,1.9s1.3,0.5,1.9,0s0.5-1.3,0-1.9C50.7,16.8,49.8,16.8,49.3,17.3z M50.5,17.9
					c0.2,0.1,0.1,0.4,0,0.6s-0.4,0.2-0.6,0c-0.2-0.1-0.2-0.4,0-0.6S50.4,17.7,50.5,17.9z"/>
			</g>
		</g>
		<g>
			<g>
				<path class="st3" d="M44.9,16.6c-0.5,0.5-0.5,1.3,0,1.9s1.3,0.5,1.9,0s0.5-1.3,0-1.9S45.4,16.1,44.9,16.6z M46.2,17.3
					c0.2,0.1,0.2,0.4,0,0.6c-0.1,0.2-0.4,0.2-0.6,0c-0.2-0.1-0.2-0.4,0-0.6C45.7,17.1,46,17.1,46.2,17.3z"/>
			</g>
		</g>
		<g>
			<g>
				<path class="st3" d="M48,15l-0.6,5.6c0,0.1,0,0.1,0,0.1c0,0.3,0.2,0.5,0.4,0.5s0.5-0.1,0.5-0.4l0.6-5.6c0-0.2-0.1-0.5-0.4-0.5
					S48,14.8,48,15z"/>
			</g>
		</g>
	</g>
</g>
</svg>
